{
"type": "FeatureCollection",
"crs": { "type": "name", "properties": { "name": "urn:ogc:def:crs:OGC:1.3:CRS84" } },
"features": [
{ "type": "Feature", "properties": { "Name": "kml_261", "Description": "<center><table><tr><th colspan='2' align='center'><em>Attributes<\/em><\/th><\/tr><tr bgcolor=\"#E3E3F3\"> <th>SUBZONE_NO<\/th> <td>4<\/td> <\/tr><tr bgcolor=\"\"> <th>SUBZONE_N<\/th> <td>ANCHORVALE<\/td> <\/tr><tr bgcolor=\"#E3E3F3\"> <th>SUBZONE_C<\/th> <td>SESZ04<\/td> <\/tr><tr bgcolor=\"\"> <th>CA_IND<\/th> <td>N<\/td> <\/tr><tr bgcolor=\"#E3E3F3\"> <th>PLN_AREA_N<\/th> <td>SENGKANG<\/td> <\/tr><tr bgcolor=\"\"> <th>PLN_AREA_C<\/th> <td>SE<\/td> <\/tr><tr bgcolor=\"#E3E3F3\"> <th>REGION_N<\/th> <td>NORTH-EAST REGION<\/td> <\/tr><tr bgcolor=\"\"> <th>REGION_C<\/th> <td>NER<\/td> <\/tr><tr bgcolor=\"#E3E3F3\"> <th>INC_CRC<\/th> <td>D1AAEF91E0826B9F<\/td> <\/tr><tr bgcolor=\"\"> <th>FMEL_UPD_D<\/th> <td>20191223152313<\/td> <\/tr><\/table><\/center>", "Subzone": "ANCHORVALE" }, "geometry": { "type": "Polygon", "coordinates": [ [ [ 103.895392955421002, 1.3983399462391, 0.0 ], [ 103.891340083814995, 1.38657918926033, 0.0 ], [ 103.890827117762001, 1.38663869722695, 0.0 ], [ 103.890336721763006, 1.3867585735266, 0.0 ], [ 103.890021467615995, 1.3868572924442, 0.0 ], [ 103.889841551901, 1.38693001665967, 0.0 ], [ 103.889591478203002, 1.38704823927093, 0.0 ], [ 103.882224694016003, 1.39166845498584, 0.0 ], [ 103.881502231205999, 1.39195309312667, 0.0 ], [ 103.881470329893006, 1.39213110242132, 0.0 ], [ 103.881456092514, 1.39238207271056, 0.0 ], [ 103.881451500961006, 1.39265698764128, 0.0 ], [ 103.881463250655997, 1.3927840052944, 0.0 ], [ 103.881492058749998, 1.39294442256004, 0.0 ], [ 103.881661070565002, 1.39329424598236, 0.0 ], [ 103.881824324768004, 1.39348945314658, 0.0 ], [ 103.882021853674004, 1.39364949249562, 0.0 ], [ 103.882360416438999, 1.39389903014164, 0.0 ], [ 103.882391645143997, 1.39391771726015, 0.0 ], [ 103.882536644360997, 1.39400444179701, 0.0 ], [ 103.882908331883002, 1.39422675007836, 0.0 ], [ 103.884724611706005, 1.39520692089382, 0.0 ], [ 103.884830639097999, 1.39530786997054, 0.0 ], [ 103.884981706223002, 1.39550120151464, 0.0 ], [ 103.885074264273001, 1.39570011426786, 0.0 ], [ 103.885206853645002, 1.39612566690995, 0.0 ], [ 103.885381936857996, 1.39667103050734, 0.0 ], [ 103.885690789010994, 1.39749613339059, 0.0 ], [ 103.885743073363997, 1.3977597542341, 0.0 ], [ 103.885756365343994, 1.39780826400404, 0.0 ], [ 103.886032904822997, 1.3986333711669, 0.0 ], [ 103.886156196106, 1.39906213443282, 0.0 ], [ 103.886284994763002, 1.3993672601975, 0.0 ], [ 103.886452238437997, 1.39979597451151, 0.0 ], [ 103.886596654193994, 1.40008662555751, 0.0 ], [ 103.886644790424995, 1.40025132626223, 0.0 ], [ 103.886798815337997, 1.40096364747886, 0.0 ], [ 103.886818360768004, 1.40117845962379, 0.0 ], [ 103.886820902590003, 1.40120639354983, 0.0 ], [ 103.887914590500003, 1.40111839800184, 0.0 ], [ 103.88847701668, 1.4010533519605, 0.0 ], [ 103.889960632943001, 1.40088176852268, 0.0 ], [ 103.892875742393997, 1.40046349187232, 0.0 ], [ 103.894423816103, 1.40023475362177, 0.0 ], [ 103.895378052743993, 1.40009493550827, 0.0 ], [ 103.895958160256995, 1.39998006491773, 0.0 ], [ 103.895525972577005, 1.39872593771318, 0.0 ], [ 103.895392955421002, 1.3983399462391, 0.0 ] ] ] } }
]
}
