{
"type": "FeatureCollection",
"crs": { "type": "name", "properties": { "name": "urn:ogc:def:crs:OGC:1.3:CRS84" } },
"features": [
{ "type": "Feature", "properties": { "Name": "kml_152", "Description": "<center><table><tr><th colspan='2' align='center'><em>Attributes<\/em><\/th><\/tr><tr bgcolor=\"#E3E3F3\"> <th>SUBZONE_NO<\/th> <td>1<\/td> <\/tr><tr bgcolor=\"\"> <th>SUBZONE_N<\/th> <td>BALESTIER<\/td> <\/tr><tr bgcolor=\"#E3E3F3\"> <th>SUBZONE_C<\/th> <td>NVSZ01<\/td> <\/tr><tr bgcolor=\"\"> <th>CA_IND<\/th> <td>N<\/td> <\/tr><tr bgcolor=\"#E3E3F3\"> <th>PLN_AREA_N<\/th> <td>NOVENA<\/td> <\/tr><tr bgcolor=\"\"> <th>PLN_AREA_C<\/th> <td>NV<\/td> <\/tr><tr bgcolor=\"#E3E3F3\"> <th>REGION_N<\/th> <td>CENTRAL REGION<\/td> <\/tr><tr bgcolor=\"\"> <th>REGION_C<\/th> <td>CR<\/td> <\/tr><tr bgcolor=\"#E3E3F3\"> <th>INC_CRC<\/th> <td>CEEB7DAC14907701<\/td> <\/tr><tr bgcolor=\"\"> <th>FMEL_UPD_D<\/th> <td>20191223152313<\/td> <\/tr><\/table><\/center>", "Subzone": "BALESTIER" }, "geometry": { "type": "Polygon", "coordinates": [ [ [ 103.862331254612997, 1.32956475291258, 0.0 ], [ 103.862184488056997, 1.32862697028209, 0.0 ], [ 103.861842220702002, 1.32771928896844, 0.0 ], [ 103.861173627930995, 1.32662077683671, 0.0 ], [ 103.860895264099995, 1.32631760624211, 0.0 ], [ 103.860110916962995, 1.32556702582085, 0.0 ], [ 103.859113652404005, 1.32462459186477, 0.0 ], [ 103.859069743256995, 1.32458371866464, 0.0 ], [ 103.858815742225005, 1.32435211807036, 0.0 ], [ 103.858583835044996, 1.32413733207206, 0.0 ], [ 103.858438256333997, 1.3240025280771, 0.0 ], [ 103.858392820554997, 1.32396045478809, 0.0 ], [ 103.858324341151004, 1.32389616149521, 0.0 ], [ 103.858068180047994, 1.32365573062636, 0.0 ], [ 103.857882691658006, 1.32347115167679, 0.0 ], [ 103.857642978523003, 1.32321676353929, 0.0 ], [ 103.857445679201007, 1.32298933316569, 0.0 ], [ 103.857218985114002, 1.32271640086169, 0.0 ], [ 103.856993905805993, 1.32244664917003, 0.0 ], [ 103.856699801632999, 1.32209345329684, 0.0 ], [ 103.856484516864995, 1.32184553372766, 0.0 ], [ 103.856327551598, 1.32167341833865, 0.0 ], [ 103.856273300935001, 1.32161393335934, 0.0 ], [ 103.855883663540993, 1.32123669392776, 0.0 ], [ 103.855735806341002, 1.32109354159576, 0.0 ], [ 103.855114535664995, 1.32059803765839, 0.0 ], [ 103.854817267594996, 1.32038684852084, 0.0 ], [ 103.854516709058004, 1.32017332159208, 0.0 ], [ 103.853743052715998, 1.31970141347213, 0.0 ], [ 103.853373825351994, 1.31950468011276, 0.0 ], [ 103.852148852488, 1.31885198176174, 0.0 ], [ 103.851347003962999, 1.31849432508886, 0.0 ], [ 103.851066592817006, 1.31936001929686, 0.0 ], [ 103.850785865635004, 1.31938712058026, 0.0 ], [ 103.849820870125995, 1.31921847676676, 0.0 ], [ 103.849810565520997, 1.31921654239951, 0.0 ], [ 103.849269106291999, 1.32203993068532, 0.0 ], [ 103.848726549123995, 1.32201028634477, 0.0 ], [ 103.848520391611004, 1.32203635774092, 0.0 ], [ 103.848361774845998, 1.32208200199406, 0.0 ], [ 103.848138957675005, 1.32217896479305, 0.0 ], [ 103.847994667520993, 1.32224175207229, 0.0 ], [ 103.847822452298004, 1.32233303603622, 0.0 ], [ 103.847138098696007, 1.32274837754863, 0.0 ], [ 103.846931307424995, 1.32290289753072, 0.0 ], [ 103.846852756117002, 1.32294144017365, 0.0 ], [ 103.845735725452002, 1.32336766404395, 0.0 ], [ 103.845490129935996, 1.32276763924143, 0.0 ], [ 103.845339375549003, 1.32246888222382, 0.0 ], [ 103.845159434425995, 1.32217503513155, 0.0 ], [ 103.844755787195993, 1.32173917669339, 0.0 ], [ 103.844463327835001, 1.3214901096803, 0.0 ], [ 103.844177991834997, 1.32135093827727, 0.0 ], [ 103.843411377945998, 1.32106518219726, 0.0 ], [ 103.842709487166999, 1.32083457197937, 0.0 ], [ 103.842346044596994, 1.32067409111379, 0.0 ], [ 103.842338378178994, 1.32068259849994, 0.0 ], [ 103.842156333131996, 1.32089963220103, 0.0 ], [ 103.841983521922003, 1.32121564404411, 0.0 ], [ 103.841862902881005, 1.32146731195959, 0.0 ], [ 103.841762079006998, 1.32174084643381, 0.0 ], [ 103.841688971612001, 1.32193673839286, 0.0 ], [ 103.841665280236001, 1.32216647241203, 0.0 ], [ 103.841660836496004, 1.32258681749002, 0.0 ], [ 103.841699623996007, 1.32302214955084, 0.0 ], [ 103.841875162514995, 1.32455628324639, 0.0 ], [ 103.841971496030993, 1.32520943854652, 0.0 ], [ 103.841972182535997, 1.3257309313514, 0.0 ], [ 103.841941225894004, 1.32609151248001, 0.0 ], [ 103.84182060501, 1.32639892541909, 0.0 ], [ 103.841473524365, 1.3270653664312, 0.0 ], [ 103.841011631360999, 1.32795221044813, 0.0 ], [ 103.840844399629006, 1.32829466760904, 0.0 ], [ 103.840577666048006, 1.32884614993602, 0.0 ], [ 103.841226899194993, 1.3291212755365, 0.0 ], [ 103.841579990634003, 1.32927030280606, 0.0 ], [ 103.841864741419002, 1.32937347445695, 0.0 ], [ 103.842103932643994, 1.32944225596604, 0.0 ], [ 103.842365904020994, 1.32949957273818, 0.0 ], [ 103.842707605144, 1.32955689008326, 0.0 ], [ 103.843015135920993, 1.329591280065, 0.0 ], [ 103.844188309903004, 1.32960273888013, 0.0 ], [ 103.847753392013999, 1.32975174803857, 0.0 ], [ 103.848311503711003, 1.32974028096923, 0.0 ], [ 103.849365606933006, 1.32966950235434, 0.0 ], [ 103.849871895909004, 1.32961373406659, 0.0 ], [ 103.850197085646997, 1.32958189189022, 0.0 ], [ 103.850646187942999, 1.32954454935879, 0.0 ], [ 103.851195850200995, 1.3294977373185, 0.0 ], [ 103.851289689889995, 1.32948982253939, 0.0 ], [ 103.851479000143996, 1.32947378224148, 0.0 ], [ 103.851780069982993, 1.32945106597662, 0.0 ], [ 103.852062253094999, 1.32943053928569, 0.0 ], [ 103.852292649803999, 1.3294167242523, 0.0 ], [ 103.852600087661003, 1.32939019322818, 0.0 ], [ 103.853969788021999, 1.32927190568037, 0.0 ], [ 103.854202516350995, 1.32924576124679, 0.0 ], [ 103.854469748347995, 1.32922470625783, 0.0 ], [ 103.854650951809006, 1.32921085796518, 0.0 ], [ 103.855304041996007, 1.32914991883666, 0.0 ], [ 103.855304114779003, 1.32914991160111, 0.0 ], [ 103.855484344169, 1.32913309513145, 0.0 ], [ 103.855540731168006, 1.32912796687503, 0.0 ], [ 103.855710843731003, 1.32911249707908, 0.0 ], [ 103.855824366223004, 1.32910217362474, 0.0 ], [ 103.856248528425994, 1.32910771616868, 0.0 ], [ 103.856573397622, 1.32911898873072, 0.0 ], [ 103.856775040051005, 1.32915281185464, 0.0 ], [ 103.857010290253001, 1.3291866328291, 0.0 ], [ 103.857267945366999, 1.3292542795083, 0.0 ], [ 103.857676346985997, 1.32935693894998, 0.0 ], [ 103.858341648654999, 1.32958026869092, 0.0 ], [ 103.858535637542005, 1.32964320052701, 0.0 ], [ 103.859194759294994, 1.329885648362, 0.0 ], [ 103.859564438180996, 1.33002094188593, 0.0 ], [ 103.859855701586994, 1.33012241206637, 0.0 ], [ 103.860146964117007, 1.33022388221167, 0.0 ], [ 103.860404618887003, 1.3303253517887, 0.0 ], [ 103.860639870514007, 1.33039299835626, 0.0 ], [ 103.860897525845004, 1.33046064464918, 0.0 ], [ 103.861155180935995, 1.33050574058655, 0.0 ], [ 103.861412835782005, 1.33052828707289, 0.0 ], [ 103.861670491271994, 1.33052828410837, 0.0 ], [ 103.861961751592005, 1.33050573130096, 0.0 ], [ 103.862129786658002, 1.33048317990947, 0.0 ], [ 103.862243372839004, 1.33046099270368, 0.0 ], [ 103.862313628953999, 1.33044685123149, 0.0 ], [ 103.862352303603004, 1.3304390669091, 0.0 ], [ 103.862352305399995, 1.3304390334476, 0.0 ], [ 103.862331254612997, 1.32956475291258, 0.0 ] ] ] } }
]
}
