{
"type": "FeatureCollection",
"crs": { "type": "name", "properties": { "name": "urn:ogc:def:crs:OGC:1.3:CRS84" } },
"features": [
{ "type": "Feature", "properties": { "Name": "kml_135", "Description": "<center><table><tr><th colspan='2' align='center'><em>Attributes<\/em><\/th><\/tr><tr bgcolor=\"#E3E3F3\"> <th>SUBZONE_NO<\/th> <td>8<\/td> <\/tr><tr bgcolor=\"\"> <th>SUBZONE_N<\/th> <td>BAYSHORE<\/td> <\/tr><tr bgcolor=\"#E3E3F3\"> <th>SUBZONE_C<\/th> <td>BDSZ08<\/td> <\/tr><tr bgcolor=\"\"> <th>CA_IND<\/th> <td>N<\/td> <\/tr><tr bgcolor=\"#E3E3F3\"> <th>PLN_AREA_N<\/th> <td>BEDOK<\/td> <\/tr><tr bgcolor=\"\"> <th>PLN_AREA_C<\/th> <td>BD<\/td> <\/tr><tr bgcolor=\"#E3E3F3\"> <th>REGION_N<\/th> <td>EAST REGION<\/td> <\/tr><tr bgcolor=\"\"> <th>REGION_C<\/th> <td>ER<\/td> <\/tr><tr bgcolor=\"#E3E3F3\"> <th>INC_CRC<\/th> <td>E75811E2E74F8FE5<\/td> <\/tr><tr bgcolor=\"\"> <th>FMEL_UPD_D<\/th> <td>20191223152313<\/td> <\/tr><\/table><\/center>", "Subzone": "BAYSHORE" }, "geometry": { "type": "Polygon", "coordinates": [ [ [ 103.963389204709003, 1.31495930166501, 0.0 ], [ 103.963585769743005, 1.31451760168633, 0.0 ], [ 103.963634013985001, 1.31441955904031, 0.0 ], [ 103.963627895049996, 1.31442294167676, 0.0 ], [ 103.963157314735994, 1.31468309170265, 0.0 ], [ 103.963156869944996, 1.31468291266218, 0.0 ], [ 103.963106422623994, 1.31466269737622, 0.0 ], [ 103.963081844813999, 1.31463118344187, 0.0 ], [ 103.962833047545999, 1.31450644507584, 0.0 ], [ 103.962800026226006, 1.31451255124488, 0.0 ], [ 103.962783401684007, 1.31453758576712, 0.0 ], [ 103.962805799791994, 1.31459000867675, 0.0 ], [ 103.962739775911999, 1.31460013645767, 0.0 ], [ 103.962630646739996, 1.31457237822144, 0.0 ], [ 103.962365375301005, 1.3144433675516, 0.0 ], [ 103.962094031326004, 1.31429341484548, 0.0 ], [ 103.961818954511998, 1.31410238525431, 0.0 ], [ 103.961815123866998, 1.31409972662709, 0.0 ], [ 103.961751001224997, 1.31405519552236, 0.0 ], [ 103.961637824383004, 1.31401485776703, 0.0 ], [ 103.961528902685998, 1.3139494336771, 0.0 ], [ 103.961342307715995, 1.31375805127514, 0.0 ], [ 103.961221622793005, 1.31357956709718, 0.0 ], [ 103.961170232455999, 1.31355000703939, 0.0 ], [ 103.961149409732002, 1.31358966349992, 0.0 ], [ 103.961208478987004, 1.31372388321896, 0.0 ], [ 103.961086253356001, 1.31383417379736, 0.0 ], [ 103.961034540821998, 1.31386529466503, 0.0 ], [ 103.960854859671002, 1.31385810607981, 0.0 ], [ 103.960661472558002, 1.31380726008681, 0.0 ], [ 103.960597069030996, 1.31376934075778, 0.0 ], [ 103.960433538502002, 1.31369340800931, 0.0 ], [ 103.960346835983998, 1.31364285225326, 0.0 ], [ 103.959289306334995, 1.31297566022679, 0.0 ], [ 103.959192736031, 1.31290745990873, 0.0 ], [ 103.958915403142001, 1.31271294375411, 0.0 ], [ 103.958855957078001, 1.31267755814757, 0.0 ], [ 103.958727191736997, 1.31258913788871, 0.0 ], [ 103.958439892206002, 1.31241221474102, 0.0 ], [ 103.958375695379004, 1.31230130694871, 0.0 ], [ 103.958293631413, 1.31227219150579, 0.0 ], [ 103.958270090105998, 1.31233923218071, 0.0 ], [ 103.958327961584004, 1.31251305589232, 0.0 ], [ 103.958195541912005, 1.31255217622906, 0.0 ], [ 103.957952314299007, 1.31255548212586, 0.0 ], [ 103.957796778979002, 1.31251165094478, 0.0 ], [ 103.957598677177003, 1.31238482129376, 0.0 ], [ 103.957421884301993, 1.31229159577041, 0.0 ], [ 103.956944417014, 1.31199999517916, 0.0 ], [ 103.956876338060994, 1.3119526244324, 0.0 ], [ 103.956864456987006, 1.31194278013143, 0.0 ], [ 103.956755778249999, 1.31184380756309, 0.0 ], [ 103.956444949884002, 1.31167326379953, 0.0 ], [ 103.956419130217995, 1.31165660219632, 0.0 ], [ 103.956375814392004, 1.31162865501297, 0.0 ], [ 103.956235091273001, 1.31153928562158, 0.0 ], [ 103.956225055988, 1.31153291126529, 0.0 ], [ 103.956087727695007, 1.31144569588854, 0.0 ], [ 103.955917196388995, 1.31137873262796, 0.0 ], [ 103.955745903280999, 1.31120401820047, 0.0 ], [ 103.955682908162004, 1.31124535700294, 0.0 ], [ 103.955732941139004, 1.31133962168649, 0.0 ], [ 103.955820810822004, 1.31139250448858, 0.0 ], [ 103.955776519875002, 1.31148972474899, 0.0 ], [ 103.955648966075003, 1.31157080171016, 0.0 ], [ 103.955318714952995, 1.3116258357368, 0.0 ], [ 103.955040512671005, 1.31161716929411, 0.0 ], [ 103.954822164288998, 1.31156875767929, 0.0 ], [ 103.954428094098006, 1.31140502575434, 0.0 ], [ 103.954320536392999, 1.31135250650745, 0.0 ], [ 103.953680174338004, 1.31107178992282, 0.0 ], [ 103.953377522438998, 1.31087017054323, 0.0 ], [ 103.953310630513997, 1.31089739870493, 0.0 ], [ 103.953306599854002, 1.31095869479638, 0.0 ], [ 103.953375871606994, 1.3109980004857, 0.0 ], [ 103.953361612815996, 1.31104100452564, 0.0 ], [ 103.953290810441999, 1.3110877915286, 0.0 ], [ 103.953087749429997, 1.31110294667355, 0.0 ], [ 103.952850356447996, 1.31105529093727, 0.0 ], [ 103.952414671192997, 1.31089273905646, 0.0 ], [ 103.952258794816998, 1.31083458241985, 0.0 ], [ 103.952236126775006, 1.31082612499811, 0.0 ], [ 103.952233963935001, 1.31082531840987, 0.0 ], [ 103.952207937066007, 1.31081560770154, 0.0 ], [ 103.951915098677006, 1.31069775245483, 0.0 ], [ 103.951357346208994, 1.31061764699791, 0.0 ], [ 103.951206338476993, 1.31050783104862, 0.0 ], [ 103.951158884501993, 1.31056723546177, 0.0 ], [ 103.951160651313003, 1.31061140626617, 0.0 ], [ 103.951245532819996, 1.31069417947776, 0.0 ], [ 103.951052028372004, 1.3107780556273, 0.0 ], [ 103.951055301859995, 1.3107798171712, 0.0 ], [ 103.951046747717996, 1.31078034391499, 0.0 ], [ 103.950925681447004, 1.31078780791875, 0.0 ], [ 103.950590856858994, 1.31080845223367, 0.0 ], [ 103.950549921890001, 1.31079203364641, 0.0 ], [ 103.950490038908995, 1.31076801206791, 0.0 ], [ 103.949873536208003, 1.31052072219471, 0.0 ], [ 103.949857650536003, 1.31051505167904, 0.0 ], [ 103.949732848405006, 1.31047050317825, 0.0 ], [ 103.949277275705001, 1.31034345693588, 0.0 ], [ 103.949027291139004, 1.31022921226517, 0.0 ], [ 103.949012017276999, 1.31028006529937, 0.0 ], [ 103.949082764590997, 1.3103242310937, 0.0 ], [ 103.949041424802004, 1.31035587938552, 0.0 ], [ 103.949010244747001, 1.3103650130909, 0.0 ], [ 103.948911749478, 1.31038119943085, 0.0 ], [ 103.948794525840995, 1.31039837420003, 0.0 ], [ 103.948741494047994, 1.31040806057697, 0.0 ], [ 103.948572757978994, 1.31037424974401, 0.0 ], [ 103.948335336517005, 1.31027091465369, 0.0 ], [ 103.948230180191004, 1.31022514879832, 0.0 ], [ 103.948012482246995, 1.31015017539386, 0.0 ], [ 103.947714001468, 1.31003784011878, 0.0 ], [ 103.947562819720005, 1.30999033816149, 0.0 ], [ 103.947323806873001, 1.30994380878932, 0.0 ], [ 103.947299853203006, 1.30993914608608, 0.0 ], [ 103.947280268304993, 1.30993533328384, 0.0 ], [ 103.946984524214002, 1.30987537487497, 0.0 ], [ 103.946245127891999, 1.30969086510703, 0.0 ], [ 103.946131222348995, 1.30966244071392, 0.0 ], [ 103.946120731700006, 1.3096598230582, 0.0 ], [ 103.945405187928003, 1.30944664545128, 0.0 ], [ 103.944826909333997, 1.30924256571171, 0.0 ], [ 103.944527098947006, 1.30913072930004, 0.0 ], [ 103.944365393612998, 1.30908531216474, 0.0 ], [ 103.944379499426006, 1.30911549917406, 0.0 ], [ 103.944378393533995, 1.30914089283283, 0.0 ], [ 103.944374586609996, 1.30916626581162, 0.0 ], [ 103.944351049852997, 1.30918150266439, 0.0 ], [ 103.944302203370995, 1.30920891427509, 0.0 ], [ 103.944228081879004, 1.30922062184156, 0.0 ], [ 103.944078205088999, 1.3091974985188, 0.0 ], [ 103.943983057254002, 1.30916019777066, 0.0 ], [ 103.943827583057995, 1.30906715927817, 0.0 ], [ 103.943633538594995, 1.30894972276726, 0.0 ], [ 103.943461942195, 1.30884504761923, 0.0 ], [ 103.943346043570003, 1.30879220718671, 0.0 ], [ 103.943220211701998, 1.30866101317016, 0.0 ], [ 103.943175718454995, 1.3086214438208, 0.0 ], [ 103.943066728898003, 1.30850954906506, 0.0 ], [ 103.943008612471999, 1.30850394185842, 0.0 ], [ 103.942955032602995, 1.30857643343749, 0.0 ], [ 103.942918559659006, 1.30863745332235, 0.0 ], [ 103.942853910015003, 1.30867596394361, 0.0 ], [ 103.942718618260002, 1.30871021901879, 0.0 ], [ 103.942663715673007, 1.30871942603509, 0.0 ], [ 103.942587102554995, 1.30871131816194, 0.0 ], [ 103.942429008567998, 1.30864596676602, 0.0 ], [ 103.942247358040007, 1.3085746783406, 0.0 ], [ 103.942128412246007, 1.30853732700812, 0.0 ], [ 103.942043184666005, 1.30852681388771, 0.0 ], [ 103.941971504566993, 1.30851852852469, 0.0 ], [ 103.941902419349006, 1.30850743409471, 0.0 ], [ 103.941829571105004, 1.30847741060228, 0.0 ], [ 103.941652726320996, 1.30839199486561, 0.0 ], [ 103.941526439110007, 1.30832646115389, 0.0 ], [ 103.941422296553995, 1.30823933661442, 0.0 ], [ 103.94138794365, 1.30820478600579, 0.0 ], [ 103.941337574368006, 1.30815412666997, 0.0 ], [ 103.941278967681001, 1.30830354808394, 0.0 ], [ 103.941275121423004, 1.30831335516423, 0.0 ], [ 103.941221385218, 1.30845036217371, 0.0 ], [ 103.941142728773997, 1.3084202511885, 0.0 ], [ 103.941265283565997, 1.30811072760471, 0.0 ], [ 103.941242169229, 1.30810763658751, 0.0 ], [ 103.941172065317005, 1.30808122226866, 0.0 ], [ 103.941065588148007, 1.30803125538144, 0.0 ], [ 103.940971639405006, 1.30798112154577, 0.0 ], [ 103.940814547808003, 1.30790476299266, 0.0 ], [ 103.940811602313005, 1.30790333151272, 0.0 ], [ 103.940781977529994, 1.30788893171045, 0.0 ], [ 103.940544320979996, 1.30776049343026, 0.0 ], [ 103.940230874495001, 1.30756156688293, 0.0 ], [ 103.940167617301995, 1.30752978936663, 0.0 ], [ 103.940129009686004, 1.3075136182931, 0.0 ], [ 103.940072463088001, 1.30748778667475, 0.0 ], [ 103.939998557262996, 1.30743552668787, 0.0 ], [ 103.939917059278002, 1.30737504726598, 0.0 ], [ 103.939857102568993, 1.30732470845019, 0.0 ], [ 103.939814505068995, 1.30730034762872, 0.0 ], [ 103.939788014585005, 1.30728971073497, 0.0 ], [ 103.939768114936996, 1.30730043371375, 0.0 ], [ 103.939762142031, 1.30731534691738, 0.0 ], [ 103.939769166043007, 1.30733852092427, 0.0 ], [ 103.939784215412004, 1.30737218520163, 0.0 ], [ 103.939777310885006, 1.30739117079243, 0.0 ], [ 103.939757080820996, 1.30738647801051, 0.0 ], [ 103.939720139840006, 1.30738754492575, 0.0 ], [ 103.939668340476004, 1.3073880436293, 0.0 ], [ 103.939594143297995, 1.30737295296882, 0.0 ], [ 103.939513584717005, 1.30736506221213, 0.0 ], [ 103.939427267737003, 1.30734488954117, 0.0 ], [ 103.939333328199993, 1.30732012393027, 0.0 ], [ 103.939248959390994, 1.30728138097624, 0.0 ], [ 103.939181723052997, 1.30724005171808, 0.0 ], [ 103.939100980649002, 1.30719816322959, 0.0 ], [ 103.939008759884004, 1.30712671792172, 0.0 ], [ 103.938941109135001, 1.30708085329244, 0.0 ], [ 103.938887721808001, 1.30705413975754, 0.0 ], [ 103.938846444454995, 1.30703386839295, 0.0 ], [ 103.938819343817002, 1.3070436276176, 0.0 ], [ 103.938809272881997, 1.30706440217057, 0.0 ], [ 103.938805950067007, 1.3070861332546, 0.0 ], [ 103.938805747174996, 1.30711197092009, 0.0 ], [ 103.938804182143997, 1.30713915795307, 0.0 ], [ 103.938790519662007, 1.30715854265153, 0.0 ], [ 103.938772883373005, 1.30716746946166, 0.0 ], [ 103.938739148123005, 1.3071617634506, 0.0 ], [ 103.938697786758993, 1.30715237067227, 0.0 ], [ 103.938642933609998, 1.30714015232757, 0.0 ], [ 103.938562474801003, 1.30711130020443, 0.0 ], [ 103.938503584979003, 1.30708934565231, 0.0 ], [ 103.938352350155995, 1.30703296587846, 0.0 ], [ 103.938183012319001, 1.30695458821989, 0.0 ], [ 103.938018217744997, 1.30688114456417, 0.0 ], [ 103.937954718978006, 1.3068516468978, 0.0 ], [ 103.937953966880997, 1.30685129694074, 0.0 ], [ 103.937872359371994, 1.30681338945293, 0.0 ], [ 103.937715536205999, 1.30672764881481, 0.0 ], [ 103.937491336616006, 1.30660141359149, 0.0 ], [ 103.937326774791998, 1.30650579579403, 0.0 ], [ 103.937170760879994, 1.30641099969536, 0.0 ], [ 103.937021643964002, 1.30633196725571, 0.0 ], [ 103.936939337805995, 1.30628166998696, 0.0 ], [ 103.936871948754998, 1.30623981975413, 0.0 ], [ 103.936815101392995, 1.30621867447965, 0.0 ], [ 103.936782656364997, 1.30621040542174, 0.0 ], [ 103.936756122245995, 1.3062088618683, 0.0 ], [ 103.936745205353006, 1.30624154510484, 0.0 ], [ 103.936768830259993, 1.30640372811434, 0.0 ], [ 103.936735478630993, 1.30644025582406, 0.0 ], [ 103.936664726456002, 1.30646766005606, 0.0 ], [ 103.936561328040995, 1.30646643711217, 0.0 ], [ 103.936459641902005, 1.30645660093737, 0.0 ], [ 103.936356853299998, 1.30642596354391, 0.0 ], [ 103.936243094502998, 1.30637688843942, 0.0 ], [ 103.936176166848, 1.30634574221201, 0.0 ], [ 103.936174587175003, 1.30634500883844, 0.0 ], [ 103.936097716925005, 1.30630923448692, 0.0 ], [ 103.935898239036007, 1.30620278104048, 0.0 ], [ 103.935897720563005, 1.30620250342224, 0.0 ], [ 103.935838552741004, 1.30617092729378, 0.0 ], [ 103.935161659353994, 1.30889168046123, 0.0 ], [ 103.934371820620996, 1.31151668139181, 0.0 ], [ 103.933646639295006, 1.31412416111092, 0.0 ], [ 103.933640123442004, 1.31415727192362, 0.0 ], [ 103.935413125785004, 1.31439213784193, 0.0 ], [ 103.939026179520994, 1.31467997380893, 0.0 ], [ 103.94065729994, 1.31489723400087, 0.0 ], [ 103.941975472463994, 1.31509988055995, 0.0 ], [ 103.943623246412002, 1.31565260063207, 0.0 ], [ 103.944710933384997, 1.31615527472334, 0.0 ], [ 103.945436408521005, 1.31637926809052, 0.0 ], [ 103.948514976666999, 1.31741196353385, 0.0 ], [ 103.948829791907002, 1.3175372528609, 0.0 ], [ 103.949566051358005, 1.31776443955949, 0.0 ], [ 103.950183568502993, 1.31799166690593, 0.0 ], [ 103.951329548936997, 1.3182786066259, 0.0 ], [ 103.952425788875004, 1.31847733664754, 0.0 ], [ 103.952940777749006, 1.31863691825293, 0.0 ], [ 103.953242218411006, 1.3187622772662, 0.0 ], [ 103.954462240628004, 1.31937955203362, 0.0 ], [ 103.955311987745006, 1.31980738681086, 0.0 ], [ 103.955592455144995, 1.31992367940813, 0.0 ], [ 103.956615868699004, 1.32018126608425, 0.0 ], [ 103.959428569915005, 1.32179550607309, 0.0 ], [ 103.959765229473007, 1.32200094823576, 0.0 ], [ 103.959875518776002, 1.32191806138329, 0.0 ], [ 103.960000897930001, 1.32180956311261, 0.0 ], [ 103.960139166472999, 1.32167727492091, 0.0 ], [ 103.960263843063004, 1.32153586330932, 0.0 ], [ 103.960395325666994, 1.32136708171832, 0.0 ], [ 103.960488278994006, 1.3212097034033, 0.0 ], [ 103.960656057712995, 1.32090178920192, 0.0 ], [ 103.961002459723005, 1.32018200194798, 0.0 ], [ 103.961401064401997, 1.31933552706474, 0.0 ], [ 103.961969450767995, 1.31810665086735, 0.0 ], [ 103.962460406806997, 1.31699851099636, 0.0 ], [ 103.962699507053998, 1.31645846124734, 0.0 ], [ 103.963381286696006, 1.31497650938258, 0.0 ], [ 103.963389204709003, 1.31495930166501, 0.0 ] ] ] } }
]
}
