{
"type": "FeatureCollection",
"crs": { "type": "name", "properties": { "name": "urn:ogc:def:crs:OGC:1.3:CRS84" } },
"features": [
{ "type": "Feature", "properties": { "Name": "kml_151", "Description": "<center><table><tr><th colspan='2' align='center'><em>Attributes<\/em><\/th><\/tr><tr bgcolor=\"#E3E3F3\"> <th>SUBZONE_NO<\/th> <td>1<\/td> <\/tr><tr bgcolor=\"\"> <th>SUBZONE_N<\/th> <td>BENDEMEER<\/td> <\/tr><tr bgcolor=\"#E3E3F3\"> <th>SUBZONE_C<\/th> <td>KLSZ01<\/td> <\/tr><tr bgcolor=\"\"> <th>CA_IND<\/th> <td>N<\/td> <\/tr><tr bgcolor=\"#E3E3F3\"> <th>PLN_AREA_N<\/th> <td>KALLANG<\/td> <\/tr><tr bgcolor=\"\"> <th>PLN_AREA_C<\/th> <td>KL<\/td> <\/tr><tr bgcolor=\"#E3E3F3\"> <th>REGION_N<\/th> <td>CENTRAL REGION<\/td> <\/tr><tr bgcolor=\"\"> <th>REGION_C<\/th> <td>CR<\/td> <\/tr><tr bgcolor=\"#E3E3F3\"> <th>INC_CRC<\/th> <td>63861469045FB056<\/td> <\/tr><tr bgcolor=\"\"> <th>FMEL_UPD_D<\/th> <td>20191223152313<\/td> <\/tr><\/table><\/center>", "Subzone": "BENDEMEER" }, "geometry": { "type": "Polygon", "coordinates": [ [ [ 103.862767602749997, 1.33029947239955, 0.0 ], [ 103.863024359399006, 1.33020256846083, 0.0 ], [ 103.863035064791006, 1.33020256833119, 0.0 ], [ 103.863313210377996, 1.33008411400279, 0.0 ], [ 103.864800296507994, 1.32943803911563, 0.0 ], [ 103.865375792093005, 1.32919837780228, 0.0 ], [ 103.866080596944002, 1.32896588714887, 0.0 ], [ 103.866886087953006, 1.32870359068747, 0.0 ], [ 103.867277322351001, 1.32856506561754, 0.0 ], [ 103.867614582258994, 1.32842341123504, 0.0 ], [ 103.868292896, 1.32810076785318, 0.0 ], [ 103.868275885016999, 1.32806936404043, 0.0 ], [ 103.868234283543998, 1.32799256419575, 0.0 ], [ 103.868167435282999, 1.32790884089431, 0.0 ], [ 103.867949513970999, 1.32763583896104, 0.0 ], [ 103.867732821950995, 1.32736439068747, 0.0 ], [ 103.867681645684996, 1.32730027377318, 0.0 ], [ 103.867420997485993, 1.32697419794932, 0.0 ], [ 103.867049241683006, 1.32654280766771, 0.0 ], [ 103.866780601361995, 1.32617622539524, 0.0 ], [ 103.866756697604998, 1.32614506674714, 0.0 ], [ 103.866461924706002, 1.3257772141593, 0.0 ], [ 103.866408386160003, 1.32570956118275, 0.0 ], [ 103.866308095069996, 1.32558283031873, 0.0 ], [ 103.866393738832997, 1.32550650804362, 0.0 ], [ 103.866869976217004, 1.32511959458638, 0.0 ], [ 103.867013371647005, 1.32496565261397, 0.0 ], [ 103.867132859305002, 1.3248165131371, 0.0 ], [ 103.867218892506997, 1.32463852488876, 0.0 ], [ 103.867299483113996, 1.32445737143691, 0.0 ], [ 103.867373061687005, 1.32403391080336, 0.0 ], [ 103.867387218914999, 1.32367671467775, 0.0 ], [ 103.867382757867006, 1.3234988217261, 0.0 ], [ 103.867418785672996, 1.32279767197331, 0.0 ], [ 103.867442783102007, 1.32172781388763, 0.0 ], [ 103.867448137457004, 1.31980806595098, 0.0 ], [ 103.867451489784997, 1.31933397452045, 0.0 ], [ 103.866696857489998, 1.31961969708009, 0.0 ], [ 103.865357795389997, 1.32020574842357, 0.0 ], [ 103.865067073443996, 1.32035413216508, 0.0 ], [ 103.864951352104995, 1.32017981196188, 0.0 ], [ 103.864915608828994, 1.32012655620122, 0.0 ], [ 103.864850774385999, 1.32002992839321, 0.0 ], [ 103.864658878735, 1.31974388937831, 0.0 ], [ 103.864096976081001, 1.31890640604382, 0.0 ], [ 103.863975755786996, 1.31873574310826, 0.0 ], [ 103.863847799919995, 1.31856119690788, 0.0 ], [ 103.863606517948, 1.31824467680415, 0.0 ], [ 103.862862676635004, 1.31726888548304, 0.0 ], [ 103.862715764826007, 1.31707183433244, 0.0 ], [ 103.862532962846998, 1.31685129363048, 0.0 ], [ 103.862076046341002, 1.3162426182102, 0.0 ], [ 103.861987330190999, 1.31612491076231, 0.0 ], [ 103.861939981282006, 1.31606507674039, 0.0 ], [ 103.861826186263997, 1.31591793341302, 0.0 ], [ 103.861763638198994, 1.31584212215314, 0.0 ], [ 103.861616251233997, 1.31564563616463, 0.0 ], [ 103.861439346557006, 1.31541742720047, 0.0 ], [ 103.861351737513004, 1.31530265076085, 0.0 ], [ 103.861262968458007, 1.31518879497405, 0.0 ], [ 103.861183222771999, 1.31508557079257, 0.0 ], [ 103.861112353975997, 1.31499199155724, 0.0 ], [ 103.861096261609006, 1.31497107921067, 0.0 ], [ 103.860786783929001, 1.31456825063059, 0.0 ], [ 103.860614671419, 1.3143444584661, 0.0 ], [ 103.860582115593999, 1.31430206582893, 0.0 ], [ 103.860335127702996, 1.31398045386759, 0.0 ], [ 103.860094371025994, 1.31430694656547, 0.0 ], [ 103.859920664035997, 1.3145426484564, 0.0 ], [ 103.859834268781995, 1.31465979263156, 0.0 ], [ 103.859779217199005, 1.31473454347493, 0.0 ], [ 103.859704840769993, 1.31483561514986, 0.0 ], [ 103.859569726795002, 1.31501910402037, 0.0 ], [ 103.859539401153, 1.31506029453094, 0.0 ], [ 103.859165230271998, 1.31556805305588, 0.0 ], [ 103.859052979517003, 1.31572037996947, 0.0 ], [ 103.858801699265001, 1.31610406557469, 0.0 ], [ 103.858669607745995, 1.31618524812092, 0.0 ], [ 103.858056714811994, 1.31659082204157, 0.0 ], [ 103.857764359673993, 1.3167812199164, 0.0 ], [ 103.857695904875996, 1.31682285391925, 0.0 ], [ 103.857587968017995, 1.31689239518993, 0.0 ], [ 103.857037851423001, 1.31723643437533, 0.0 ], [ 103.856589371010003, 1.31751691012608, 0.0 ], [ 103.856508835241996, 1.31756827698188, 0.0 ], [ 103.855409888902997, 1.3182535548352, 0.0 ], [ 103.855346270010998, 1.31829312135337, 0.0 ], [ 103.854438808774006, 1.31885758028988, 0.0 ], [ 103.854061928356998, 1.31907568908916, 0.0 ], [ 103.853449598956004, 1.31945744001216, 0.0 ], [ 103.853373825351994, 1.31950468011276, 0.0 ], [ 103.853743052715998, 1.31970141347213, 0.0 ], [ 103.854516709058004, 1.32017332159208, 0.0 ], [ 103.854817267594996, 1.32038684852084, 0.0 ], [ 103.855114535664995, 1.32059803765839, 0.0 ], [ 103.855735806341002, 1.32109354159576, 0.0 ], [ 103.855883663540993, 1.32123669392776, 0.0 ], [ 103.856273300935001, 1.32161393335934, 0.0 ], [ 103.856327551598, 1.32167341833865, 0.0 ], [ 103.856484516864995, 1.32184553372766, 0.0 ], [ 103.856699801632999, 1.32209345329684, 0.0 ], [ 103.856993905805993, 1.32244664917003, 0.0 ], [ 103.857218985114002, 1.32271640086169, 0.0 ], [ 103.857445679201007, 1.32298933316569, 0.0 ], [ 103.857642978523003, 1.32321676353929, 0.0 ], [ 103.857882691658006, 1.32347115167679, 0.0 ], [ 103.858068180047994, 1.32365573062636, 0.0 ], [ 103.858324341151004, 1.32389616149521, 0.0 ], [ 103.858392820554997, 1.32396045478809, 0.0 ], [ 103.858438256333997, 1.3240025280771, 0.0 ], [ 103.858583835044996, 1.32413733207206, 0.0 ], [ 103.858815742225005, 1.32435211807036, 0.0 ], [ 103.859069743256995, 1.32458371866464, 0.0 ], [ 103.859113652404005, 1.32462459186477, 0.0 ], [ 103.860110916962995, 1.32556702582085, 0.0 ], [ 103.860895264099995, 1.32631760624211, 0.0 ], [ 103.861173627930995, 1.32662077683671, 0.0 ], [ 103.861842220702002, 1.32771928896844, 0.0 ], [ 103.862184488056997, 1.32862697028209, 0.0 ], [ 103.862331254612997, 1.32956475291258, 0.0 ], [ 103.862352305399995, 1.3304390334476, 0.0 ], [ 103.862352303603004, 1.3304390669091, 0.0 ], [ 103.862767602749997, 1.33029947239955, 0.0 ] ] ] } }
]
}
