{
"type": "FeatureCollection",
"crs": { "type": "name", "properties": { "name": "urn:ogc:def:crs:OGC:1.3:CRS84" } },
"features": [
{ "type": "Feature", "properties": { "Name": "kml_190", "Description": "<center><table><tr><th colspan='2' align='center'><em>Attributes<\/em><\/th><\/tr><tr bgcolor=\"#E3E3F3\"> <th>SUBZONE_NO<\/th> <td>3<\/td> <\/tr><tr bgcolor=\"\"> <th>SUBZONE_N<\/th> <td>BRADDELL<\/td> <\/tr><tr bgcolor=\"#E3E3F3\"> <th>SUBZONE_C<\/th> <td>TPSZ03<\/td> <\/tr><tr bgcolor=\"\"> <th>CA_IND<\/th> <td>N<\/td> <\/tr><tr bgcolor=\"#E3E3F3\"> <th>PLN_AREA_N<\/th> <td>TOA PAYOH<\/td> <\/tr><tr bgcolor=\"\"> <th>PLN_AREA_C<\/th> <td>TP<\/td> <\/tr><tr bgcolor=\"#E3E3F3\"> <th>REGION_N<\/th> <td>CENTRAL REGION<\/td> <\/tr><tr bgcolor=\"\"> <th>REGION_C<\/th> <td>CR<\/td> <\/tr><tr bgcolor=\"#E3E3F3\"> <th>INC_CRC<\/th> <td>849909336BD70CC9<\/td> <\/tr><tr bgcolor=\"\"> <th>FMEL_UPD_D<\/th> <td>20191223152313<\/td> <\/tr><\/table><\/center>", "Subzone": "BRADDELL" }, "geometry": { "type": "Polygon", "coordinates": [ [ [ 103.853391051350002, 1.34107468101067, 0.0 ], [ 103.853145803217998, 1.34043671720612, 0.0 ], [ 103.852938130740995, 1.33997121898901, 0.0 ], [ 103.852874195550001, 1.33985782033924, 0.0 ], [ 103.852720087080996, 1.33960837976573, 0.0 ], [ 103.852332176269996, 1.33912634932819, 0.0 ], [ 103.852094727574993, 1.33936467743236, 0.0 ], [ 103.852026177024001, 1.33943348200808, 0.0 ], [ 103.851877248885998, 1.3395462818135, 0.0 ], [ 103.851606330712997, 1.33968229123373, 0.0 ], [ 103.851372707099998, 1.33980307537222, 0.0 ], [ 103.851289764960001, 1.33984020466855, 0.0 ], [ 103.851093574361002, 1.33995572419857, 0.0 ], [ 103.850666209877005, 1.33921828226167, 0.0 ], [ 103.850498184542005, 1.33893337337113, 0.0 ], [ 103.850337336191998, 1.33867117843606, 0.0 ], [ 103.849969344447004, 1.33807136846673, 0.0 ], [ 103.849884313660993, 1.33791003222964, 0.0 ], [ 103.849832031869994, 1.337766677247, 0.0 ], [ 103.849799493074997, 1.33760279576891, 0.0 ], [ 103.849773974057996, 1.33747424233735, 0.0 ], [ 103.849764567310999, 1.33737847110536, 0.0 ], [ 103.84977248061, 1.33719752851729, 0.0 ], [ 103.849804525603005, 1.33701898685388, 0.0 ], [ 103.849858736255996, 1.33684500213252, 0.0 ], [ 103.849935745175003, 1.33667938986134, 0.0 ], [ 103.850016052062003, 1.33655390873968, 0.0 ], [ 103.850053410160996, 1.33650190390797, 0.0 ], [ 103.849910286048001, 1.33650369552595, 0.0 ], [ 103.848837396037993, 1.33650364108024, 0.0 ], [ 103.848027984813996, 1.3365035909214, 0.0 ], [ 103.846827654999004, 1.3365034088408, 0.0 ], [ 103.846128796057997, 1.3365021998518, 0.0 ], [ 103.846076597153001, 1.33705051994606, 0.0 ], [ 103.846073859366001, 1.33724803226484, 0.0 ], [ 103.846085637677007, 1.33742374570537, 0.0 ], [ 103.846106821225007, 1.33760394836173, 0.0 ], [ 103.846138903384002, 1.33778259635783, 0.0 ], [ 103.846180392543005, 1.33795827527497, 0.0 ], [ 103.846231603220005, 1.33813508549969, 0.0 ], [ 103.846292662070994, 1.33830475933037, 0.0 ], [ 103.846401192390005, 1.33858762045261, 0.0 ], [ 103.846968784238001, 1.34006688995657, 0.0 ], [ 103.847033052187001, 1.34028033317928, 0.0 ], [ 103.847060977040002, 1.34049921635745, 0.0 ], [ 103.847074716256003, 1.34086490057903, 0.0 ], [ 103.848533033332004, 1.34081273810999, 0.0 ], [ 103.848505483531994, 1.34242358322671, 0.0 ], [ 103.846678819193997, 1.34256685070328, 0.0 ], [ 103.846614822492995, 1.34400186312069, 0.0 ], [ 103.846968063942001, 1.34402413023235, 0.0 ], [ 103.847905931178005, 1.3439869056634, 0.0 ], [ 103.848831743299996, 1.34395111784448, 0.0 ], [ 103.849399084143002, 1.34386706975882, 0.0 ], [ 103.852594113837995, 1.34343378359713, 0.0 ], [ 103.853489130157001, 1.34328393128591, 0.0 ], [ 103.853621288534995, 1.34327122024772, 0.0 ], [ 103.853620033102999, 1.3432539062012, 0.0 ], [ 103.853577358319001, 1.34266540677737, 0.0 ], [ 103.853482227060994, 1.34148436458563, 0.0 ], [ 103.853468730383, 1.34133666389642, 0.0 ], [ 103.853391051350002, 1.34107468101067, 0.0 ] ] ] } }
]
}
