{
"type": "FeatureCollection",
"crs": { "type": "name", "properties": { "name": "urn:ogc:def:crs:OGC:1.3:CRS84" } },
"features": [
{ "type": "Feature", "properties": { "Name": "kml_284", "Description": "<center><table><tr><th colspan='2' align='center'><em>Attributes<\/em><\/th><\/tr><tr bgcolor=\"#E3E3F3\"> <th>SUBZONE_NO<\/th> <td>4<\/td> <\/tr><tr bgcolor=\"\"> <th>SUBZONE_N<\/th> <td>BRICKLAND<\/td> <\/tr><tr bgcolor=\"#E3E3F3\"> <th>SUBZONE_C<\/th> <td>THSZ04<\/td> <\/tr><tr bgcolor=\"\"> <th>CA_IND<\/th> <td>N<\/td> <\/tr><tr bgcolor=\"#E3E3F3\"> <th>PLN_AREA_N<\/th> <td>TENGAH<\/td> <\/tr><tr bgcolor=\"\"> <th>PLN_AREA_C<\/th> <td>TH<\/td> <\/tr><tr bgcolor=\"#E3E3F3\"> <th>REGION_N<\/th> <td>WEST REGION<\/td> <\/tr><tr bgcolor=\"\"> <th>REGION_C<\/th> <td>WR<\/td> <\/tr><tr bgcolor=\"#E3E3F3\"> <th>INC_CRC<\/th> <td>F9F6AE822CFB2FD9<\/td> <\/tr><tr bgcolor=\"\"> <th>FMEL_UPD_D<\/th> <td>20191223152313<\/td> <\/tr><\/table><\/center>", "Subzone": "BRICKLAND" }, "geometry": { "type": "Polygon", "coordinates": [ [ [ 103.742174084354005, 1.36275265533156, 0.0 ], [ 103.742056247327, 1.36260685935609, 0.0 ], [ 103.741578854851994, 1.36299346359855, 0.0 ], [ 103.741329214542006, 1.36317291403275, 0.0 ], [ 103.739237000166, 1.36439316035826, 0.0 ], [ 103.738868483030998, 1.36465635346906, 0.0 ], [ 103.739165645688004, 1.36518278138678, 0.0 ], [ 103.739308276531006, 1.36561349083243, 0.0 ], [ 103.73961730568, 1.36667829828, 0.0 ], [ 103.739866904848, 1.36757560718451, 0.0 ], [ 103.740401762857005, 1.36945397577348, 0.0 ], [ 103.737558278633003, 1.37025545072763, 0.0 ], [ 103.737550778724994, 1.37047033340819, 0.0 ], [ 103.737709743657007, 1.37280376909106, 0.0 ], [ 103.737801418401006, 1.37418625892396, 0.0 ], [ 103.738042443948004, 1.37402446269713, 0.0 ], [ 103.738368552669996, 1.37383357106368, 0.0 ], [ 103.738672475724997, 1.37368609425262, 0.0 ], [ 103.739260505667005, 1.37341120482337, 0.0 ], [ 103.740146927498003, 1.37306284746335, 0.0 ], [ 103.741338236223996, 1.37270292030263, 0.0 ], [ 103.741821447939003, 1.37255692863177, 0.0 ], [ 103.742622407569002, 1.37240908240062, 0.0 ], [ 103.744462790832003, 1.37201840553514, 0.0 ], [ 103.745092074251005, 1.37188482106856, 0.0 ], [ 103.745230422416995, 1.37184042558316, 0.0 ], [ 103.745433453706994, 1.37175869765515, 0.0 ], [ 103.745555273126996, 1.37167696761706, 0.0 ], [ 103.745706166972994, 1.37156216879404, 0.0 ], [ 103.746142940154996, 1.37116784901962, 0.0 ], [ 103.748486119011005, 1.36905241548534, 0.0 ], [ 103.747040803228998, 1.36776417588239, 0.0 ], [ 103.745425501040998, 1.36636468532077, 0.0 ], [ 103.744873074270998, 1.36589079305232, 0.0 ], [ 103.744638769415005, 1.36568662978963, 0.0 ], [ 103.744316859240996, 1.36537125731539, 0.0 ], [ 103.744110829690996, 1.36514314661717, 0.0 ], [ 103.743924032910002, 1.36492065181413, 0.0 ], [ 103.743512202329995, 1.36441341431812, 0.0 ], [ 103.743085350612006, 1.36388106112324, 0.0 ], [ 103.742848381616994, 1.3635868863347, 0.0 ], [ 103.742689946439995, 1.36339092382364, 0.0 ], [ 103.742174084354005, 1.36275265533156, 0.0 ] ] ] } }
]
}
