{
"type": "FeatureCollection",
"crs": { "type": "name", "properties": { "name": "urn:ogc:def:crs:OGC:1.3:CRS84" } },
"features": [
{ "type": "Feature", "properties": { "Name": "kml_157", "Description": "<center><table><tr><th colspan='2' align='center'><em>Attributes<\/em><\/th><\/tr><tr bgcolor=\"#E3E3F3\"> <th>SUBZONE_NO<\/th> <td>3<\/td> <\/tr><tr bgcolor=\"\"> <th>SUBZONE_N<\/th> <td>BRICKWORKS<\/td> <\/tr><tr bgcolor=\"#E3E3F3\"> <th>SUBZONE_C<\/th> <td>BKSZ03<\/td> <\/tr><tr bgcolor=\"\"> <th>CA_IND<\/th> <td>N<\/td> <\/tr><tr bgcolor=\"#E3E3F3\"> <th>PLN_AREA_N<\/th> <td>BUKIT BATOK<\/td> <\/tr><tr bgcolor=\"\"> <th>PLN_AREA_C<\/th> <td>BK<\/td> <\/tr><tr bgcolor=\"#E3E3F3\"> <th>REGION_N<\/th> <td>WEST REGION<\/td> <\/tr><tr bgcolor=\"\"> <th>REGION_C<\/th> <td>WR<\/td> <\/tr><tr bgcolor=\"#E3E3F3\"> <th>INC_CRC<\/th> <td>2E8F28049D9CF38D<\/td> <\/tr><tr bgcolor=\"\"> <th>FMEL_UPD_D<\/th> <td>20191223152313<\/td> <\/tr><\/table><\/center>", "Subzone": "BRICKWORKS" }, "geometry": { "type": "Polygon", "coordinates": [ [ [ 103.747242313068, 1.35838996275316, 0.0 ], [ 103.747319251183001, 1.35644950561421, 0.0 ], [ 103.747357597773004, 1.35544615833375, 0.0 ], [ 103.747417529513001, 1.35500651959355, 0.0 ], [ 103.747520262478005, 1.35464445956969, 0.0 ], [ 103.747657220212005, 1.3542479228062, 0.0 ], [ 103.747731198070994, 1.35411933581464, 0.0 ], [ 103.747840996470998, 1.35395899156224, 0.0 ], [ 103.748033143903001, 1.35371573908815, 0.0 ], [ 103.748175885910996, 1.35348905278825, 0.0 ], [ 103.748324124979007, 1.35316836261686, 0.0 ], [ 103.748411978890999, 1.35271498210659, 0.0 ], [ 103.748403445278001, 1.35235196490377, 0.0 ], [ 103.746974150132004, 1.35236858971206, 0.0 ], [ 103.745251165116997, 1.35211184286576, 0.0 ], [ 103.744418560531003, 1.35196248566015, 0.0 ], [ 103.74417340686, 1.35188090756384, 0.0 ], [ 103.743950523954993, 1.35177816907143, 0.0 ], [ 103.743764412351993, 1.35166709550362, 0.0 ], [ 103.743680927295998, 1.35160746049573, 0.0 ], [ 103.743574928753006, 1.35152359132882, 0.0 ], [ 103.743464050721002, 1.35142350674192, 0.0 ], [ 103.743372373062002, 1.35132660170309, 0.0 ], [ 103.743282257589996, 1.35121669740135, 0.0 ], [ 103.743077880460007, 1.35092506787508, 0.0 ], [ 103.742853849171993, 1.35058366325071, 0.0 ], [ 103.742716456728004, 1.35040303233205, 0.0 ], [ 103.742541998364999, 1.35022935908956, 0.0 ], [ 103.742434752986995, 1.35013821242008, 0.0 ], [ 103.742288073108995, 1.35005299869261, 0.0 ], [ 103.742165839885999, 1.34998195273021, 0.0 ], [ 103.741995344827004, 1.34991323548254, 0.0 ], [ 103.741800891815998, 1.34985808366965, 0.0 ], [ 103.741721969916, 1.34984253648307, 0.0 ], [ 103.741556859886998, 1.34982373664515, 0.0 ], [ 103.741457508805993, 1.34981836276098, 0.0 ], [ 103.739342344484001, 1.34980086519476, 0.0 ], [ 103.738147031623996, 1.34976047567323, 0.0 ], [ 103.738072764731001, 1.34975716368213, 0.0 ], [ 103.738044424527999, 1.34988454573624, 0.0 ], [ 103.737897944885006, 1.3503377868826, 0.0 ], [ 103.737770982311005, 1.35078183503096, 0.0 ], [ 103.737644540386, 1.35116885947373, 0.0 ], [ 103.736992007666998, 1.35288988630925, 0.0 ], [ 103.736751265509, 1.35350602198509, 0.0 ], [ 103.736620491972005, 1.35385297293619, 0.0 ], [ 103.736578877924998, 1.35407430509305, 0.0 ], [ 103.736516454465004, 1.35446612332703, 0.0 ], [ 103.736510502989006, 1.3546545552797, 0.0 ], [ 103.736507520990997, 1.35491776371007, 0.0 ], [ 103.736516429057005, 1.35510619716393, 0.0 ], [ 103.73654613894, 1.35531556745989, 0.0 ], [ 103.736602591611003, 1.35559971518905, 0.0 ], [ 103.736644189505, 1.35580908686618, 0.0 ], [ 103.736693316792994, 1.3559877114043, 0.0 ], [ 103.736727388730998, 1.35609622549223, 0.0 ], [ 103.736783848379005, 1.35622783158158, 0.0 ], [ 103.736858136818, 1.35639533074783, 0.0 ], [ 103.736960479397993, 1.35662944461407, 0.0 ], [ 103.737012658980007, 1.35672135622246, 0.0 ], [ 103.737140438343005, 1.35692773971132, 0.0 ], [ 103.737235531213003, 1.35707430279049, 0.0 ], [ 103.737390058651002, 1.35726872351799, 0.0 ], [ 103.737532698457997, 1.35745417157671, 0.0 ], [ 103.737672367908004, 1.3576097086044, 0.0 ], [ 103.737815009751998, 1.35774430973713, 0.0 ], [ 103.737945764968003, 1.35786694566639, 0.0 ], [ 103.738032130891995, 1.35794899382062, 0.0 ], [ 103.738040631616002, 1.35794129441025, 0.0 ], [ 103.738178242868003, 1.35808780036043, 0.0 ], [ 103.739112834790006, 1.35908280215826, 0.0 ], [ 103.739207495594997, 1.35918437037485, 0.0 ], [ 103.739646547101003, 1.35965140701501, 0.0 ], [ 103.739818793729, 1.3598451798708, 0.0 ], [ 103.739984565141995, 1.36004361716897, 0.0 ], [ 103.742056247327, 1.36260685935609, 0.0 ], [ 103.742174084354005, 1.36275265533156, 0.0 ], [ 103.74290477305, 1.36211542712765, 0.0 ], [ 103.743032524205006, 1.36201411523257, 0.0 ], [ 103.743170172701994, 1.36192237548279, 0.0 ], [ 103.743294236767994, 1.36185204510872, 0.0 ], [ 103.743475269575995, 1.36176695042259, 0.0 ], [ 103.744098905808002, 1.36150371902028, 0.0 ], [ 103.745033463816995, 1.36111526540991, 0.0 ], [ 103.745189276036001, 1.36104193361431, 0.0 ], [ 103.745315604927001, 1.3609568005933, 0.0 ], [ 103.745407078743995, 1.3608631173406, 0.0 ], [ 103.745859559991999, 1.36028197466634, 0.0 ], [ 103.746426603987004, 1.35979155543996, 0.0 ], [ 103.746823251047999, 1.35940064425826, 0.0 ], [ 103.747000498245001, 1.3591541763629, 0.0 ], [ 103.747110210721004, 1.35896723031747, 0.0 ], [ 103.747160846392006, 1.35887375804523, 0.0 ], [ 103.747203040347998, 1.35872079554368, 0.0 ], [ 103.747242313068, 1.35838996275316, 0.0 ] ] ] } }
]
}
