{
"type": "FeatureCollection",
"crs": { "type": "name", "properties": { "name": "urn:ogc:def:crs:OGC:1.3:CRS84" } },
"features": [
{ "type": "Feature", "properties": { "Name": "kml_207", "Description": "<center><table><tr><th colspan='2' align='center'><em>Attributes<\/em><\/th><\/tr><tr bgcolor=\"#E3E3F3\"> <th>SUBZONE_NO<\/th> <td>6<\/td> <\/tr><tr bgcolor=\"\"> <th>SUBZONE_N<\/th> <td>BUKIT BATOK WEST<\/td> <\/tr><tr bgcolor=\"#E3E3F3\"> <th>SUBZONE_C<\/th> <td>BKSZ06<\/td> <\/tr><tr bgcolor=\"\"> <th>CA_IND<\/th> <td>N<\/td> <\/tr><tr bgcolor=\"#E3E3F3\"> <th>PLN_AREA_N<\/th> <td>BUKIT BATOK<\/td> <\/tr><tr bgcolor=\"\"> <th>PLN_AREA_C<\/th> <td>BK<\/td> <\/tr><tr bgcolor=\"#E3E3F3\"> <th>REGION_N<\/th> <td>WEST REGION<\/td> <\/tr><tr bgcolor=\"\"> <th>REGION_C<\/th> <td>WR<\/td> <\/tr><tr bgcolor=\"#E3E3F3\"> <th>INC_CRC<\/th> <td>2BC37BEE614885E1<\/td> <\/tr><tr bgcolor=\"\"> <th>FMEL_UPD_D<\/th> <td>20191223152313<\/td> <\/tr><\/table><\/center>", "Subzone": "BUKIT BATOK WEST" }, "geometry": { "type": "Polygon", "coordinates": [ [ [ 103.746974149335003, 1.34591835786862, 0.0 ], [ 103.745296087219003, 1.34364753414316, 0.0 ], [ 103.744764670712996, 1.34392900877365, 0.0 ], [ 103.744008520210002, 1.34429781481447, 0.0 ], [ 103.743497228173993, 1.34451381850213, 0.0 ], [ 103.742939781811003, 1.3446974966015, 0.0 ], [ 103.742421996692002, 1.34483860857613, 0.0 ], [ 103.742352833167999, 1.34485107534447, 0.0 ], [ 103.742169101580998, 1.34488413377778, 0.0 ], [ 103.741880296168006, 1.34493615906652, 0.0 ], [ 103.741683946400002, 1.34496098728022, 0.0 ], [ 103.741194807539003, 1.34502289592865, 0.0 ], [ 103.740996807502, 1.34503716558163, 0.0 ], [ 103.740514476960996, 1.34505276552366, 0.0 ], [ 103.739738399290005, 1.3450859728556, 0.0 ], [ 103.739226515482002, 1.34518566723334, 0.0 ], [ 103.738541249408001, 1.34539337639378, 0.0 ], [ 103.738194486642996, 1.34551800486354, 0.0 ], [ 103.737814697700003, 1.34570079700382, 0.0 ], [ 103.737264096711002, 1.3460030369362, 0.0 ], [ 103.737563612352005, 1.34650111506299, 0.0 ], [ 103.737803231342994, 1.34689691093754, 0.0 ], [ 103.737929371902993, 1.34713516406372, 0.0 ], [ 103.738139612382, 1.34755874893035, 0.0 ], [ 103.738247679636004, 1.34797496282731, 0.0 ], [ 103.738272729783006, 1.34806602775946, 0.0 ], [ 103.738287141993993, 1.34817699821194, 0.0 ], [ 103.738291740346995, 1.34830530853877, 0.0 ], [ 103.738263191347997, 1.34881258010743, 0.0 ], [ 103.738187096122999, 1.34924328098835, 0.0 ], [ 103.738072764731001, 1.34975716368213, 0.0 ], [ 103.738147031623996, 1.34976047567323, 0.0 ], [ 103.739342344484001, 1.34980086519476, 0.0 ], [ 103.741457508805993, 1.34981836276098, 0.0 ], [ 103.741556859886998, 1.34982373664515, 0.0 ], [ 103.741721969916, 1.34984253648307, 0.0 ], [ 103.741800891815998, 1.34985808366965, 0.0 ], [ 103.741995344827004, 1.34991323548254, 0.0 ], [ 103.742165839885999, 1.34998195273021, 0.0 ], [ 103.742288073108995, 1.35005299869261, 0.0 ], [ 103.742434752986995, 1.35013821242008, 0.0 ], [ 103.742541998364999, 1.35022935908956, 0.0 ], [ 103.742716456728004, 1.35040303233205, 0.0 ], [ 103.742853849171993, 1.35058366325071, 0.0 ], [ 103.743077880460007, 1.35092506787508, 0.0 ], [ 103.743282257589996, 1.35121669740135, 0.0 ], [ 103.743372373062002, 1.35132660170309, 0.0 ], [ 103.743464050721002, 1.35142350674192, 0.0 ], [ 103.743574928753006, 1.35152359132882, 0.0 ], [ 103.743680927295998, 1.35160746049573, 0.0 ], [ 103.743764412351993, 1.35166709550362, 0.0 ], [ 103.743950523954993, 1.35177816907143, 0.0 ], [ 103.74417340686, 1.35188090756384, 0.0 ], [ 103.744418560531003, 1.35196248566015, 0.0 ], [ 103.745251165116997, 1.35211184286576, 0.0 ], [ 103.745323276321002, 1.35166969592541, 0.0 ], [ 103.745368635283995, 1.35138323415648, 0.0 ], [ 103.745382242467997, 1.35125128894317, 0.0 ], [ 103.745385756038999, 1.35114601575036, 0.0 ], [ 103.745384129689, 1.35099474644985, 0.0 ], [ 103.745370690363998, 1.35088170144495, 0.0 ], [ 103.745352282872005, 1.35079408966969, 0.0 ], [ 103.745323452655001, 1.35066497085381, 0.0 ], [ 103.745288550165995, 1.35055499628425, 0.0 ], [ 103.745108398514006, 1.35010146505313, 0.0 ], [ 103.744701813049005, 1.34922287564711, 0.0 ], [ 103.744566741884995, 1.34888331119271, 0.0 ], [ 103.744533227578998, 1.34872790778118, 0.0 ], [ 103.744519964431007, 1.34856487409492, 0.0 ], [ 103.744522337788993, 1.34848341003542, 0.0 ], [ 103.744528465437995, 1.34839912178691, 0.0 ], [ 103.744549180131997, 1.34824591073347, 0.0 ], [ 103.744572420636999, 1.34814346440056, 0.0 ], [ 103.744608980994002, 1.3480277352666, 0.0 ], [ 103.744637748434997, 1.34795316161401, 0.0 ], [ 103.744724714951005, 1.34777444722481, 0.0 ], [ 103.744760010774996, 1.34771520548134, 0.0 ], [ 103.744860190759994, 1.34758223969467, 0.0 ], [ 103.744949419799994, 1.34745400694109, 0.0 ], [ 103.745032715643006, 1.34737540814225, 0.0 ], [ 103.745515248429001, 1.34699509838304, 0.0 ], [ 103.746657187715996, 1.34616697595557, 0.0 ], [ 103.746974149335003, 1.34591835786862, 0.0 ] ] ] } }
]
}
