{
"type": "FeatureCollection",
"crs": { "type": "name", "properties": { "name": "urn:ogc:def:crs:OGC:1.3:CRS84" } },
"features": [
{ "type": "Feature", "properties": { "Name": "kml_289", "Description": "<center><table><tr><th colspan='2' align='center'><em>Attributes<\/em><\/th><\/tr><tr bgcolor=\"#E3E3F3\"> <th>SUBZONE_NO<\/th> <td>2<\/td> <\/tr><tr bgcolor=\"\"> <th>SUBZONE_N<\/th> <td>CHANGI WEST<\/td> <\/tr><tr bgcolor=\"#E3E3F3\"> <th>SUBZONE_C<\/th> <td>CHSZ02<\/td> <\/tr><tr bgcolor=\"\"> <th>CA_IND<\/th> <td>N<\/td> <\/tr><tr bgcolor=\"#E3E3F3\"> <th>PLN_AREA_N<\/th> <td>CHANGI<\/td> <\/tr><tr bgcolor=\"\"> <th>PLN_AREA_C<\/th> <td>CH<\/td> <\/tr><tr bgcolor=\"#E3E3F3\"> <th>REGION_N<\/th> <td>EAST REGION<\/td> <\/tr><tr bgcolor=\"\"> <th>REGION_C<\/th> <td>ER<\/td> <\/tr><tr bgcolor=\"#E3E3F3\"> <th>INC_CRC<\/th> <td>A61E707AC702A824<\/td> <\/tr><tr bgcolor=\"\"> <th>FMEL_UPD_D<\/th> <td>20191223152313<\/td> <\/tr><\/table><\/center>", "Subzone": "CHANGI WEST" }, "geometry": { "type": "Polygon", "coordinates": [ [ [ 103.973327332818997, 1.38925599697962, 0.0 ], [ 103.973508725897005, 1.38920263426048, 0.0 ], [ 103.973536302683996, 1.38919452139657, 0.0 ], [ 103.973786130026994, 1.38912102710263, 0.0 ], [ 103.973785021020007, 1.3891182326922, 0.0 ], [ 103.973703925156002, 1.38891384191405, 0.0 ], [ 103.974165671227993, 1.38874571338466, 0.0 ], [ 103.974887025092997, 1.38848305433596, 0.0 ], [ 103.974936234465005, 1.38846513597184, 0.0 ], [ 103.975003700800997, 1.38844261511534, 0.0 ], [ 103.975130307944994, 1.38840882053725, 0.0 ], [ 103.975554269341998, 1.38834105824777, 0.0 ], [ 103.975553658091997, 1.3883373775341, 0.0 ], [ 103.975557890334997, 1.388336669163, 0.0 ], [ 103.975536215941005, 1.38824846539974, 0.0 ], [ 103.975531762421994, 1.38823034045915, 0.0 ], [ 103.975827525097998, 1.38813333431132, 0.0 ], [ 103.975822024051993, 1.38810374846377, 0.0 ], [ 103.975891392742994, 1.38808280286574, 0.0 ], [ 103.975996512365001, 1.38805106425643, 0.0 ], [ 103.976471205319001, 1.38790774476909, 0.0 ], [ 103.976696643355993, 1.38783508368568, 0.0 ], [ 103.977699369454001, 1.38759609639749, 0.0 ], [ 103.977901335506999, 1.38754891069447, 0.0 ], [ 103.978021558037995, 1.38752758298209, 0.0 ], [ 103.978221599201007, 1.38749303039348, 0.0 ], [ 103.978437862142997, 1.38745567507628, 0.0 ], [ 103.978517647491998, 1.3874418958249, 0.0 ], [ 103.978569864877997, 1.3874328743097, 0.0 ], [ 103.978677210304994, 1.38749134005584, 0.0 ], [ 103.978686952968999, 1.3874966462452, 0.0 ], [ 103.978765461722006, 1.38747270475728, 0.0 ], [ 103.978850052075998, 1.38744966725174, 0.0 ], [ 103.978892627673005, 1.38743920658316, 0.0 ], [ 103.978978307345002, 1.3874202313964, 0.0 ], [ 103.979064443664001, 1.38740408140278, 0.0 ], [ 103.979107756290006, 1.38739690894216, 0.0 ], [ 103.979194525454005, 1.38738485566098, 0.0 ], [ 103.979747093062997, 1.38731678803423, 0.0 ], [ 103.980272292419997, 1.38724316650067, 0.0 ], [ 103.981025494487994, 1.38752410793576, 0.0 ], [ 103.981705469907993, 1.38777291545265, 0.0 ], [ 103.982185730170002, 1.38790688155749, 0.0 ], [ 103.982599416911995, 1.38798342485996, 0.0 ], [ 103.983089176928999, 1.38797382194666, 0.0 ], [ 103.983777648664002, 1.38783891604545, 0.0 ], [ 103.983797657861999, 1.38783499526403, 0.0 ], [ 103.984254127065, 1.38772011124866, 0.0 ], [ 103.985832763597998, 1.38754294273081, 0.0 ], [ 103.987073802507993, 1.38744236479959, 0.0 ], [ 103.987482728092999, 1.38742798129611, 0.0 ], [ 103.987877389117997, 1.38741838453732, 0.0 ], [ 103.988224504011001, 1.38745186012546, 0.0 ], [ 103.988509805825004, 1.38752362585703, 0.0 ], [ 103.988856925731994, 1.3876336708647, 0.0 ], [ 103.989094684600005, 1.38779636500371, 0.0 ], [ 103.989303012321997, 1.38806590315485, 0.0 ], [ 103.989394950131, 1.38802821052922, 0.0 ], [ 103.990484433549994, 1.38757159945126, 0.0 ], [ 103.990923384371996, 1.3873861951137, 0.0 ], [ 103.990258164135, 1.38581766929597, 0.0 ], [ 103.990079087545993, 1.38539413381152, 0.0 ], [ 103.989081809593998, 1.38303163783959, 0.0 ], [ 103.989075601295994, 1.38301686370669, 0.0 ], [ 103.988657722133993, 1.38153616044049, 0.0 ], [ 103.987718074889003, 1.37919075210795, 0.0 ], [ 103.985963229456999, 1.37498247541939, 0.0 ], [ 103.984520267210002, 1.37125698806663, 0.0 ], [ 103.981854020528004, 1.36447368700753, 0.0 ], [ 103.981746579648004, 1.36421916391124, 0.0 ], [ 103.981219323993002, 1.36296722682303, 0.0 ], [ 103.980496758890993, 1.36219102184694, 0.0 ], [ 103.979196004073003, 1.35911033188695, 0.0 ], [ 103.979098225276005, 1.35887355339688, 0.0 ], [ 103.978332260955, 1.35914252342077, 0.0 ], [ 103.978281293539993, 1.35902203028306, 0.0 ], [ 103.97777691297, 1.35782963384613, 0.0 ], [ 103.978155081571003, 1.35766791848261, 0.0 ], [ 103.978119493669993, 1.35760221062696, 0.0 ], [ 103.977443171158995, 1.35635328372942, 0.0 ], [ 103.976577510704004, 1.35476823291601, 0.0 ], [ 103.976030335692997, 1.3537662779889, 0.0 ], [ 103.975555718335997, 1.35289033235021, 0.0 ], [ 103.975287908336, 1.35223929819754, 0.0 ], [ 103.974689418639002, 1.35077169002606, 0.0 ], [ 103.974118986793997, 1.34937388675358, 0.0 ], [ 103.973844303300993, 1.34870091292559, 0.0 ], [ 103.973215275509006, 1.34715846276587, 0.0 ], [ 103.972965262312997, 1.34654531901878, 0.0 ], [ 103.972884076816001, 1.34669127954634, 0.0 ], [ 103.972115870292001, 1.34487103148636, 0.0 ], [ 103.972087126950996, 1.3448029265474, 0.0 ], [ 103.971936193882996, 1.34444528720932, 0.0 ], [ 103.971762084852998, 1.34403272728455, 0.0 ], [ 103.970867369461999, 1.34190543958779, 0.0 ], [ 103.970703029166998, 1.34151121492586, 0.0 ], [ 103.970674822375997, 1.34144355306716, 0.0 ], [ 103.970656202618002, 1.34146230696683, 0.0 ], [ 103.970626801783993, 1.34149384734348, 0.0 ], [ 103.970505668217996, 1.34162379289659, 0.0 ], [ 103.970413045426, 1.34172967176741, 0.0 ], [ 103.970383844124996, 1.34176228018187, 0.0 ], [ 103.970356432947, 1.34179845620283, 0.0 ], [ 103.970255878125002, 1.3419123906674, 0.0 ], [ 103.969805554499004, 1.34269299336762, 0.0 ], [ 103.969512292009995, 1.34314431897883, 0.0 ], [ 103.969502559659006, 1.34315929666225, 0.0 ], [ 103.969130113863002, 1.3437324831163, 0.0 ], [ 103.968750925337005, 1.34429331360737, 0.0 ], [ 103.967805969587999, 1.345667678015, 0.0 ], [ 103.967568687991005, 1.34609438542264, 0.0 ], [ 103.967475557897004, 1.34626186213836, 0.0 ], [ 103.966873265543001, 1.34735496790055, 0.0 ], [ 103.966678193711999, 1.34770321861146, 0.0 ], [ 103.966532751475995, 1.34795941971178, 0.0 ], [ 103.966375184753005, 1.34817902284686, 0.0 ], [ 103.966060049006003, 1.34859383031105, 0.0 ], [ 103.965720674433001, 1.34905743663623, 0.0 ], [ 103.965436919433003, 1.34948223371127, 0.0 ], [ 103.965296417424995, 1.34974151745702, 0.0 ], [ 103.965161771099005, 1.35003026318371, 0.0 ], [ 103.964962736146006, 1.35057828939202, 0.0 ], [ 103.964845658613996, 1.35093774621723, 0.0 ], [ 103.964660469833007, 1.35149265204268, 0.0 ], [ 103.964328252089999, 1.35258428572743, 0.0 ], [ 103.964287025030004, 1.35269872684344, 0.0 ], [ 103.965136402406003, 1.35295405883551, 0.0 ], [ 103.965141478464005, 1.35295558512109, 0.0 ], [ 103.967410619592997, 1.35363770701953, 0.0 ], [ 103.967417126247994, 1.35364078058367, 0.0 ], [ 103.967755729607006, 1.35375645583415, 0.0 ], [ 103.967864297478997, 1.35380583878734, 0.0 ], [ 103.967955349492001, 1.35385168485015, 0.0 ], [ 103.968088418609, 1.35393632116288, 0.0 ], [ 103.968175962014996, 1.35400329511505, 0.0 ], [ 103.968284496302005, 1.35409499766345, 0.0 ], [ 103.968358282075997, 1.35418256831593, 0.0 ], [ 103.968459587829003, 1.354313624567, 0.0 ], [ 103.968522632041996, 1.35439826387442, 0.0 ], [ 103.968571671660996, 1.35448996884107, 0.0 ], [ 103.968603195529994, 1.3545640116986, 0.0 ], [ 103.968780131057002, 1.35515628823082, 0.0 ], [ 103.968955954506001, 1.35588213452381, 0.0 ], [ 103.969198789874994, 1.35673087796747, 0.0 ], [ 103.969774799180001, 1.35892470046323, 0.0 ], [ 103.969821212637001, 1.35909977774511, 0.0 ], [ 103.969912596360004, 1.35943177008784, 0.0 ], [ 103.969957637860006, 1.35957713734929, 0.0 ], [ 103.970024653886995, 1.35974090802372, 0.0 ], [ 103.970102620453005, 1.35989987319669, 0.0 ], [ 103.970186622373006, 1.36003732506382, 0.0 ], [ 103.970204210106999, 1.36007166086778, 0.0 ], [ 103.970277050345004, 1.36021391733702, 0.0 ], [ 103.970600869639, 1.36056578778926, 0.0 ], [ 103.970615048756997, 1.360577655821, 0.0 ], [ 103.970756405901994, 1.36069581524535, 0.0 ], [ 103.971185883934993, 1.36115846385376, 0.0 ], [ 103.971342895188997, 1.36132675110584, 0.0 ], [ 103.971550612333004, 1.36150844439157, 0.0 ], [ 103.971868844512002, 1.36171518479929, 0.0 ], [ 103.971908965116995, 1.36174124889571, 0.0 ], [ 103.972212883485, 1.36190557822966, 0.0 ], [ 103.972969933312001, 1.36226531731236, 0.0 ], [ 103.973448408509, 1.36243973529422, 0.0 ], [ 103.973747225096005, 1.36259017371685, 0.0 ], [ 103.973871729395, 1.36265283595739, 0.0 ], [ 103.974214112515995, 1.3629348988741, 0.0 ], [ 103.974518791373001, 1.36339265156793, 0.0 ], [ 103.974712301490001, 1.36378629968723, 0.0 ], [ 103.974889656906001, 1.3642353029014, 0.0 ], [ 103.974942526838007, 1.36439126777275, 0.0 ], [ 103.975092675531997, 1.36480881797348, 0.0 ], [ 103.975138734526993, 1.36493687283524, 0.0 ], [ 103.975199294381, 1.36515349367286, 0.0 ], [ 103.975582340594002, 1.36631794216214, 0.0 ], [ 103.975597122295, 1.3663686361702, 0.0 ], [ 103.975608179581997, 1.36640646947504, 0.0 ], [ 103.975666353402005, 1.36660047958573, 0.0 ], [ 103.975836815492002, 1.36686736277177, 0.0 ], [ 103.976015979848995, 1.36706677010572, 0.0 ], [ 103.976185733435003, 1.36721866464282, 0.0 ], [ 103.977312740857997, 1.3680795236607, 0.0 ], [ 103.978301808552004, 1.36890099827674, 0.0 ], [ 103.978517759531002, 1.36908258903278, 0.0 ], [ 103.978757017329997, 1.36927495561725, 0.0 ], [ 103.979112080416002, 1.36958121940035, 0.0 ], [ 103.979277847717, 1.36975280186471, 0.0 ], [ 103.979595174558995, 1.37008643475061, 0.0 ], [ 103.979775152395007, 1.37029614778947, 0.0 ], [ 103.979884090721995, 1.37049633231347, 0.0 ], [ 103.979945669185994, 1.37068222089169, 0.0 ], [ 103.979983570895001, 1.37092054127266, 0.0 ], [ 103.979988321167994, 1.37114933082314, 0.0 ], [ 103.979959919096999, 1.37136858954442, 0.0 ], [ 103.979898364963006, 1.37158308432471, 0.0 ], [ 103.979813129695003, 1.37177851481811, 0.0 ], [ 103.979685271440005, 1.37196918104517, 0.0 ], [ 103.979538468681, 1.37214554867137, 0.0 ], [ 103.979334833569993, 1.3723123878137, 0.0 ], [ 103.979126460375994, 1.37243632794828, 0.0 ], [ 103.978866696028007, 1.37251228128014, 0.0 ], [ 103.975985571246994, 1.3731851959627, 0.0 ], [ 103.975662885397995, 1.37327800732519, 0.0 ], [ 103.975478498746995, 1.37340947273079, 0.0 ], [ 103.975340211372995, 1.37355640085347, 0.0 ], [ 103.974857769679005, 1.37404498471642, 0.0 ], [ 103.977973752842004, 1.37721943623882, 0.0 ], [ 103.978190712339995, 1.37746767558964, 0.0 ], [ 103.978233845416995, 1.37752559186731, 0.0 ], [ 103.978277191158, 1.37759342445276, 0.0 ], [ 103.978363654587994, 1.37774688475196, 0.0 ], [ 103.978456386871997, 1.37792203124653, 0.0 ], [ 103.978527720727001, 1.37808425843845, 0.0 ], [ 103.978591959604998, 1.37827821015247, 0.0 ], [ 103.978639523045004, 1.37850552206247, 0.0 ], [ 103.978658244841, 1.3786549801823, 0.0 ], [ 103.978664997869998, 1.3787631558481, 0.0 ], [ 103.978280810620006, 1.37942149656826, 0.0 ], [ 103.978277560783994, 1.37942639388391, 0.0 ], [ 103.977591733013995, 1.38063958227885, 0.0 ], [ 103.976666360964003, 1.38230909146308, 0.0 ], [ 103.975610871941001, 1.38417936291417, 0.0 ], [ 103.974840650203006, 1.3855423452215, 0.0 ], [ 103.974558352057997, 1.38604976679796, 0.0 ], [ 103.973233575986001, 1.38729205238629, 0.0 ], [ 103.972873561501999, 1.38763244829928, 0.0 ], [ 103.972901966749006, 1.38771615521352, 0.0 ], [ 103.972901983824997, 1.38771620585674, 0.0 ], [ 103.973284524836004, 1.38884580379686, 0.0 ], [ 103.973261581155, 1.38885476648125, 0.0 ], [ 103.973096835766, 1.38899609361686, 0.0 ], [ 103.973166147477002, 1.3891360321878, 0.0 ], [ 103.973203027151996, 1.38918803981728, 0.0 ], [ 103.97323436328, 1.38925126547548, 0.0 ], [ 103.973314134977002, 1.38921745116942, 0.0 ], [ 103.973327332818997, 1.38925599697962, 0.0 ] ] ] } }
]
}
