{
"type": "FeatureCollection",
"crs": { "type": "name", "properties": { "name": "urn:ogc:def:crs:OGC:1.3:CRS84" } },
"features": [
{ "type": "Feature", "properties": { "Name": "kml_35", "Description": "<center><table><tr><th colspan='2' align='center'><em>Attributes<\/em><\/th><\/tr><tr bgcolor=\"#E3E3F3\"> <th>SUBZONE_NO<\/th> <td>6<\/td> <\/tr><tr bgcolor=\"\"> <th>SUBZONE_N<\/th> <td>CLIFFORD PIER<\/td> <\/tr><tr bgcolor=\"#E3E3F3\"> <th>SUBZONE_C<\/th> <td>DTSZ06<\/td> <\/tr><tr bgcolor=\"\"> <th>CA_IND<\/th> <td>Y<\/td> <\/tr><tr bgcolor=\"#E3E3F3\"> <th>PLN_AREA_N<\/th> <td>DOWNTOWN CORE<\/td> <\/tr><tr bgcolor=\"\"> <th>PLN_AREA_C<\/th> <td>DT<\/td> <\/tr><tr bgcolor=\"#E3E3F3\"> <th>REGION_N<\/th> <td>CENTRAL REGION<\/td> <\/tr><tr bgcolor=\"\"> <th>REGION_C<\/th> <td>CR<\/td> <\/tr><tr bgcolor=\"#E3E3F3\"> <th>INC_CRC<\/th> <td>945CC212CA80626F<\/td> <\/tr><tr bgcolor=\"\"> <th>FMEL_UPD_D<\/th> <td>20191223152313<\/td> <\/tr><\/table><\/center>", "Subzone": "CLIFFORD PIER" }, "geometry": { "type": "Polygon", "coordinates": [ [ [ 103.855213569956007, 1.28322007396092, 0.0 ], [ 103.854024155618006, 1.28229813458348, 0.0 ], [ 103.853220899159993, 1.28234191225007, 0.0 ], [ 103.853209126680994, 1.28213160952535, 0.0 ], [ 103.853188096398995, 1.2821337277121, 0.0 ], [ 103.853195677344004, 1.28224689535159, 0.0 ], [ 103.853101579040995, 1.2822816535398, 0.0 ], [ 103.852980904722003, 1.28208956737494, 0.0 ], [ 103.852980341332, 1.2820886684406, 0.0 ], [ 103.852946251259993, 1.28203440681097, 0.0 ], [ 103.852922983325996, 1.28199820616851, 0.0 ], [ 103.852911662514998, 1.28198200817632, 0.0 ], [ 103.852845470050994, 1.28188729816846, 0.0 ], [ 103.852731569173002, 1.28172432073107, 0.0 ], [ 103.852730772160001, 1.28172318214177, 0.0 ], [ 103.852729952684001, 1.28172200828239, 0.0 ], [ 103.852661542784006, 1.28176632087333, 0.0 ], [ 103.852536433574002, 1.28184735834003, 0.0 ], [ 103.852405053485001, 1.28193245644597, 0.0 ], [ 103.852308528433994, 1.28199497229443, 0.0 ], [ 103.852217978631998, 1.28205362374377, 0.0 ], [ 103.852170357207001, 1.28208447107854, 0.0 ], [ 103.852127991287006, 1.28210902942022, 0.0 ], [ 103.85200343548, 1.28218123211639, 0.0 ], [ 103.852016082551998, 1.28220055287486, 0.0 ], [ 103.852358478941994, 1.28270427343507, 0.0 ], [ 103.852489174504001, 1.28299770358545, 0.0 ], [ 103.852619869197994, 1.28329113372799, 0.0 ], [ 103.852618094682001, 1.28330436640825, 0.0 ], [ 103.852811617235005, 1.2838578118137, 0.0 ], [ 103.853211868892004, 1.28490776003715, 0.0 ], [ 103.853000391997, 1.2852346534051, 0.0 ], [ 103.852605911598005, 1.28537126616904, 0.0 ], [ 103.852543760743004, 1.28552432315718, 0.0 ], [ 103.852727690866004, 1.28575058027884, 0.0 ], [ 103.852533114151996, 1.28615360200722, 0.0 ], [ 103.85252728092, 1.2861656861745, 0.0 ], [ 103.852356269693999, 1.28650593484188, 0.0 ], [ 103.852402962607997, 1.28654248620523, 0.0 ], [ 103.852425428058993, 1.2865623829672, 0.0 ], [ 103.852929628766006, 1.28716799427271, 0.0 ], [ 103.852950739266007, 1.2871929184044, 0.0 ], [ 103.853091017981001, 1.28735853455206, 0.0 ], [ 103.853080168169996, 1.28736698863915, 0.0 ], [ 103.853059243082996, 1.2873832945002, 0.0 ], [ 103.853190759217, 1.2875448781472, 0.0 ], [ 103.853479017942007, 1.28796694022643, 0.0 ], [ 103.853646024453994, 1.28821146738601, 0.0 ], [ 103.854154889385001, 1.28817541346205, 0.0 ], [ 103.854351531329002, 1.28816148100171, 0.0 ], [ 103.858205043896007, 1.28788844095975, 0.0 ], [ 103.857093338048003, 1.28615356338514, 0.0 ], [ 103.855284111600994, 1.28333015806914, 0.0 ], [ 103.855281583079005, 1.28332621234711, 0.0 ], [ 103.855213569956007, 1.28322007396092, 0.0 ] ] ] } }
]
}
