{
"type": "FeatureCollection",
"crs": { "type": "name", "properties": { "name": "urn:ogc:def:crs:OGC:1.3:CRS84" } },
"features": [
{ "type": "Feature", "properties": { "Name": "kml_250", "Description": "<center><table><tr><th colspan='2' align='center'><em>Attributes<\/em><\/th><\/tr><tr bgcolor=\"#E3E3F3\"> <th>SUBZONE_NO<\/th> <td>5<\/td> <\/tr><tr bgcolor=\"\"> <th>SUBZONE_N<\/th> <td>COMPASSVALE<\/td> <\/tr><tr bgcolor=\"#E3E3F3\"> <th>SUBZONE_C<\/th> <td>SESZ05<\/td> <\/tr><tr bgcolor=\"\"> <th>CA_IND<\/th> <td>N<\/td> <\/tr><tr bgcolor=\"#E3E3F3\"> <th>PLN_AREA_N<\/th> <td>SENGKANG<\/td> <\/tr><tr bgcolor=\"\"> <th>PLN_AREA_C<\/th> <td>SE<\/td> <\/tr><tr bgcolor=\"#E3E3F3\"> <th>REGION_N<\/th> <td>NORTH-EAST REGION<\/td> <\/tr><tr bgcolor=\"\"> <th>REGION_C<\/th> <td>NER<\/td> <\/tr><tr bgcolor=\"#E3E3F3\"> <th>INC_CRC<\/th> <td>8C655DC88E04FC37<\/td> <\/tr><tr bgcolor=\"\"> <th>FMEL_UPD_D<\/th> <td>20191223152313<\/td> <\/tr><\/table><\/center>", "Subzone": "COMPASSVALE" }, "geometry": { "type": "Polygon", "coordinates": [ [ [ 103.891627310548003, 1.38656098726785, 0.0 ], [ 103.891986109122001, 1.38655320624874, 0.0 ], [ 103.892405773370001, 1.38660678924482, 0.0 ], [ 103.892930705929004, 1.38666421575938, 0.0 ], [ 103.893415425062997, 1.38667156042807, 0.0 ], [ 103.893769224907999, 1.38666578423842, 0.0 ], [ 103.894026577689999, 1.38661749906388, 0.0 ], [ 103.894308942704996, 1.38654889125803, 0.0 ], [ 103.894825818441007, 1.38638945839201, 0.0 ], [ 103.895290505915995, 1.38613426191635, 0.0 ], [ 103.895395174436004, 1.38605363604521, 0.0 ], [ 103.895734509213995, 1.3857853213766, 0.0 ], [ 103.896059634086001, 1.38545808503744, 0.0 ], [ 103.898477418065994, 1.38298652392221, 0.0 ], [ 103.898508219551999, 1.38295883145794, 0.0 ], [ 103.897912249466003, 1.38251538772669, 0.0 ], [ 103.897768616139004, 1.38235680878026, 0.0 ], [ 103.897587945452003, 1.38210023670368, 0.0 ], [ 103.897495276110007, 1.38192296948446, 0.0 ], [ 103.897328498915996, 1.38141918016442, 0.0 ], [ 103.897128299903997, 1.38066693681148, 0.0 ], [ 103.897053982467, 1.38029611716589, 0.0 ], [ 103.896871158715001, 1.37938388323752, 0.0 ], [ 103.896665580282004, 1.37941334658932, 0.0 ], [ 103.896168026805995, 1.37958815708007, 0.0 ], [ 103.895374480474999, 1.37990332797601, 0.0 ], [ 103.894849169761002, 1.38000465847204, 0.0 ], [ 103.894558573127995, 1.38001590002236, 0.0 ], [ 103.893463225643998, 1.37999342485703, 0.0 ], [ 103.892836121086006, 1.38003452596942, 0.0 ], [ 103.892306348554001, 1.3800531926521, 0.0 ], [ 103.891856253908998, 1.38005433248456, 0.0 ], [ 103.891468535149997, 1.38011291407415, 0.0 ], [ 103.891114021613006, 1.38021897388607, 0.0 ], [ 103.890894223423004, 1.38029984293397, 0.0 ], [ 103.890649366299996, 1.3804395649454, 0.0 ], [ 103.890347330354999, 1.38066153115276, 0.0 ], [ 103.889922905386001, 1.38101498299226, 0.0 ], [ 103.889637191579993, 1.38126157183455, 0.0 ], [ 103.888967871931001, 1.38182052610687, 0.0 ], [ 103.888680615930994, 1.38210403010079, 0.0 ], [ 103.888672131755001, 1.38211115126005, 0.0 ], [ 103.886706947416997, 1.38376051008952, 0.0 ], [ 103.885758793270995, 1.38457580085916, 0.0 ], [ 103.884544403727006, 1.38559069378096, 0.0 ], [ 103.883681645802994, 1.38630713764576, 0.0 ], [ 103.883237980705999, 1.38663653358136, 0.0 ], [ 103.882693752403995, 1.38697578821075, 0.0 ], [ 103.881516457453998, 1.38773886870277, 0.0 ], [ 103.881120526263999, 1.38794790511102, 0.0 ], [ 103.880872964686006, 1.38807971392557, 0.0 ], [ 103.880737221686999, 1.3881509353197, 0.0 ], [ 103.880727181092993, 1.38815620344157, 0.0 ], [ 103.881040324465999, 1.38869897276266, 0.0 ], [ 103.881315390290993, 1.38921801773246, 0.0 ], [ 103.881521691893994, 1.38970246040364, 0.0 ], [ 103.881624846945996, 1.39015230240869, 0.0 ], [ 103.881642047482998, 1.39063674894571, 0.0 ], [ 103.881624866989, 1.39113849847689, 0.0 ], [ 103.881573302435996, 1.39155373998603, 0.0 ], [ 103.881502231205999, 1.39195309312667, 0.0 ], [ 103.882224694016003, 1.39166845498584, 0.0 ], [ 103.889591478203002, 1.38704823927093, 0.0 ], [ 103.889841551901, 1.38693001665967, 0.0 ], [ 103.890021467615995, 1.3868572924442, 0.0 ], [ 103.890336721763006, 1.3867585735266, 0.0 ], [ 103.890827117762001, 1.38663869722695, 0.0 ], [ 103.891340083814995, 1.38657918926033, 0.0 ], [ 103.891627310548003, 1.38656098726785, 0.0 ] ] ] } }
]
}
