{
"type": "FeatureCollection",
"crs": { "type": "name", "properties": { "name": "urn:ogc:def:crs:OGC:1.3:CRS84" } },
"features": [
{ "type": "Feature", "properties": { "Name": "kml_167", "Description": "<center><table><tr><th colspan='2' align='center'><em>Attributes<\/em><\/th><\/tr><tr bgcolor=\"#E3E3F3\"> <th>SUBZONE_NO<\/th> <td>6<\/td> <\/tr><tr bgcolor=\"\"> <th>SUBZONE_N<\/th> <td>DAIRY FARM<\/td> <\/tr><tr bgcolor=\"#E3E3F3\"> <th>SUBZONE_C<\/th> <td>BPSZ06<\/td> <\/tr><tr bgcolor=\"\"> <th>CA_IND<\/th> <td>N<\/td> <\/tr><tr bgcolor=\"#E3E3F3\"> <th>PLN_AREA_N<\/th> <td>BUKIT PANJANG<\/td> <\/tr><tr bgcolor=\"\"> <th>PLN_AREA_C<\/th> <td>BP<\/td> <\/tr><tr bgcolor=\"#E3E3F3\"> <th>REGION_N<\/th> <td>WEST REGION<\/td> <\/tr><tr bgcolor=\"\"> <th>REGION_C<\/th> <td>WR<\/td> <\/tr><tr bgcolor=\"#E3E3F3\"> <th>INC_CRC<\/th> <td>E8E8327C1217034C<\/td> <\/tr><tr bgcolor=\"\"> <th>FMEL_UPD_D<\/th> <td>20191223152313<\/td> <\/tr><\/table><\/center>", "Subzone": "DAIRY FARM" }, "geometry": { "type": "Polygon", "coordinates": [ [ [ 103.775193782436006, 1.37027121132429, 0.0 ], [ 103.775255627457, 1.36997110874457, 0.0 ], [ 103.775473056373997, 1.37000237518215, 0.0 ], [ 103.775597301269997, 1.3700180092224, 0.0 ], [ 103.775668410042002, 1.37003728655616, 0.0 ], [ 103.775742304003003, 1.37007246086255, 0.0 ], [ 103.775830258691002, 1.37011179919742, 0.0 ], [ 103.776561720581995, 1.3706529781231, 0.0 ], [ 103.776622934572998, 1.37070000921504, 0.0 ], [ 103.776762803031005, 1.37078896305782, 0.0 ], [ 103.776834556357997, 1.37083604956129, 0.0 ], [ 103.776941111656001, 1.37086863631793, 0.0 ], [ 103.777559315822998, 1.37100800521779, 0.0 ], [ 103.778374567065995, 1.37120928222603, 0.0 ], [ 103.778395483010001, 1.37113399532222, 0.0 ], [ 103.778505774487996, 1.3707370011225, 0.0 ], [ 103.778954694554002, 1.36899473361257, 0.0 ], [ 103.779158298780999, 1.36807246433731, 0.0 ], [ 103.779175147847994, 1.36799259130091, 0.0 ], [ 103.779511645854001, 1.36609654210921, 0.0 ], [ 103.779578011924002, 1.3656700799468, 0.0 ], [ 103.779618225620993, 1.36538382887037, 0.0 ], [ 103.779619133302006, 1.36537811240642, 0.0 ], [ 103.778967104445996, 1.36529091426391, 0.0 ], [ 103.777131361713998, 1.36494855287443, 0.0 ], [ 103.775845904552, 1.36482577208719, 0.0 ], [ 103.774207415828002, 1.36479854422604, 0.0 ], [ 103.773212188583997, 1.36477373259588, 0.0 ], [ 103.772928160743007, 1.36475315206225, 0.0 ], [ 103.772092096909006, 1.36455012191299, 0.0 ], [ 103.771188442278998, 1.36419846295812, 0.0 ], [ 103.77041882108, 1.36387686644564, 0.0 ], [ 103.770237992606994, 1.36380130480135, 0.0 ], [ 103.769642393954001, 1.36367269934011, 0.0 ], [ 103.767876517613004, 1.36343273753629, 0.0 ], [ 103.767643595978996, 1.36341382361985, 0.0 ], [ 103.767646937204006, 1.36343400368403, 0.0 ], [ 103.767660805879999, 1.36369235817537, 0.0 ], [ 103.767660800959007, 1.36387390376896, 0.0 ], [ 103.767646920356, 1.36405544988556, 0.0 ], [ 103.767612226037997, 1.36424397711772, 0.0 ], [ 103.767542840938006, 1.36452327619057, 0.0 ], [ 103.767445704639002, 1.36479559190282, 0.0 ], [ 103.767251435977002, 1.36519359158619, 0.0 ], [ 103.767022478596999, 1.36557064160564, 0.0 ], [ 103.766882888156005, 1.36578775103488, 0.0 ], [ 103.766787422876007, 1.36593623042731, 0.0 ], [ 103.766717203045999, 1.36604544485639, 0.0 ], [ 103.766515999201999, 1.36633870539011, 0.0 ], [ 103.766210724225999, 1.36678557909965, 0.0 ], [ 103.765940140134006, 1.36716961041541, 0.0 ], [ 103.765676493102006, 1.36754666020418, 0.0 ], [ 103.765389642208007, 1.36795674931954, 0.0 ], [ 103.765049057024001, 1.3684852524234, 0.0 ], [ 103.764884044599995, 1.36874131011823, 0.0 ], [ 103.764453635012003, 1.36944381552914, 0.0 ], [ 103.765557250013998, 1.37034153844125, 0.0 ], [ 103.765623008747994, 1.37038813674519, 0.0 ], [ 103.765855543252002, 1.37055297809359, 0.0 ], [ 103.766083955818999, 1.3706938310582, 0.0 ], [ 103.766385813580001, 1.37088001187168, 0.0 ], [ 103.766872558572999, 1.3712264745756, 0.0 ], [ 103.767049022638005, 1.37135210103854, 0.0 ], [ 103.767365639402996, 1.37157749445009, 0.0 ], [ 103.767417797513005, 1.37162161889542, 0.0 ], [ 103.767501211674002, 1.37169220317306, 0.0 ], [ 103.768361274995002, 1.37241783850725, 0.0 ], [ 103.768555744750998, 1.37257829782896, 0.0 ], [ 103.768930892316007, 1.37279316494147, 0.0 ], [ 103.769116378174999, 1.3728882692299, 0.0 ], [ 103.769257444982998, 1.37294988371936, 0.0 ], [ 103.769690299733995, 1.37309946806594, 0.0 ], [ 103.770418575091, 1.37335108416221, 0.0 ], [ 103.770732509724994, 1.37345707303206, 0.0 ], [ 103.770868347356995, 1.37350211753914, 0.0 ], [ 103.771291093635995, 1.37364226972739, 0.0 ], [ 103.771417418479999, 1.37370812155604, 0.0 ], [ 103.771507045432003, 1.37378354601744, 0.0 ], [ 103.771558342307003, 1.373848266334, 0.0 ], [ 103.771622135539005, 1.37395106882663, 0.0 ], [ 103.771666992166004, 1.37402334855007, 0.0 ], [ 103.771853384514998, 1.37434411944271, 0.0 ], [ 103.772087684145006, 1.37417558194396, 0.0 ], [ 103.772830737120003, 1.37371278561503, 0.0 ], [ 103.773270148687004, 1.37344837708532, 0.0 ], [ 103.773551956515007, 1.37327881598911, 0.0 ], [ 103.773661893129997, 1.37320523248224, 0.0 ], [ 103.773782623982001, 1.37310709757289, 0.0 ], [ 103.773873606457002, 1.37302002047279, 0.0 ], [ 103.773960499962996, 1.37291531359925, 0.0 ], [ 103.774040653493003, 1.37280202323731, 0.0 ], [ 103.774132183253997, 1.37263874535208, 0.0 ], [ 103.774648709063001, 1.37166854583405, 0.0 ], [ 103.775005154054, 1.37092552749224, 0.0 ], [ 103.775193782436006, 1.37027121132429, 0.0 ] ] ] } }
]
}
