{
"type": "FeatureCollection",
"crs": { "type": "name", "properties": { "name": "urn:ogc:def:crs:OGC:1.3:CRS84" } },
"features": [
{ "type": "Feature", "properties": { "Name": "kml_141", "Description": "<center><table><tr><th colspan='2' align='center'><em>Attributes<\/em><\/th><\/tr><tr bgcolor=\"#E3E3F3\"> <th>SUBZONE_NO<\/th> <td>5<\/td> <\/tr><tr bgcolor=\"\"> <th>SUBZONE_N<\/th> <td>FRANKEL<\/td> <\/tr><tr bgcolor=\"#E3E3F3\"> <th>SUBZONE_C<\/th> <td>BDSZ05<\/td> <\/tr><tr bgcolor=\"\"> <th>CA_IND<\/th> <td>N<\/td> <\/tr><tr bgcolor=\"#E3E3F3\"> <th>PLN_AREA_N<\/th> <td>BEDOK<\/td> <\/tr><tr bgcolor=\"\"> <th>PLN_AREA_C<\/th> <td>BD<\/td> <\/tr><tr bgcolor=\"#E3E3F3\"> <th>REGION_N<\/th> <td>EAST REGION<\/td> <\/tr><tr bgcolor=\"\"> <th>REGION_C<\/th> <td>ER<\/td> <\/tr><tr bgcolor=\"#E3E3F3\"> <th>INC_CRC<\/th> <td>B34F041CC4B050EC<\/td> <\/tr><tr bgcolor=\"\"> <th>FMEL_UPD_D<\/th> <td>20191223152313<\/td> <\/tr><\/table><\/center>", "Subzone": "FRANKEL" }, "geometry": { "type": "Polygon", "coordinates": [ [ [ 103.910158048008, 1.30560579617886, 0.0 ], [ 103.909983251149001, 1.30554733713141, 0.0 ], [ 103.909909231607003, 1.30569569397652, 0.0 ], [ 103.909525142972996, 1.30639333478795, 0.0 ], [ 103.909062325956995, 1.30723396782876, 0.0 ], [ 103.909017893631997, 1.30732117428007, 0.0 ], [ 103.908688262129999, 1.30796735682887, 0.0 ], [ 103.908535156550997, 1.3082574578955, 0.0 ], [ 103.908429273652999, 1.30850269384463, 0.0 ], [ 103.908215431086006, 1.30910851741714, 0.0 ], [ 103.908057506263006, 1.30981613450447, 0.0 ], [ 103.908022376722997, 1.31003132715345, 0.0 ], [ 103.908017322410004, 1.31006229091823, 0.0 ], [ 103.907977139178001, 1.31017788521118, 0.0 ], [ 103.907837383732996, 1.31057990540353, 0.0 ], [ 103.907662988303002, 1.31107282243703, 0.0 ], [ 103.907215359681004, 1.31212244691551, 0.0 ], [ 103.907192264868002, 1.31217289392777, 0.0 ], [ 103.906801109697, 1.31310005583671, 0.0 ], [ 103.906771135236994, 1.31316964933851, 0.0 ], [ 103.906706206981994, 1.31332349984555, 0.0 ], [ 103.906669528945997, 1.31341033253014, 0.0 ], [ 103.906478143094006, 1.31386361714909, 0.0 ], [ 103.906366254459002, 1.31412867595497, 0.0 ], [ 103.906316629195999, 1.31424620945947, 0.0 ], [ 103.906240044220993, 1.31440744262192, 0.0 ], [ 103.906183081248997, 1.31452002946883, 0.0 ], [ 103.906085090153994, 1.31471373082614, 0.0 ], [ 103.905890020152995, 1.3152326497292, 0.0 ], [ 103.905871875350996, 1.31528147144416, 0.0 ], [ 103.905853379247006, 1.31533135308385, 0.0 ], [ 103.905610051026997, 1.31592287029179, 0.0 ], [ 103.905519043211001, 1.31614232138157, 0.0 ], [ 103.905461274006001, 1.31628045199798, 0.0 ], [ 103.905232475077995, 1.31686871937173, 0.0 ], [ 103.905216577991993, 1.31693375807199, 0.0 ], [ 103.905087598532006, 1.31760221429685, 0.0 ], [ 103.905240176934996, 1.3176343916614, 0.0 ], [ 103.909274834429993, 1.31838417513412, 0.0 ], [ 103.913028295272994, 1.31913788770838, 0.0 ], [ 103.913416976601994, 1.31923895679481, 0.0 ], [ 103.915505253009002, 1.32000406952146, 0.0 ], [ 103.917408201575995, 1.32063278606298, 0.0 ], [ 103.917607371939994, 1.32074419416649, 0.0 ], [ 103.918823055163003, 1.32121068193455, 0.0 ], [ 103.923198400912, 1.32268819596425, 0.0 ], [ 103.924896194759995, 1.32312031073175, 0.0 ], [ 103.927295921568003, 1.32351890181407, 0.0 ], [ 103.929718905819996, 1.32388411406465, 0.0 ], [ 103.931846024245999, 1.32415725526864, 0.0 ], [ 103.932835092158996, 1.31903104029817, 0.0 ], [ 103.933178279139, 1.31650416850216, 0.0 ], [ 103.933640123442004, 1.31415727192362, 0.0 ], [ 103.933646639295006, 1.31412416111092, 0.0 ], [ 103.934371820620996, 1.31151668139181, 0.0 ], [ 103.934202310532996, 1.31145027725683, 0.0 ], [ 103.934096432108007, 1.31140893677071, 0.0 ], [ 103.933868761740001, 1.3113200380251, 0.0 ], [ 103.933659585875006, 1.31122314755718, 0.0 ], [ 103.933531975386998, 1.31116403808673, 0.0 ], [ 103.933355948474002, 1.31108250324978, 0.0 ], [ 103.933018505237996, 1.31094661359086, 0.0 ], [ 103.932832622451002, 1.31087175873682, 0.0 ], [ 103.932690803344997, 1.31081464843126, 0.0 ], [ 103.932506971093005, 1.31074061915322, 0.0 ], [ 103.932404632103996, 1.31069940686897, 0.0 ], [ 103.932195779566001, 1.31061903987952, 0.0 ], [ 103.932019199755004, 1.3105510912144, 0.0 ], [ 103.931825445757994, 1.31047653593673, 0.0 ], [ 103.931570194076002, 1.31039649358497, 0.0 ], [ 103.931361209176998, 1.3103309607994, 0.0 ], [ 103.930523800532001, 1.31006836740077, 0.0 ], [ 103.929373047997004, 1.30968868792571, 0.0 ], [ 103.928894053459999, 1.30955431522526, 0.0 ], [ 103.928587704668999, 1.30948495323682, 0.0 ], [ 103.927353055769998, 1.30928683420126, 0.0 ], [ 103.927132173705004, 1.30925405934951, 0.0 ], [ 103.926940214213005, 1.30922493973303, 0.0 ], [ 103.926790688840001, 1.3092020179221, 0.0 ], [ 103.926595745243006, 1.30917190992108, 0.0 ], [ 103.926141431649995, 1.30907131915358, 0.0 ], [ 103.925664035761002, 1.30888469343322, 0.0 ], [ 103.924683259831994, 1.30860617021825, 0.0 ], [ 103.924550161238997, 1.30856934669394, 0.0 ], [ 103.924462270025998, 1.30854866620886, 0.0 ], [ 103.924405653934002, 1.30853623327852, 0.0 ], [ 103.924357567913006, 1.30852835712355, 0.0 ], [ 103.924071892800995, 1.30850070667323, 0.0 ], [ 103.923440099413995, 1.30845312750628, 0.0 ], [ 103.923364670652006, 1.30844631313846, 0.0 ], [ 103.923174008204001, 1.30842718910856, 0.0 ], [ 103.923116831602002, 1.30841968495025, 0.0 ], [ 103.923046140791001, 1.30841039606316, 0.0 ], [ 103.922901882760996, 1.30838729837675, 0.0 ], [ 103.922764184998002, 1.30836347514687, 0.0 ], [ 103.922731367078001, 1.30835521044022, 0.0 ], [ 103.921928249673996, 1.3081818373252, 0.0 ], [ 103.920616885963, 1.30786468343534, 0.0 ], [ 103.918259763487001, 1.30747117756817, 0.0 ], [ 103.916949777078003, 1.30723608271181, 0.0 ], [ 103.916602499141007, 1.30716784379816, 0.0 ], [ 103.916526088938994, 1.30715281491608, 0.0 ], [ 103.915984921741, 1.30702961333003, 0.0 ], [ 103.914765765656995, 1.30672275211412, 0.0 ], [ 103.913554473166002, 1.30642071209885, 0.0 ], [ 103.913382800956001, 1.30637882023922, 0.0 ], [ 103.913200106193003, 1.30633413785307, 0.0 ], [ 103.912118929254007, 1.30607143006973, 0.0 ], [ 103.911876284876001, 1.30601247861183, 0.0 ], [ 103.911639818059996, 1.30595502637132, 0.0 ], [ 103.910548357989995, 1.30573635259429, 0.0 ], [ 103.910158048008, 1.30560579617886, 0.0 ] ] ] } }
]
}
