{
"type": "FeatureCollection",
"crs": { "type": "name", "properties": { "name": "urn:ogc:def:crs:OGC:1.3:CRS84" } },
"features": [
{ "type": "Feature", "properties": { "Name": "kml_146", "Description": "<center><table><tr><th colspan='2' align='center'><em>Attributes<\/em><\/th><\/tr><tr bgcolor=\"#E3E3F3\"> <th>SUBZONE_NO<\/th> <td>8<\/td> <\/tr><tr bgcolor=\"\"> <th>SUBZONE_N<\/th> <td>JURONG RIVER<\/td> <\/tr><tr bgcolor=\"#E3E3F3\"> <th>SUBZONE_C<\/th> <td>JESZ08<\/td> <\/tr><tr bgcolor=\"\"> <th>CA_IND<\/th> <td>N<\/td> <\/tr><tr bgcolor=\"#E3E3F3\"> <th>PLN_AREA_N<\/th> <td>JURONG EAST<\/td> <\/tr><tr bgcolor=\"\"> <th>PLN_AREA_C<\/th> <td>JE<\/td> <\/tr><tr bgcolor=\"#E3E3F3\"> <th>REGION_N<\/th> <td>WEST REGION<\/td> <\/tr><tr bgcolor=\"\"> <th>REGION_C<\/th> <td>WR<\/td> <\/tr><tr bgcolor=\"#E3E3F3\"> <th>INC_CRC<\/th> <td>01314B56AF4A46E6<\/td> <\/tr><tr bgcolor=\"\"> <th>FMEL_UPD_D<\/th> <td>20191223152313<\/td> <\/tr><\/table><\/center>", "Subzone": "JURONG RIVER" }, "geometry": { "type": "Polygon", "coordinates": [ [ [ 103.737895199036998, 1.32721196934104, 0.0 ], [ 103.734320410791995, 1.31130944659581, 0.0 ], [ 103.726994972778002, 1.31278104409632, 0.0 ], [ 103.719477306125995, 1.314307870661, 0.0 ], [ 103.719581431511003, 1.31482834352227, 0.0 ], [ 103.719733887697004, 1.31559543383702, 0.0 ], [ 103.720119070067, 1.31753509827001, 0.0 ], [ 103.720201473494001, 1.31795004815373, 0.0 ], [ 103.720236064280002, 1.31812445792865, 0.0 ], [ 103.720275523965995, 1.318366270997, 0.0 ], [ 103.720294023405003, 1.31852351161079, 0.0 ], [ 103.720337342133007, 1.3189897895346, 0.0 ], [ 103.720349217080994, 1.31949418401206, 0.0 ], [ 103.720326177974002, 1.31999808310935, 0.0 ], [ 103.720271534538, 1.32043330434424, 0.0 ], [ 103.720251931893003, 1.32058941366348, 0.0 ], [ 103.720177653066003, 1.32098990736257, 0.0 ], [ 103.719897306784006, 1.32226296248559, 0.0 ], [ 103.719844506051004, 1.32250187463655, 0.0 ], [ 103.719760232460999, 1.32288322158038, 0.0 ], [ 103.719684831693002, 1.32321288730348, 0.0 ], [ 103.719648948084, 1.32336977180196, 0.0 ], [ 103.719608072919996, 1.32354848467487, 0.0 ], [ 103.719598908563, 1.32358855385633, 0.0 ], [ 103.721810484789003, 1.32413770540325, 0.0 ], [ 103.726014840195006, 1.32503230718352, 0.0 ], [ 103.731700395231996, 1.32632311090893, 0.0 ], [ 103.733632283895005, 1.32675781790919, 0.0 ], [ 103.733711206750996, 1.32677448400093, 0.0 ], [ 103.733759440680004, 1.32678466998928, 0.0 ], [ 103.733815735462002, 1.32679655741027, 0.0 ], [ 103.734490973685993, 1.32693914847326, 0.0 ], [ 103.735654994195997, 1.32718061749219, 0.0 ], [ 103.736678533147, 1.32731069545209, 0.0 ], [ 103.737342920078007, 1.32728549789427, 0.0 ], [ 103.737895199036998, 1.32721196934104, 0.0 ] ] ] } }
]
}
