{
"type": "FeatureCollection",
"crs": { "type": "name", "properties": { "name": "urn:ogc:def:crs:OGC:1.3:CRS84" } },
"features": [
{ "type": "Feature", "properties": { "Name": "kml_231", "Description": "<center><table><tr><th colspan='2' align='center'><em>Attributes<\/em><\/th><\/tr><tr bgcolor=\"#E3E3F3\"> <th>SUBZONE_NO<\/th> <td>10<\/td> <\/tr><tr bgcolor=\"\"> <th>SUBZONE_N<\/th> <td>LORONG HALUS<\/td> <\/tr><tr bgcolor=\"#E3E3F3\"> <th>SUBZONE_C<\/th> <td>HGSZ10<\/td> <\/tr><tr bgcolor=\"\"> <th>CA_IND<\/th> <td>N<\/td> <\/tr><tr bgcolor=\"#E3E3F3\"> <th>PLN_AREA_N<\/th> <td>HOUGANG<\/td> <\/tr><tr bgcolor=\"\"> <th>PLN_AREA_C<\/th> <td>HG<\/td> <\/tr><tr bgcolor=\"#E3E3F3\"> <th>REGION_N<\/th> <td>NORTH-EAST REGION<\/td> <\/tr><tr bgcolor=\"\"> <th>REGION_C<\/th> <td>NER<\/td> <\/tr><tr bgcolor=\"#E3E3F3\"> <th>INC_CRC<\/th> <td>F0518D430182A509<\/td> <\/tr><tr bgcolor=\"\"> <th>FMEL_UPD_D<\/th> <td>20191223152313<\/td> <\/tr><\/table><\/center>", "Subzone": "LORONG HALUS" }, "geometry": { "type": "Polygon", "coordinates": [ [ [ 103.905208340306004, 1.36306019608313, 0.0 ], [ 103.895833221676, 1.36179870175923, 0.0 ], [ 103.896022133095002, 1.36334053852229, 0.0 ], [ 103.898849895778994, 1.36602585329771, 0.0 ], [ 103.899683726232993, 1.36685771827134, 0.0 ], [ 103.900901891786006, 1.36979118117858, 0.0 ], [ 103.901322446332998, 1.37070332665877, 0.0 ], [ 103.901683511355003, 1.37136191551312, 0.0 ], [ 103.902020487925995, 1.37187083643384, 0.0 ], [ 103.902345039967003, 1.37228085374084, 0.0 ], [ 103.902469339820996, 1.37242623381355, 0.0 ], [ 103.902879064738997, 1.37280141609012, 0.0 ], [ 103.903063190636004, 1.37294799808416, 0.0 ], [ 103.903815869043996, 1.37369853523961, 0.0 ], [ 103.904333772938003, 1.37439348160411, 0.0 ], [ 103.904934554245003, 1.37560269889513, 0.0 ], [ 103.905010527173999, 1.37594998123933, 0.0 ], [ 103.905061647213003, 1.37629027360113, 0.0 ], [ 103.905136364469001, 1.37686402126183, 0.0 ], [ 103.905187487513999, 1.37730323561066, 0.0 ], [ 103.905199292370995, 1.37764352825111, 0.0 ], [ 103.905203926362006, 1.37803505872705, 0.0 ], [ 103.905147553190005, 1.37850454266623, 0.0 ], [ 103.905139794152007, 1.3785691605786, 0.0 ], [ 103.905127988949999, 1.3786674770067, 0.0 ], [ 103.904948478926997, 1.3794388909525, 0.0 ], [ 103.904772528126003, 1.38018274430045, 0.0 ], [ 103.904744466287994, 1.38041414192445, 0.0 ], [ 103.905061374267007, 1.38035199893709, 0.0 ], [ 103.905669350064997, 1.38011454339077, 0.0 ], [ 103.906304992246007, 1.37979957022939, 0.0 ], [ 103.907423106332004, 1.37908629203312, 0.0 ], [ 103.907935685122993, 1.37869399832914, 0.0 ], [ 103.908520942813993, 1.37815244878514, 0.0 ], [ 103.908739536750005, 1.37783668152847, 0.0 ], [ 103.908817255250995, 1.3777244122791, 0.0 ], [ 103.909269926978993, 1.37703189507262, 0.0 ], [ 103.909356690707995, 1.37689915977317, 0.0 ], [ 103.909434514067996, 1.37678010235066, 0.0 ], [ 103.910015373384994, 1.37590209505452, 0.0 ], [ 103.910021837377002, 1.37589162231697, 0.0 ], [ 103.910042195334, 1.37586081813573, 0.0 ], [ 103.910045290764998, 1.37585613524176, 0.0 ], [ 103.910014780099999, 1.37581054003344, 0.0 ], [ 103.909853919162998, 1.37551552831345, 0.0 ], [ 103.909535261499997, 1.37483919680809, 0.0 ], [ 103.909452820598005, 1.37465103669111, 0.0 ], [ 103.909251607254006, 1.37408659373041, 0.0 ], [ 103.908893549495005, 1.37304033530075, 0.0 ], [ 103.908691843415994, 1.37242791761189, 0.0 ], [ 103.908521799775002, 1.37191162369134, 0.0 ], [ 103.907052393905005, 1.36736035439686, 0.0 ], [ 103.906791327855998, 1.36654908412516, 0.0 ], [ 103.906611422957994, 1.36602113215028, 0.0 ], [ 103.906470834420006, 1.36562304103995, 0.0 ], [ 103.906351483638005, 1.36531609012617, 0.0 ], [ 103.906218513737997, 1.36499398519875, 0.0 ], [ 103.906108924384, 1.36475415674037, 0.0 ], [ 103.905972234133998, 1.36448044892546, 0.0 ], [ 103.905829895782006, 1.36421546657175, 0.0 ], [ 103.905558449500006, 1.36370956112217, 0.0 ], [ 103.905208340306004, 1.36306019608313, 0.0 ] ] ] } }
]
}
