{
"type": "FeatureCollection",
"crs": { "type": "name", "properties": { "name": "urn:ogc:def:crs:OGC:1.3:CRS84" } },
"features": [
{ "type": "Feature", "properties": { "Name": "kml_225", "Description": "<center><table><tr><th colspan='2' align='center'><em>Attributes<\/em><\/th><\/tr><tr bgcolor=\"#E3E3F3\"> <th>SUBZONE_NO<\/th> <td>3<\/td> <\/tr><tr bgcolor=\"\"> <th>SUBZONE_N<\/th> <td>MANDAI ESTATE<\/td> <\/tr><tr bgcolor=\"#E3E3F3\"> <th>SUBZONE_C<\/th> <td>MDSZ03<\/td> <\/tr><tr bgcolor=\"\"> <th>CA_IND<\/th> <td>N<\/td> <\/tr><tr bgcolor=\"#E3E3F3\"> <th>PLN_AREA_N<\/th> <td>MANDAI<\/td> <\/tr><tr bgcolor=\"\"> <th>PLN_AREA_C<\/th> <td>MD<\/td> <\/tr><tr bgcolor=\"#E3E3F3\"> <th>REGION_N<\/th> <td>NORTH REGION<\/td> <\/tr><tr bgcolor=\"\"> <th>REGION_C<\/th> <td>NR<\/td> <\/tr><tr bgcolor=\"#E3E3F3\"> <th>INC_CRC<\/th> <td>F6266F7368DBB9AB<\/td> <\/tr><tr bgcolor=\"\"> <th>FMEL_UPD_D<\/th> <td>20191223152313<\/td> <\/tr><\/table><\/center>", "Subzone": "MANDAI ESTATE" }, "geometry": { "type": "Polygon", "coordinates": [ [ [ 103.825407002355007, 1.42388166776009, 0.0 ], [ 103.825400164224007, 1.42383920333133, 0.0 ], [ 103.825241998592006, 1.42388509924414, 0.0 ], [ 103.823895296895998, 1.4242556020159, 0.0 ], [ 103.823556267992004, 1.42434894179582, 0.0 ], [ 103.823460997458994, 1.42437517607812, 0.0 ], [ 103.823413130354993, 1.42438835245261, 0.0 ], [ 103.823119515364994, 1.42446917415936, 0.0 ], [ 103.823177249246001, 1.42460557147638, 0.0 ], [ 103.823227974195007, 1.42472545326829, 0.0 ], [ 103.823265094617, 1.42481311432403, 0.0 ], [ 103.823330877963997, 1.4249801768416, 0.0 ], [ 103.823366678349998, 1.42507101130252, 0.0 ], [ 103.82339555966, 1.42514433634439, 0.0 ], [ 103.823425743016003, 1.42522100030281, 0.0 ], [ 103.823455864373003, 1.42529748248339, 0.0 ], [ 103.823490997121993, 1.42538668004075, 0.0 ], [ 103.823527364525006, 1.42547898861443, 0.0 ], [ 103.823563181099999, 1.425569949683, 0.0 ], [ 103.823601182131, 1.42566640115313, 0.0 ], [ 103.823637466874004, 1.42575850986014, 0.0 ], [ 103.823673571903001, 1.42585016819256, 0.0 ], [ 103.823752269733006, 1.42604996781807, 0.0 ], [ 103.823720126295001, 1.42624574527145, 0.0 ], [ 103.823985070944005, 1.42751974269411, 0.0 ], [ 103.824309885012994, 1.42754214418746, 0.0 ], [ 103.824379658617005, 1.42784961098068, 0.0 ], [ 103.824422432687996, 1.42803811583958, 0.0 ], [ 103.824462264824007, 1.42821339979122, 0.0 ], [ 103.824507158653006, 1.4284109401552, 0.0 ], [ 103.824535481818998, 1.42853557064289, 0.0 ], [ 103.824557946260995, 1.4286344620089, 0.0 ], [ 103.824582405548, 1.42874211757203, 0.0 ], [ 103.824606891794005, 1.42884982830111, 0.0 ], [ 103.824622598936003, 1.42891903932422, 0.0 ], [ 103.825062854967996, 1.42907101839713, 0.0 ], [ 103.825290045938004, 1.4291495098492, 0.0 ], [ 103.825395217370001, 1.4291156951498, 0.0 ], [ 103.825498061440996, 1.42908286709847, 0.0 ], [ 103.825603914899006, 1.42904910846229, 0.0 ], [ 103.825707083355994, 1.42901620805347, 0.0 ], [ 103.825811895338006, 1.42898277407074, 0.0 ], [ 103.825915584075005, 1.42894971991231, 0.0 ], [ 103.826019910810999, 1.42891644960825, 0.0 ], [ 103.826141635216004, 1.42887761661238, 0.0 ], [ 103.826316141213994, 1.42882192552679, 0.0 ], [ 103.826354878687994, 1.42880955304404, 0.0 ], [ 103.826604769490999, 1.42872981784445, 0.0 ], [ 103.826675515763, 1.42870751553554, 0.0 ], [ 103.826818895353995, 1.42866148383037, 0.0 ], [ 103.826852493762004, 1.42865259674266, 0.0 ], [ 103.826852793911996, 1.42864529671871, 0.0 ], [ 103.826853695262002, 1.42862342377776, 0.0 ], [ 103.826852165271006, 1.42851171675352, 0.0 ], [ 103.826852017034, 1.4285009439712, 0.0 ], [ 103.826848606674005, 1.42825182247515, 0.0 ], [ 103.826822965806002, 1.42808458472968, 0.0 ], [ 103.826783529243997, 1.42777833898822, 0.0 ], [ 103.826654042742007, 1.42723713292872, 0.0 ], [ 103.826492175211001, 1.42680678187382, 0.0 ], [ 103.826276426621007, 1.42629553258162, 0.0 ], [ 103.826156030321997, 1.42609308674298, 0.0 ], [ 103.826154889115998, 1.42609116677495, 0.0 ], [ 103.825869165656002, 1.42554558123905, 0.0 ], [ 103.825667178049997, 1.4251245214238, 0.0 ], [ 103.825572862746995, 1.42487151084842, 0.0 ], [ 103.825469474673, 1.42426964911478, 0.0 ], [ 103.825407002355007, 1.42388166776009, 0.0 ] ] ] } }
]
}
