{
"type": "FeatureCollection",
"crs": { "type": "name", "properties": { "name": "urn:ogc:def:crs:OGC:1.3:CRS84" } },
"features": [
{ "type": "Feature", "properties": { "Name": "kml_14", "Description": "<center><table><tr><th colspan='2' align='center'><em>Attributes<\/em><\/th><\/tr><tr bgcolor=\"#E3E3F3\"> <th>SUBZONE_NO<\/th> <td>1<\/td> <\/tr><tr bgcolor=\"\"> <th>SUBZONE_N<\/th> <td>MARITIME SQUARE<\/td> <\/tr><tr bgcolor=\"#E3E3F3\"> <th>SUBZONE_C<\/th> <td>BMSZ01<\/td> <\/tr><tr bgcolor=\"\"> <th>CA_IND<\/th> <td>N<\/td> <\/tr><tr bgcolor=\"#E3E3F3\"> <th>PLN_AREA_N<\/th> <td>BUKIT MERAH<\/td> <\/tr><tr bgcolor=\"\"> <th>PLN_AREA_C<\/th> <td>BM<\/td> <\/tr><tr bgcolor=\"#E3E3F3\"> <th>REGION_N<\/th> <td>CENTRAL REGION<\/td> <\/tr><tr bgcolor=\"\"> <th>REGION_C<\/th> <td>CR<\/td> <\/tr><tr bgcolor=\"#E3E3F3\"> <th>INC_CRC<\/th> <td>97D628BCCCE96805<\/td> <\/tr><tr bgcolor=\"\"> <th>FMEL_UPD_D<\/th> <td>20191223152313<\/td> <\/tr><\/table><\/center>", "Subzone": "MARITIME SQUARE" }, "geometry": { "type": "Polygon", "coordinates": [ [ [ 103.823614644328998, 1.26017768291914, 0.0 ], [ 103.823614622768005, 1.2601766257163, 0.0 ], [ 103.823614054127006, 1.2601416991351, 0.0 ], [ 103.823611672122993, 1.26014115469838, 0.0 ], [ 103.823584397234001, 1.2601349144768, 0.0 ], [ 103.823562828994, 1.26010777892149, 0.0 ], [ 103.823560132582998, 1.26008607053213, 0.0 ], [ 103.823570916864995, 1.26005622109925, 0.0 ], [ 103.823587094098997, 1.26003451278101, 0.0 ], [ 103.823584449174007, 1.25994012509275, 0.0 ], [ 103.823584390777995, 1.2599380414354, 0.0 ], [ 103.823581702729001, 1.25984212084812, 0.0 ], [ 103.823536845768004, 1.25949363987572, 0.0 ], [ 103.823536324635, 1.25948959193565, 0.0 ], [ 103.823479255210998, 1.25904623216604, 0.0 ], [ 103.823477532121004, 1.25896844138844, 0.0 ], [ 103.823477061370994, 1.2589471987553, 0.0 ], [ 103.823467318458995, 1.25850729022044, 0.0 ], [ 103.823201788679995, 1.25864157565397, 0.0 ], [ 103.823325579094998, 1.2591515177594, 0.0 ], [ 103.823333667452005, 1.25920850273854, 0.0 ], [ 103.823344451351005, 1.25927905501293, 0.0 ], [ 103.823347146654001, 1.25935503525526, 0.0 ], [ 103.823347809667993, 1.25938171945376, 0.0 ], [ 103.823347786156006, 1.2594211470579, 0.0 ], [ 103.823347765359003, 1.25945567571643, 0.0 ], [ 103.823347761739001, 1.25946250457711, 0.0 ], [ 103.823341203344995, 1.25946696759346, 0.0 ], [ 103.823341146736993, 1.25946700648094, 0.0 ], [ 103.823331052615004, 1.25947387419037, 0.0 ], [ 103.823307372670001, 1.25948998807573, 0.0 ], [ 103.823285410688996, 1.25951315691947, 0.0 ], [ 103.823285235474998, 1.25951334140927, 0.0 ], [ 103.823285075536006, 1.25951350962056, 0.0 ], [ 103.823274333555005, 1.2595248421776, 0.0 ], [ 103.823254139842007, 1.25955839313902, 0.0 ], [ 103.823253815471006, 1.25955893123497, 0.0 ], [ 103.823249300323994, 1.25956643383006, 0.0 ], [ 103.823233270355999, 1.25961226698958, 0.0 ], [ 103.823228518728001, 1.2596631212279, 0.0 ], [ 103.823228060458007, 1.25966802198044, 0.0 ], [ 103.823227798076999, 1.25967083365044, 0.0 ], [ 103.823228518668998, 1.25967848819924, 0.0 ], [ 103.823233269905998, 1.25972895721508, 0.0 ], [ 103.823236766036999, 1.25974295227824, 0.0 ], [ 103.823236810962001, 1.25974313315143, 0.0 ], [ 103.823236878350997, 1.25974340084375, 0.0 ], [ 103.823241061847, 1.25976014970122, 0.0 ], [ 103.823241084309998, 1.25976023923345, 0.0 ], [ 103.823247511402997, 1.25978596844482, 0.0 ], [ 103.823245522940994, 1.25978933267516, 0.0 ], [ 103.823213025558005, 1.25984431794479, 0.0 ], [ 103.823197281348996, 1.25988284021782, 0.0 ], [ 103.823197084569003, 1.25988332133928, 0.0 ], [ 103.823187192546996, 1.25990752391861, 0.0 ], [ 103.823168592699005, 1.25997330736099, 0.0 ], [ 103.823167318543, 1.25998349141106, 0.0 ], [ 103.823160110302993, 1.26004110757708, 0.0 ], [ 103.8231601767, 1.26006528487316, 0.0 ], [ 103.823161116468995, 1.26008986823258, 0.0 ], [ 103.823162568363998, 1.2601234825836, 0.0 ], [ 103.823171125768994, 1.26017659959526, 0.0 ], [ 103.823190461905995, 1.26024194909109, 0.0 ], [ 103.823218001648002, 1.26030369924583, 0.0 ], [ 103.823248695283993, 1.26035286969444, 0.0 ], [ 103.823295813974994, 1.26042742573393, 0.0 ], [ 103.823304145983997, 1.26044589651839, 0.0 ], [ 103.823318179126005, 1.26047700853984, 0.0 ], [ 103.823328288414999, 1.26049941964971, 0.0 ], [ 103.823347142098996, 1.26055117472667, 0.0 ], [ 103.823355230543996, 1.2605864513261, 0.0 ], [ 103.823341749706998, 1.26063149588937, 0.0 ], [ 103.823339053927, 1.26068034063626, 0.0 ], [ 103.823341749354995, 1.26072375740482, 0.0 ], [ 103.823357925438998, 1.26076988822493, 0.0 ], [ 103.823376798058007, 1.2608051648658, 0.0 ], [ 103.823398366291002, 1.26083501351773, 0.0 ], [ 103.823401935066997, 1.26088529984658, 0.0 ], [ 103.823401956631002, 1.26088560371332, 0.0 ], [ 103.823403758089995, 1.26091099376947, 0.0 ], [ 103.823401062290003, 1.26096526470672, 0.0 ], [ 103.823395669986994, 1.26102224963313, 0.0 ], [ 103.823382189114, 1.26107652143321, 0.0 ], [ 103.823373718522006, 1.26111232973534, 0.0 ], [ 103.823368709128005, 1.26113350542404, 0.0 ], [ 103.823366012335995, 1.26121219964406, 0.0 ], [ 103.823368708592, 1.26127461079184, 0.0 ], [ 103.823374955888994, 1.26132518562334, 0.0 ], [ 103.823398191200994, 1.2615132827933, 0.0 ], [ 103.823398487706996, 1.26151568388367, 0.0 ], [ 103.823406452046996, 1.26158015881259, 0.0 ], [ 103.823414539473006, 1.26164799797995, 0.0 ], [ 103.823419931192007, 1.26174568661012, 0.0 ], [ 103.823422627306002, 1.26184608832503, 0.0 ], [ 103.823419930349999, 1.26196819839805, 0.0 ], [ 103.823419930010999, 1.26205774591302, 0.0 ], [ 103.823418426678998, 1.26208095010591, 0.0 ], [ 103.823416983466998, 1.26212575144097, 0.0 ], [ 103.823416763316999, 1.2621283632464, 0.0 ], [ 103.823416744447002, 1.26212859024196, 0.0 ], [ 103.823414303925006, 1.26215758869817, 0.0 ], [ 103.823414285953007, 1.26215780574572, 0.0 ], [ 103.823410635054003, 1.26220118631475, 0.0 ], [ 103.823401042794004, 1.26231516159725, 0.0 ], [ 103.823397224814002, 1.26234649330995, 0.0 ], [ 103.823397144842005, 1.26234714716558, 0.0 ], [ 103.823380580787997, 1.26248307588274, 0.0 ], [ 103.823377904877006, 1.26250503295159, 0.0 ], [ 103.823360289665999, 1.26260753000147, 0.0 ], [ 103.823360210592995, 1.26260799122733, 0.0 ], [ 103.823348621071005, 1.26267542425843, 0.0 ], [ 103.823345725948002, 1.26268909643812, 0.0 ], [ 103.823345468065, 1.26269031190376, 0.0 ], [ 103.823312849865005, 1.26284435046814, 0.0 ], [ 103.823284950008997, 1.26295775773724, 0.0 ], [ 103.823268932554996, 1.26301525539608, 0.0 ], [ 103.823255466947003, 1.26306881998116, 0.0 ], [ 103.823253073249006, 1.26307098773485, 0.0 ], [ 103.823252770441997, 1.26307126175627, 0.0 ], [ 103.823250547466003, 1.26307319618443, 0.0 ], [ 103.820843978219997, 1.26309376358945, 0.0 ], [ 103.820843921657996, 1.26308434914907, 0.0 ], [ 103.820843916271002, 1.26308354516852, 0.0 ], [ 103.820782843040007, 1.26308395093234, 0.0 ], [ 103.820746821783999, 1.26308418589195, 0.0 ], [ 103.820663059718001, 1.26308474347558, 0.0 ], [ 103.820662668856997, 1.26308474437803, 0.0 ], [ 103.820512645435002, 1.26308574024788, 0.0 ], [ 103.820476722120006, 1.26308600233514, 0.0 ], [ 103.820124291750005, 1.26308850564773, 0.0 ], [ 103.820088196813998, 1.26308876772871, 0.0 ], [ 103.819907187511006, 1.26309005189672, 0.0 ], [ 103.819870060449006, 1.26303444229715, 0.0 ], [ 103.819863183292, 1.26194666203903, 0.0 ], [ 103.818060742949001, 1.26195841509366, 0.0 ], [ 103.818060670898006, 1.26198730051261, 0.0 ], [ 103.818060204359, 1.26217580093242, 0.0 ], [ 103.819626158462, 1.26216515538796, 0.0 ], [ 103.819712399097, 1.26225117000335, 0.0 ], [ 103.819716753392996, 1.26293991635512, 0.0 ], [ 103.819568891062005, 1.26309051134194, 0.0 ], [ 103.819569016754002, 1.26311000583537, 0.0 ], [ 103.819569840938001, 1.26323703295294, 0.0 ], [ 103.819569850812996, 1.2632385821303, 0.0 ], [ 103.818244092341004, 1.26344776339875, 0.0 ], [ 103.818207009885995, 1.26345278240767, 0.0 ], [ 103.818079487380999, 1.26347218300035, 0.0 ], [ 103.818076774709994, 1.26347259537477, 0.0 ], [ 103.818076364979007, 1.26347265777353, 0.0 ], [ 103.817541033349002, 1.26355409805125, 0.0 ], [ 103.817500476261003, 1.26356026738105, 0.0 ], [ 103.817488715360994, 1.26356205704727, 0.0 ], [ 103.817487778190994, 1.26356219902682, 0.0 ], [ 103.817477597811006, 1.26356374814162, 0.0 ], [ 103.817434407120999, 1.26357031899224, 0.0 ], [ 103.817409561782, 1.26357409818055, 0.0 ], [ 103.817409966116003, 1.26357510202823, 0.0 ], [ 103.817396029872, 1.26357644040247, 0.0 ], [ 103.817367582312997, 1.26358086257166, 0.0 ], [ 103.817139678364995, 1.26361627608643, 0.0 ], [ 103.817128572496003, 1.26361784961188, 0.0 ], [ 103.817028301581999, 1.26363406424536, 0.0 ], [ 103.817028061673, 1.26363410313154, 0.0 ], [ 103.816913558889993, 1.26365261927958, 0.0 ], [ 103.816874062964004, 1.26365900565384, 0.0 ], [ 103.816872603746006, 1.26365923354452, 0.0 ], [ 103.816849056785003, 1.26366291415989, 0.0 ], [ 103.816365951413999, 1.26373842370002, 0.0 ], [ 103.816109703205996, 1.2637785414438, 0.0 ], [ 103.816109887397005, 1.26377973611122, 0.0 ], [ 103.816025285097993, 1.26379292570907, 0.0 ], [ 103.816005073490999, 1.26379607728555, 0.0 ], [ 103.815982027009994, 1.26379975789634, 0.0 ], [ 103.815979248744995, 1.26380020101652, 0.0 ], [ 103.815932834107997, 1.2638076128797, 0.0 ], [ 103.815874332400995, 1.26381695457526, 0.0 ], [ 103.815816334771, 1.26382621578442, 0.0 ], [ 103.815760859297001, 1.26383905739055, 0.0 ], [ 103.815725546904005, 1.26384956587137, 0.0 ], [ 103.815674447217006, 1.26387193951273, 0.0 ], [ 103.815629591402995, 1.26389848231864, 0.0 ], [ 103.815594782983993, 1.2639239399548, 0.0 ], [ 103.815330299223007, 1.2641634827105, 0.0 ], [ 103.815052499117996, 1.26440917321695, 0.0 ], [ 103.814997356497003, 1.26436314064665, 0.0 ], [ 103.814938754497007, 1.26432165700653, 0.0 ], [ 103.814877079482997, 1.26428498456496, 0.0 ], [ 103.814812699852993, 1.26425334941562, 0.0 ], [ 103.814754621589998, 1.26422762795286, 0.0 ], [ 103.814701903057994, 1.26420428229439, 0.0 ], [ 103.814083423601005, 1.26393038448157, 0.0 ], [ 103.814081750539003, 1.26392964379414, 0.0 ], [ 103.813408127575002, 1.2636313257452, 0.0 ], [ 103.813311481745004, 1.26359184132564, 0.0 ], [ 103.813212723424996, 1.26355805257682, 0.0 ], [ 103.813112890415994, 1.26353026427765, 0.0 ], [ 103.813121073443, 1.263518183834, 0.0 ], [ 103.813133724023004, 1.26349950698693, 0.0 ], [ 103.813139889821002, 1.26349040550577, 0.0 ], [ 103.813140615844006, 1.26348932750835, 0.0 ], [ 103.813143987174996, 1.26348435533591, 0.0 ], [ 103.813308087970995, 1.26324210435961, 0.0 ], [ 103.813332787106006, 1.26320498308055, 0.0 ], [ 103.813444262074, 1.26303743856683, 0.0 ], [ 103.813444576604994, 1.26303156924034, 0.0 ], [ 103.813421826140001, 1.26298336641, 0.0 ], [ 103.813411304384999, 1.26297605001594, 0.0 ], [ 103.813191640488, 1.26294558025503, 0.0 ], [ 103.812429669964004, 1.26284263666242, 0.0 ], [ 103.811620600306995, 1.26273333024272, 0.0 ], [ 103.811545298021997, 1.26272315640678, 0.0 ], [ 103.811545576583995, 1.26272113063153, 0.0 ], [ 103.811540832339006, 1.26272068745266, 0.0 ], [ 103.811454709073004, 1.26259845275113, 0.0 ], [ 103.811309308806997, 1.26257836556902, 0.0 ], [ 103.811301511897, 1.26272648601974, 0.0 ], [ 103.811293402247003, 1.26288053186705, 0.0 ], [ 103.811283725063007, 1.26287989872895, 0.0 ], [ 103.811286133392997, 1.26284853537136, 0.0 ], [ 103.811269834032998, 1.26284728720848, 0.0 ], [ 103.811249748261005, 1.26284581201753, 0.0 ], [ 103.811236158872006, 1.26284481348235, 0.0 ], [ 103.811231280743996, 1.26284445531207, 0.0 ], [ 103.811231296019997, 1.26284433864912, 0.0 ], [ 103.811209928943001, 1.26284270156555, 0.0 ], [ 103.811207583512001, 1.2628737574395, 0.0 ], [ 103.811206550199003, 1.2628738749981, 0.0 ], [ 103.811196863416995, 1.26294568149592, 0.0 ], [ 103.811193251321001, 1.26294528354436, 0.0 ], [ 103.811161739846995, 1.2629400831753, 0.0 ], [ 103.811115842895006, 1.26293254942048, 0.0 ], [ 103.811070494033004, 1.26292672491939, 0.0 ], [ 103.811024462271007, 1.26292279957813, 0.0 ], [ 103.810982195353006, 1.26291940784398, 0.0 ], [ 103.810937475453997, 1.26291480423875, 0.0 ], [ 103.810895675737996, 1.26291551832431, 0.0 ], [ 103.810849113825, 1.26291358257831, 0.0 ], [ 103.810803621101002, 1.2629191440266, 0.0 ], [ 103.810758532717998, 1.26292450651733, 0.0 ], [ 103.810716903680003, 1.26293016747801, 0.0 ], [ 103.810675624999007, 1.26294409433713, 0.0 ], [ 103.810631578840002, 1.26295774986176, 0.0 ], [ 103.810591153716999, 1.26297696726223, 0.0 ], [ 103.810553567919001, 1.26300022719862, 0.0 ], [ 103.810513160731006, 1.26302335145477, 0.0 ], [ 103.810474451771, 1.2630461682412, 0.0 ], [ 103.810439786158, 1.26307424846714, 0.0 ], [ 103.810405093586994, 1.26310245530344, 0.0 ], [ 103.810375890998003, 1.26313630542563, 0.0 ], [ 103.810352546803003, 1.26317399010715, 0.0 ], [ 103.810333183080999, 1.26321438791888, 0.0 ], [ 103.810323101169004, 1.26325774308667, 0.0 ], [ 103.810316424668997, 1.26330391990355, 0.0 ], [ 103.810310565823002, 1.26335120005296, 0.0 ], [ 103.810304078032999, 1.26339519735181, 0.0 ], [ 103.810296952288994, 1.26343877863704, 0.0 ], [ 103.810292549110997, 1.26348084061334, 0.0 ], [ 103.810296250142002, 1.26348342351279, 0.0 ], [ 103.810298128062996, 1.26348473485877, 0.0 ], [ 103.810298257450995, 1.26348482439206, 0.0 ], [ 103.810298937636006, 1.26348529918975, 0.0 ], [ 103.810289044290002, 1.26354276245279, 0.0 ], [ 103.810284218906006, 1.26357284158919, 0.0 ], [ 103.810276339249995, 1.26362126664644, 0.0 ], [ 103.810274118856995, 1.26363490806806, 0.0 ], [ 103.810276140225994, 1.26367212270532, 0.0 ], [ 103.810276535515001, 1.26367950232714, 0.0 ], [ 103.810289869363004, 1.26372169107284, 0.0 ], [ 103.810313599267005, 1.26375962035211, 0.0 ], [ 103.810344778029005, 1.26379472807876, 0.0 ], [ 103.810371338414996, 1.26382083733235, 0.0 ], [ 103.810399129801993, 1.26384572570387, 0.0 ], [ 103.810413406481999, 1.26385712444697, 0.0 ], [ 103.810428116251998, 1.26386886866129, 0.0 ], [ 103.810454549203996, 1.2638771275568, 0.0 ], [ 103.810454683984005, 1.26387716915878, 0.0 ], [ 103.810472665364003, 1.26388278723341, 0.0 ], [ 103.810643763718005, 1.26390320026107, 0.0 ], [ 103.810785998545995, 1.26392044865231, 0.0 ], [ 103.810786785659005, 1.26392054452188, 0.0 ], [ 103.810797772002999, 1.26392187674746, 0.0 ], [ 103.810828232183994, 1.26392961837757, 0.0 ], [ 103.810858458736007, 1.263938580898, 0.0 ], [ 103.810888083256003, 1.26394929788094, 0.0 ], [ 103.810916881113002, 1.26396156132049, 0.0 ], [ 103.810923376578003, 1.26396460366073, 0.0 ], [ 103.810923606600994, 1.26396471128215, 0.0 ], [ 103.810945652005003, 1.26397503660858, 0.0 ], [ 103.810973236821994, 1.2639899498264, 0.0 ], [ 103.810983080192003, 1.26399599197416, 0.0 ], [ 103.810983123322004, 1.26399601910549, 0.0 ], [ 103.811000093814002, 1.26400643663271, 0.0 ], [ 103.811026151101004, 1.26402434328487, 0.0 ], [ 103.811051130139006, 1.26404338942735, 0.0 ], [ 103.811075066870004, 1.26406365645331, 0.0 ], [ 103.811098383604005, 1.26408505392997, 0.0 ], [ 103.811115706259997, 1.26410275069329, 0.0 ], [ 103.811120523251006, 1.26410767228903, 0.0 ], [ 103.811140686113006, 1.26413193657517, 0.0 ], [ 103.811160813024998, 1.26415723183694, 0.0 ], [ 103.811178495928004, 1.26418264464502, 0.0 ], [ 103.811195325216005, 1.26420926929472, 0.0 ], [ 103.811199638106999, 1.26421693111191, 0.0 ], [ 103.811200066699996, 1.26421769168655, 0.0 ], [ 103.811211804053002, 1.26423854373075, 0.0 ], [ 103.811224410240001, 1.26426503268932, 0.0 ], [ 103.811232187735001, 1.264288965871, 0.0 ], [ 103.811235866231002, 1.26430028493471, 0.0 ], [ 103.811243458758, 1.26430884029252, 0.0 ], [ 103.811256559054002, 1.26434530440097, 0.0 ], [ 103.811265238621004, 1.26437578157532, 0.0 ], [ 103.811272696179998, 1.2644066566598, 0.0 ], [ 103.811278626231996, 1.26443778495337, 0.0 ], [ 103.811282031496006, 1.26445848589704, 0.0 ], [ 103.811289084715995, 1.26448943332719, 0.0 ], [ 103.811290593294999, 1.26449620884258, 0.0 ], [ 103.811290607670998, 1.2644962757657, 0.0 ], [ 103.811291206969003, 1.26449896716103, 0.0 ], [ 103.811292228561996, 1.26450355953516, 0.0 ], [ 103.811293047093997, 1.264507231264, 0.0 ], [ 103.811295652721995, 1.26452107711421, 0.0 ], [ 103.811301187623002, 1.2645281312084, 0.0 ], [ 103.811305347784, 1.26453338560451, 0.0 ], [ 103.811305707131993, 1.2645412083647, 0.0 ], [ 103.811287187925004, 1.26459456574071, 0.0 ], [ 103.811290000278007, 1.26460093249425, 0.0 ], [ 103.811294403003998, 1.26461091672133, 0.0 ], [ 103.811306065777003, 1.26463225079099, 0.0 ], [ 103.811318842727999, 1.26465391044149, 0.0 ], [ 103.811334827441001, 1.26467557011929, 0.0 ], [ 103.811351625346006, 1.26469488840298, 0.0 ], [ 103.811352168952993, 1.26469551422818, 0.0 ], [ 103.811352591260004, 1.26469599987578, 0.0 ], [ 103.811371424342994, 1.26471510926837, 0.0 ], [ 103.811378235172, 1.26472088821862, 0.0 ], [ 103.811392009578995, 1.26473261794971, 0.0 ], [ 103.811392670895003, 1.26473312439973, 0.0 ], [ 103.811393039291005, 1.26473340566037, 0.0 ], [ 103.811404310412001, 1.26474203249383, 0.0 ], [ 103.811413160895, 1.26474958401671, 0.0 ], [ 103.811433278891997, 1.2647673730469, 0.0 ], [ 103.811454214560996, 1.26478439337363, 0.0 ], [ 103.811475437761999, 1.26480111526218, 0.0 ], [ 103.811497838053995, 1.26481639922022, 0.0 ], [ 103.811520337188, 1.26483124908368, 0.0 ], [ 103.811543429362999, 1.26484504084494, 0.0 ], [ 103.811567159502999, 1.26485805485748, 0.0 ], [ 103.811591132252005, 1.26487047199099, 0.0 ], [ 103.811615716012994, 1.26488176771682, 0.0 ], [ 103.811640281807001, 1.26489264743437, 0.0 ], [ 103.811665773100998, 1.26490206208818, 0.0 ], [ 103.811691156579997, 1.26491059046316, 0.0 ], [ 103.811717133095996, 1.26491833204533, 0.0 ], [ 103.811743343239002, 1.26492522352611, 0.0 ], [ 103.811769724109993, 1.26493115638115, 0.0 ], [ 103.811796158904997, 1.26493581408176, 0.0 ], [ 103.811822953116007, 1.26494002864624, 0.0 ], [ 103.811849846178006, 1.26494271483445, 0.0 ], [ 103.811876793156998, 1.26494484031652, 0.0 ], [ 103.811903901879006, 1.26494603430372, 0.0 ], [ 103.811918233472994, 1.26494645947432, 0.0 ], [ 103.812007134477994, 1.26492472832042, 0.0 ], [ 103.812024979377995, 1.26491984489699, 0.0 ], [ 103.812033254883005, 1.26491757500923, 0.0 ], [ 103.812058440832004, 1.26490810651571, 0.0 ], [ 103.812082970863003, 1.2648973447746, 0.0 ], [ 103.812107204387999, 1.26488527170158, 0.0 ], [ 103.812114265988995, 1.26488123377, 0.0 ], [ 103.812130755038993, 1.26487180590062, 0.0 ], [ 103.812153470064004, 1.26485720963634, 0.0 ], [ 103.812178862742002, 1.26483942098541, 0.0 ], [ 103.812199349430998, 1.26482174081781, 0.0 ], [ 103.812219332943002, 1.26480373507453, 0.0 ], [ 103.812238624597001, 1.2647842190359, 0.0 ], [ 103.812256370780005, 1.26476416036548, 0.0 ], [ 103.812273362203001, 1.26474295314523, 0.0 ], [ 103.812274655205997, 1.26474112724288, 0.0 ], [ 103.812274809756005, 1.26474090838781, 0.0 ], [ 103.812289005834998, 1.26472085963618, 0.0 ], [ 103.812303499349994, 1.26469804262566, 0.0 ], [ 103.812316788838004, 1.26467439358945, 0.0 ], [ 103.812328469959994, 1.26464980400047, 0.0 ], [ 103.812338785292994, 1.26462762905484, 0.0 ], [ 103.812371474548996, 1.26454792763386, 0.0 ], [ 103.812383084030998, 1.26449293329291, 0.0 ], [ 103.812383596214005, 1.26449051864255, 0.0 ], [ 103.812386489597998, 1.26447680397091, 0.0 ], [ 103.812386553397005, 1.26447650462662, 0.0 ], [ 103.812390649064, 1.264457094274, 0.0 ], [ 103.812391782155998, 1.26445172145076, 0.0 ], [ 103.812393219873996, 1.26444348269735, 0.0 ], [ 103.812393983698001, 1.26443459279565, 0.0 ], [ 103.812395169848003, 1.2644237132944, 0.0 ], [ 103.812402318962, 1.26437520773592, 0.0 ], [ 103.812402414210993, 1.26437456202009, 0.0 ], [ 103.812407300697004, 1.26434140713466, 0.0 ], [ 103.812408945065997, 1.26433454301769, 0.0 ], [ 103.812418847917002, 1.26431906127362, 0.0 ], [ 103.812419033016994, 1.26431877187833, 0.0 ], [ 103.812429696934004, 1.26430210090043, 0.0 ], [ 103.812435919349994, 1.26429237269658, 0.0 ], [ 103.812439566538998, 1.26428667341792, 0.0 ], [ 103.812439819030004, 1.26428627911682, 0.0 ], [ 103.812453857877003, 1.26426433933568, 0.0 ], [ 103.812454206512001, 1.26426379400641, 0.0 ], [ 103.812465912739, 1.26424549970161, 0.0 ], [ 103.812479570416002, 1.26424762506977, 0.0 ], [ 103.812493230794004, 1.2642489853451, 0.0 ], [ 103.812493615365995, 1.26424902333154, 0.0 ], [ 103.812505277409997, 1.26425018463036, 0.0 ], [ 103.812518494819003, 1.26425062787588, 0.0 ], [ 103.812531424707004, 1.26425002205561, 0.0 ], [ 103.812544282721007, 1.26424817725465, 0.0 ], [ 103.812544590917994, 1.26424811937777, 0.0 ], [ 103.812544927868998, 1.26424805517058, 0.0 ], [ 103.812557140741006, 1.26424574461639, 0.0 ], [ 103.812569711237003, 1.26424234430519, 0.0 ], [ 103.812582048120007, 1.26423836519845, 0.0 ], [ 103.812593998642996, 1.26423321945772, 0.0 ], [ 103.812605850330002, 1.26422771197011, 0.0 ], [ 103.812617477390006, 1.26422138150852, 0.0 ], [ 103.812700427666002, 1.26427782178393, 0.0 ], [ 103.812701759283996, 1.26427872706395, 0.0 ], [ 103.812720448660002, 1.26429144348955, 0.0 ], [ 103.812917186698002, 1.26442531730013, 0.0 ], [ 103.812917367302006, 1.26442544029521, 0.0 ], [ 103.812926292377995, 1.26443151317677, 0.0 ], [ 103.812936185273003, 1.26442496565244, 0.0 ], [ 103.812936562659004, 1.26442461657053, 0.0 ], [ 103.812936609383001, 1.26442457316137, 0.0 ], [ 103.812945107765003, 1.26441669982688, 0.0 ], [ 103.812952107412002, 1.26440666143072, 0.0 ], [ 103.812955178658996, 1.26439864878111, 0.0 ], [ 103.812956492340007, 1.26439522124814, 0.0 ], [ 103.812957992980998, 1.26438349164597, 0.0 ], [ 103.812957329867999, 1.2643830403626, 0.0 ], [ 103.812947465830007, 1.26437631723528, 0.0 ], [ 103.812947425396004, 1.26437628919964, 0.0 ], [ 103.812928780945001, 1.26436358181967, 0.0 ], [ 103.812902415446004, 1.26434561187849, 0.0 ], [ 103.812768225724, 1.26425415238014, 0.0 ], [ 103.812768179, 1.264254120727, 0.0 ], [ 103.812768480911004, 1.26425367216437, 0.0 ], [ 103.812786835449003, 1.26422638309679, 0.0 ], [ 103.812786998983, 1.2642261398239, 0.0 ], [ 103.812926041311002, 1.2640194157496, 0.0 ], [ 103.812926332439005, 1.26401898346545, 0.0 ], [ 103.813063108619005, 1.26381562812478, 0.0 ], [ 103.813063569571995, 1.26381494261973, 0.0 ], [ 103.813069559257002, 1.26380603738459, 0.0 ], [ 103.813114207843, 1.26373965734352, 0.0 ], [ 103.813113427920996, 1.26373912647516, 0.0 ], [ 103.813093606402006, 1.26372564042889, 0.0 ], [ 103.813039082851006, 1.26368854566144, 0.0 ], [ 103.813038876190006, 1.26368840457888, 0.0 ], [ 103.813024717191993, 1.26367877207586, 0.0 ], [ 103.813023159145999, 1.26367771214782, 0.0 ], [ 103.813016218919003, 1.26367299040352, 0.0 ], [ 103.813016404916993, 1.26367270643439, 0.0 ], [ 103.813021004557001, 1.26366591468941, 0.0 ], [ 103.813021057569998, 1.26366592463784, 0.0 ], [ 103.813131729581002, 1.26369332686159, 0.0 ], [ 103.813240694323, 1.2637285165544, 0.0 ], [ 103.813346963412997, 1.26377122149495, 0.0 ], [ 103.814310570641993, 1.26419795250135, 0.0 ], [ 103.814331441687003, 1.2642071952655, 0.0 ], [ 103.814751545635005, 1.26439323615535, 0.0 ], [ 103.814817783421006, 1.26442659865672, 0.0 ], [ 103.814880438713999, 1.26446636403504, 0.0 ], [ 103.814938654318993, 1.26451194354283, 0.0 ], [ 103.814465936822003, 1.2649404526852, 0.0 ], [ 103.813989181137003, 1.26537262438509, 0.0 ], [ 103.813985113445, 1.26537712447479, 0.0 ], [ 103.813929635855004, 1.26542730184523, 0.0 ], [ 103.813929147948002, 1.26542774317167, 0.0 ], [ 103.813818721101995, 1.26552762040808, 0.0 ], [ 103.813818531509995, 1.26552779133164, 0.0 ], [ 103.813707073133003, 1.26562860095556, 0.0 ], [ 103.813674371700998, 1.2656581788678, 0.0 ], [ 103.813648011259005, 1.26568202044088, 0.0 ], [ 103.813606750342998, 1.26571927091941, 0.0 ], [ 103.813381621348, 1.26592230817027, 0.0 ], [ 103.813381500944004, 1.26592241669314, 0.0 ], [ 103.813355941096006, 1.26594546875866, 0.0 ], [ 103.813314293801, 1.26598281870947, 0.0 ], [ 103.813288071765996, 1.26600152710412, 0.0 ], [ 103.813259298781006, 1.2660220568697, 0.0 ], [ 103.813062945747006, 1.26616215232117, 0.0 ], [ 103.813019372945007, 1.26619221035698, 0.0 ], [ 103.813011450535001, 1.26619767537211, 0.0 ], [ 103.812995402694995, 1.26620252173742, 0.0 ], [ 103.812988997036996, 1.26620445612355, 0.0 ], [ 103.812983418032005, 1.26620614091145, 0.0 ], [ 103.812983306613006, 1.26620617437207, 0.0 ], [ 103.812931525821995, 1.26622181224182, 0.0 ], [ 103.812920501687003, 1.26622587637074, 0.0 ], [ 103.812920384877003, 1.26622591977934, 0.0 ], [ 103.812871666267995, 1.26624388098578, 0.0 ], [ 103.812773113963999, 1.26628021487304, 0.0 ], [ 103.812615712948997, 1.26633850988306, 0.0 ], [ 103.812614046164995, 1.26633912755093, 0.0 ], [ 103.812518823827006, 1.26637439430443, 0.0 ], [ 103.812458364042996, 1.26639678589208, 0.0 ], [ 103.812417622628999, 1.26641187489126, 0.0 ], [ 103.812417451906995, 1.26641193819543, 0.0 ], [ 103.812404696290997, 1.26641666249447, 0.0 ], [ 103.812396158427006, 1.26641687856831, 0.0 ], [ 103.812396031733996, 1.26641688128037, 0.0 ], [ 103.812213594406998, 1.26642149114795, 0.0 ], [ 103.811970765750004, 1.26642762526177, 0.0 ], [ 103.811967953340002, 1.26642769668327, 0.0 ], [ 103.811539785990007, 1.26643851382294, 0.0 ], [ 103.811190598370999, 1.26639520080609, 0.0 ], [ 103.810428957292999, 1.26530235046959, 0.0 ], [ 103.810345783738001, 1.26519617908981, 0.0 ], [ 103.810186877313996, 1.26499333583885, 0.0 ], [ 103.810100024527003, 1.26506226575623, 0.0 ], [ 103.809885335668, 1.2652326642612, 0.0 ], [ 103.809808368738999, 1.26517794043553, 0.0 ], [ 103.809747799329998, 1.26510184661331, 0.0 ], [ 103.809752184261995, 1.26509164541652, 0.0 ], [ 103.809754808072995, 1.26508108245763, 0.0 ], [ 103.809755275409003, 1.26507010347113, 0.0 ], [ 103.809753721944006, 1.26505927730382, 0.0 ], [ 103.809749569927007, 1.26504784699694, 0.0 ], [ 103.809743936212996, 1.26503832398224, 0.0 ], [ 103.809736595274003, 1.26503021176125, 0.0 ], [ 103.809727879563994, 1.26502384495207, 0.0 ], [ 103.809717986758997, 1.26501934112392, 0.0 ], [ 103.809706459511006, 1.2650162119155, 0.0 ], [ 103.809695559413996, 1.26501580485137, 0.0 ], [ 103.809684777013999, 1.26501660963732, 0.0 ], [ 103.809674875154002, 1.26501984807747, 0.0 ], [ 103.809664955301002, 1.2650254541449, 0.0 ], [ 103.809656832499002, 1.26503274325201, 0.0 ], [ 103.809651135739998, 1.26503958924255, 0.0 ], [ 103.809645591709, 1.26504878658339, 0.0 ], [ 103.80964212328, 1.26505897874477, 0.0 ], [ 103.809640559735001, 1.26506982206644, 0.0 ], [ 103.809640946, 1.26508128037418, 0.0 ], [ 103.809614222712995, 1.26508400226707, 0.0 ], [ 103.809585991724006, 1.2650826725907, 0.0 ], [ 103.809582981640006, 1.26508256403918, 0.0 ], [ 103.809572953963993, 1.26508814387866, 0.0 ], [ 103.809561335851996, 1.26509727785779, 0.0 ], [ 103.809545943770999, 1.26512085451066, 0.0 ], [ 103.809510119340004, 1.265113167982, 0.0 ], [ 103.809510077107007, 1.26511337869865, 0.0 ], [ 103.809502894811004, 1.26514879808638, 0.0 ], [ 103.809498304000996, 1.265171438821, 0.0 ], [ 103.809498086546, 1.26517251139584, 0.0 ], [ 103.808866061928995, 1.26500726895221, 0.0 ], [ 103.808594883967999, 1.26499518314451, 0.0 ], [ 103.808413626881006, 1.26505530358206, 0.0 ], [ 103.808266963408002, 1.26510394885619, 0.0 ], [ 103.807582709011996, 1.26548253641521, 0.0 ], [ 103.807435284210001, 1.26564521572362, 0.0 ], [ 103.807291545211996, 1.26580382632233, 0.0 ], [ 103.807217892584006, 1.26588155574449, 0.0 ], [ 103.807156326571999, 1.26582447160412, 0.0 ], [ 103.807082563994001, 1.26575574454374, 0.0 ], [ 103.807037687231002, 1.26570949848014, 0.0 ], [ 103.806999666164003, 1.2656743092517, 0.0 ], [ 103.806976158964005, 1.26565255270379, 0.0 ], [ 103.806955943060998, 1.26563384480362, 0.0 ], [ 103.806938856719, 1.2656180299988, 0.0 ], [ 103.806927496672998, 1.26560751754426, 0.0 ], [ 103.806910813768994, 1.26559207715049, 0.0 ], [ 103.806894179384997, 1.26557668287971, 0.0 ], [ 103.806876949279001, 1.26556073603575, 0.0 ], [ 103.806864497527002, 1.26554921158535, 0.0 ], [ 103.806804422181997, 1.26549361241932, 0.0 ], [ 103.806804354790998, 1.26549369742894, 0.0 ], [ 103.806803870487002, 1.26549324795456, 0.0 ], [ 103.806788546153001, 1.26547902575359, 0.0 ], [ 103.806788518299001, 1.26547899952673, 0.0 ], [ 103.806450956201004, 1.26516571677518, 0.0 ], [ 103.806420918539004, 1.26513776254122, 0.0 ], [ 103.806347820008, 1.26506970560164, 0.0 ], [ 103.806279311142006, 1.26500592273694, 0.0 ], [ 103.806417448816006, 1.26483624903914, 0.0 ], [ 103.806417621337005, 1.26483603651518, 0.0 ], [ 103.806529339106007, 1.26469880934075, 0.0 ], [ 103.806527743371007, 1.26469310459005, 0.0 ], [ 103.806527721807001, 1.26469302591007, 0.0 ], [ 103.806526124274001, 1.26468731663751, 0.0 ], [ 103.806127399896994, 1.26430734804976, 0.0 ], [ 103.806019222941998, 1.26421520839664, 0.0 ], [ 103.805854555867, 1.26406550259581, 0.0 ], [ 103.805526847324998, 1.26375625329887, 0.0 ], [ 103.805682177625002, 1.26365921118182, 0.0 ], [ 103.805635739604, 1.26358179704385, 0.0 ], [ 103.805380844989003, 1.26374007805906, 0.0 ], [ 103.805442563894005, 1.26293281995882, 0.0 ], [ 103.805408785983005, 1.26270803877912, 0.0 ], [ 103.805366893986005, 1.26251591955579, 0.0 ], [ 103.805141807805995, 1.26229886318883, 0.0 ], [ 103.805127709798995, 1.26230291639874, 0.0 ], [ 103.805107547513003, 1.26231511606189, 0.0 ], [ 103.804909915609997, 1.26246581184589, 0.0 ], [ 103.804619475185007, 1.26270207850045, 0.0 ], [ 103.804577110755005, 1.26274283775762, 0.0 ], [ 103.804464182364995, 1.26282427637061, 0.0 ], [ 103.804429904898996, 1.26284870469331, 0.0 ], [ 103.804403676457994, 1.26287520138835, 0.0 ], [ 103.804284675597003, 1.26297297366044, 0.0 ], [ 103.804125349188993, 1.26309924201048, 0.0 ], [ 103.804002258766999, 1.26322560662472, 0.0 ], [ 103.803826733110995, 1.26339472719972, 0.0 ], [ 103.803653217401006, 1.26356795450632, 0.0 ], [ 103.803538575879998, 1.2636901943856, 0.0 ], [ 103.803413276862997, 1.26381187342964, 0.0 ], [ 103.803273501327993, 1.26395549309628, 0.0 ], [ 103.803034942780997, 1.26418913117757, 0.0 ], [ 103.802777060023004, 1.26445091284301, 0.0 ], [ 103.802425431285002, 1.26480785696666, 0.0 ], [ 103.801868308105, 1.26523194311223, 0.0 ], [ 103.801330892512993, 1.26563599769362, 0.0 ], [ 103.801000804336994, 1.2658892410682, 0.0 ], [ 103.800988029611005, 1.26591204175572, 0.0 ], [ 103.800994523803993, 1.26594455465975, 0.0 ], [ 103.801280954082003, 1.26642214701209, 0.0 ], [ 103.801298643145998, 1.26645137359259, 0.0 ], [ 103.801247417488995, 1.26647425067378, 0.0 ], [ 103.801181781813, 1.26651666185586, 0.0 ], [ 103.801128994142005, 1.26656882044175, 0.0 ], [ 103.801095984113005, 1.26661857547224, 0.0 ], [ 103.801003832096995, 1.26671091720769, 0.0 ], [ 103.800934687427002, 1.26677040727009, 0.0 ], [ 103.800905502676997, 1.2668017060673, 0.0 ], [ 103.800883182088995, 1.2668116131035, 0.0 ], [ 103.800859568530001, 1.26681997094614, 0.0 ], [ 103.800837015229007, 1.26682925125413, 0.0 ], [ 103.800800268589995, 1.26684699985546, 0.0 ], [ 103.800771530622001, 1.26686121701264, 0.0 ], [ 103.800744134211001, 1.26687164399322, 0.0 ], [ 103.800719110832006, 1.26688167308301, 0.0 ], [ 103.800702154508002, 1.26688982119583, 0.0 ], [ 103.800686331210997, 1.26689981513165, 0.0 ], [ 103.800665251455001, 1.26691293629446, 0.0 ], [ 103.800643532850003, 1.26692540901936, 0.0 ], [ 103.800617627101005, 1.2669361444059, 0.0 ], [ 103.800589433561001, 1.26695685129036, 0.0 ], [ 103.800569623317003, 1.26697909117967, 0.0 ], [ 103.800549048354, 1.26700669936907, 0.0 ], [ 103.800524033768994, 1.26703174362723, 0.0 ], [ 103.800485616540996, 1.26706618677845, 0.0 ], [ 103.800467189143006, 1.26708808845208, 0.0 ], [ 103.800379599218999, 1.26715854730496, 0.0 ], [ 103.80033960438, 1.26717580388338, 0.0 ], [ 103.800315034605006, 1.26719772446879, 0.0 ], [ 103.800291974485006, 1.26721026500074, 0.0 ], [ 103.800258104226998, 1.26721344340832, 0.0 ], [ 103.800225777688993, 1.26721351443757, 0.0 ], [ 103.800201122011003, 1.26720731379469, 0.0 ], [ 103.800182676838006, 1.26721358351894, 0.0 ], [ 103.800176211820997, 1.26721898792022, 0.0 ], [ 103.800141224138002, 1.26726521317592, 0.0 ], [ 103.800087521372006, 1.26734497927414, 0.0 ], [ 103.800062934501, 1.26736847254732, 0.0 ], [ 103.800016832085007, 1.26740448737796, 0.0 ], [ 103.799975326725999, 1.26742799670976, 0.0 ], [ 103.799906181156004, 1.26748436035369, 0.0 ], [ 103.799797076515006, 1.26757048521897, 0.0 ], [ 103.799717136872999, 1.26762531129657, 0.0 ], [ 103.799562472125004, 1.26777696673899, 0.0 ], [ 103.799508312233002, 1.26783691366187, 0.0 ], [ 103.799467083324004, 1.26788254465786, 0.0 ], [ 103.799447360204994, 1.26790600362293, 0.0 ], [ 103.799435831908994, 1.26791438693341, 0.0 ], [ 103.799427601275994, 1.26791942413729, 0.0 ], [ 103.799421401234994, 1.26793161489402, 0.0 ], [ 103.799421256566006, 1.26793195764641, 0.0 ], [ 103.79941751154, 1.26792722053384, 0.0 ], [ 103.799399350963, 1.26795128544358, 0.0 ], [ 103.799398985253006, 1.26795177017833, 0.0 ], [ 103.799265119389005, 1.26812915957809, 0.0 ], [ 103.799264919001004, 1.26813027465731, 0.0 ], [ 103.799249222254005, 1.26815022473836, 0.0 ], [ 103.799210086843004, 1.26820163826656, 0.0 ], [ 103.800284550300006, 1.27008243640497, 0.0 ], [ 103.800423116884005, 1.27022458263633, 0.0 ], [ 103.800454421419005, 1.27025669522493, 0.0 ], [ 103.800583784037997, 1.27049362600273, 0.0 ], [ 103.800584630450004, 1.27049415778008, 0.0 ], [ 103.800728353138993, 1.27061441662283, 0.0 ], [ 103.801863376726004, 1.27246365888655, 0.0 ], [ 103.801850081709006, 1.27270985035181, 0.0 ], [ 103.801982858434002, 1.2726967359758, 0.0 ], [ 103.802209053051996, 1.27269417847571, 0.0 ], [ 103.802929848331999, 1.27268394248224, 0.0 ], [ 103.804015024153003, 1.2725760842913, 0.0 ], [ 103.804069304791, 1.27256534557865, 0.0 ], [ 103.804390550405998, 1.27245108362758, 0.0 ], [ 103.805190284931996, 1.27216528247849, 0.0 ], [ 103.805461636405994, 1.27206831401239, 0.0 ], [ 103.807142694831995, 1.27137454909784, 0.0 ], [ 103.807619725905994, 1.27121440084461, 0.0 ], [ 103.808057007737006, 1.27112633542041, 0.0 ], [ 103.809003120965997, 1.27102225216206, 0.0 ], [ 103.809869715915994, 1.27098221947403, 0.0 ], [ 103.810648860876995, 1.27095020201222, 0.0 ], [ 103.811127621911993, 1.27082933511165, 0.0 ], [ 103.811707033626007, 1.27216506356278, 0.0 ], [ 103.812045436865006, 1.2726521329315, 0.0 ], [ 103.812343882115997, 1.27294644377813, 0.0 ], [ 103.813589943457004, 1.27386820051384, 0.0 ], [ 103.813780495629004, 1.27402960850779, 0.0 ], [ 103.814193257965997, 1.27437922283229, 0.0 ], [ 103.814213597071998, 1.27440013642341, 0.0 ], [ 103.814235218381995, 1.27442209185234, 0.0 ], [ 103.814285830751004, 1.27447218590757, 0.0 ], [ 103.814472644535996, 1.27471113768965, 0.0 ], [ 103.814698170490004, 1.27500567562664, 0.0 ], [ 103.814880105309996, 1.27524328526599, 0.0 ], [ 103.815213823874004, 1.27570205841629, 0.0 ], [ 103.815361221084004, 1.27590469327157, 0.0 ], [ 103.815926380722999, 1.27671730162844, 0.0 ], [ 103.816067741503005, 1.27694569000182, 0.0 ], [ 103.816131163994001, 1.27705636751369, 0.0 ], [ 103.816304340862004, 1.27745870615926, 0.0 ], [ 103.816320626544993, 1.27750457836982, 0.0 ], [ 103.816357725592994, 1.2776035288004, 0.0 ], [ 103.816447578052006, 1.27779551250376, 0.0 ], [ 103.816694987717, 1.27833156286964, 0.0 ], [ 103.817152066692003, 1.27829996549002, 0.0 ], [ 103.817310449781004, 1.27820285307098, 0.0 ], [ 103.817431895802997, 1.27810294954187, 0.0 ], [ 103.817538842144998, 1.27799898441423, 0.0 ], [ 103.817635296324994, 1.27788415508155, 0.0 ], [ 103.817709198955995, 1.27777833398614, 0.0 ], [ 103.817800684413001, 1.27762973382122, 0.0 ], [ 103.817976760752998, 1.27734376384295, 0.0 ], [ 103.818091393681996, 1.27714568690469, 0.0 ], [ 103.818154346629001, 1.27705231883507, 0.0 ], [ 103.818271631030996, 1.27686826769949, 0.0 ], [ 103.818358239096995, 1.2767314296544, 0.0 ], [ 103.818428648185005, 1.27662018594381, 0.0 ], [ 103.818527382905003, 1.27648013385021, 0.0 ], [ 103.818622801024006, 1.27635608447108, 0.0 ], [ 103.818732801533002, 1.27622338039901, 0.0 ], [ 103.818774535244998, 1.27617402853776, 0.0 ], [ 103.818844909061994, 1.27609752961142, 0.0 ], [ 103.818919372129997, 1.27601846864021, 0.0 ], [ 103.818941993807002, 1.27599686620221, 0.0 ], [ 103.819044378097004, 1.27589908231678, 0.0 ], [ 103.819137531646007, 1.27581362758317, 0.0 ], [ 103.819375697916996, 1.27561309681944, 0.0 ], [ 103.819561353319003, 1.27548136350552, 0.0 ], [ 103.819596015380995, 1.27545840186584, 0.0 ], [ 103.819768914107001, 1.2753523515282, 0.0 ], [ 103.819891638404997, 1.27527415626042, 0.0 ], [ 103.819817999435003, 1.27516390564519, 0.0 ], [ 103.819788254523004, 1.27511937184441, 0.0 ], [ 103.819555357040997, 1.27470124288984, 0.0 ], [ 103.819535105477996, 1.27459925483143, 0.0 ], [ 103.819524981352998, 1.27449048318592, 0.0 ], [ 103.819548479608002, 1.27437031853182, 0.0 ], [ 103.819592389036998, 1.27424397355688, 0.0 ], [ 103.819699020960996, 1.27407974054577, 0.0 ], [ 103.819880904417005, 1.27390287756523, 0.0 ], [ 103.820104221009998, 1.27374975346161, 0.0 ], [ 103.820083470860993, 1.27362520782871, 0.0 ], [ 103.820097191694998, 1.27358720648377, 0.0 ], [ 103.820083344938993, 1.27347394103064, 0.0 ], [ 103.820078925226994, 1.27343778720947, 0.0 ], [ 103.819971562206007, 1.27285326844118, 0.0 ], [ 103.820104008412997, 1.27244590516111, 0.0 ], [ 103.820400616653004, 1.27210053149871, 0.0 ], [ 103.820622527889995, 1.27210249508034, 0.0 ], [ 103.820951211568996, 1.27220950115296, 0.0 ], [ 103.821451392973998, 1.27219563598707, 0.0 ], [ 103.821500650260006, 1.27208996930606, 0.0 ], [ 103.821550285792, 1.27199188210862, 0.0 ], [ 103.821619028778997, 1.27186961589526, 0.0 ], [ 103.821692981450994, 1.27175051317225, 0.0 ], [ 103.821771956014999, 1.27163474667202, 0.0 ], [ 103.821855983917004, 1.2715225135458, 0.0 ], [ 103.821923814673994, 1.27144357635044, 0.0 ], [ 103.821998400583993, 1.27137114066295, 0.0 ], [ 103.822080677021006, 1.27130555376303, 0.0 ], [ 103.822132270148998, 1.27127101990728, 0.0 ], [ 103.822133651103002, 1.27066717269519, 0.0 ], [ 103.823011846449006, 1.27070916875624, 0.0 ], [ 103.823036541413003, 1.26989350397535, 0.0 ], [ 103.823081980398001, 1.26986887829809, 0.0 ], [ 103.823123555592005, 1.26986805549153, 0.0 ], [ 103.823165463224001, 1.26987202582011, 0.0 ], [ 103.823334342465003, 1.26995350976979, 0.0 ], [ 103.823355017547001, 1.27000485969504, 0.0 ], [ 103.823578275520006, 1.27000494194554, 0.0 ], [ 103.823685624518006, 1.26995629655749, 0.0 ], [ 103.823767472029004, 1.26995542776885, 0.0 ], [ 103.823765982734997, 1.27007027036197, 0.0 ], [ 103.823756398884996, 1.27082421591337, 0.0 ], [ 103.823743792361995, 1.27084596584449, 0.0 ], [ 103.823732609103999, 1.27087127445712, 0.0 ], [ 103.823724437734995, 1.27089663734289, 0.0 ], [ 103.823718911647006, 1.27092325278405, 0.0 ], [ 103.823716233913004, 1.27095029328742, 0.0 ], [ 103.823716458446, 1.27097747850006, 0.0 ], [ 103.823719567276996, 1.27100449189414, 0.0 ], [ 103.823725533450002, 1.27103100789817, 0.0 ], [ 103.823734276099998, 1.27105672807136, 0.0 ], [ 103.823746530213995, 1.2710852011447, 0.0 ], [ 103.823748157894002, 1.2712113474065, 0.0 ], [ 103.823731371034, 1.27132777438874, 0.0 ], [ 103.823904038275003, 1.27150168260866, 0.0 ], [ 103.824364570547999, 1.27207450814179, 0.0 ], [ 103.824987053832999, 1.27134808629669, 0.0 ], [ 103.825158216117003, 1.27094967156071, 0.0 ], [ 103.825220581834998, 1.27059402117814, 0.0 ], [ 103.825222413082003, 1.27058358028997, 0.0 ], [ 103.825177805739003, 1.26930487495153, 0.0 ], [ 103.825305234818003, 1.26877204247829, 0.0 ], [ 103.825683498472003, 1.2679674056561, 0.0 ], [ 103.826482939285, 1.26694259683436, 0.0 ], [ 103.825744225635006, 1.26619908461722, 0.0 ], [ 103.824885254107002, 1.26587055416205, 0.0 ], [ 103.823837309000993, 1.26571493190021, 0.0 ], [ 103.823844606690002, 1.26428493817136, 0.0 ], [ 103.823887376787994, 1.26380180933814, 0.0 ], [ 103.82378577851, 1.26339794576036, 0.0 ], [ 103.823779762133995, 1.26309821202938, 0.0 ], [ 103.823779093735993, 1.26306833451869, 0.0 ], [ 103.823776853162002, 1.26296815437609, 0.0 ], [ 103.823734249056997, 1.26106366811866, 0.0 ], [ 103.823820147598994, 1.2606141040391, 0.0 ], [ 103.823853278475994, 1.2583120989272, 0.0 ], [ 103.823644601571999, 1.25841597172052, 0.0 ], [ 103.823644701289993, 1.25842116548957, 0.0 ], [ 103.823677822749005, 1.2601776777294, 0.0 ], [ 103.823614644328998, 1.26017768291914, 0.0 ], [ 103.823615961274996, 1.26025884516742, 0.0 ], [ 103.823642200181993, 1.26025872317651, 0.0 ], [ 103.823645123240993, 1.26046478548185, 0.0 ], [ 103.823645173540001, 1.26046987524864, 0.0 ], [ 103.823645743194007, 1.2604738463178, 0.0 ], [ 103.823647565393003, 1.26047988567456, 0.0 ], [ 103.823650581741006, 1.26048567271792, 0.0 ], [ 103.823654484943006, 1.26049061418327, 0.0 ], [ 103.823659305546997, 1.26049480593338, 0.0 ], [ 103.823664416382002, 1.26049782653182, 0.0 ], [ 103.823670565022994, 1.26050006485834, 0.0 ], [ 103.823675994843995, 1.26050099818336, 0.0 ], [ 103.823672904096, 1.26069073938946, 0.0 ], [ 103.823670487946998, 1.26069031885069, 0.0 ], [ 103.823667105875998, 1.26068999959719, 0.0 ], [ 103.823662334673998, 1.2606900683111, 0.0 ], [ 103.823658036097996, 1.26069065522796, 0.0 ], [ 103.823653972038002, 1.26069168980639, 0.0 ], [ 103.823649571025001, 1.26069338457006, 0.0 ], [ 103.823645732491997, 1.26069542209018, 0.0 ], [ 103.823642478002995, 1.26069763777242, 0.0 ], [ 103.823639366378998, 1.2607002776024, 0.0 ], [ 103.823637122738006, 1.26070258824674, 0.0 ], [ 103.823637948297005, 1.26075433692339, 0.0 ], [ 103.823640687010993, 1.2607569424094, 0.0 ], [ 103.823645111367, 1.26076022165371, 0.0 ], [ 103.823650518717997, 1.260763063189, 0.0 ], [ 103.823656652983999, 1.26076507542423, 0.0 ], [ 103.823663869086005, 1.26076604854802, 0.0 ], [ 103.823668783154005, 1.26076590929416, 0.0 ], [ 103.823669812606994, 1.26083745180975, 0.0 ], [ 103.823596671732005, 1.26095108862359, 0.0 ], [ 103.823598731922004, 1.26098945179745, 0.0 ], [ 103.823576068259996, 1.26099048811442, 0.0 ], [ 103.823573527215999, 1.26098981435286, 0.0 ], [ 103.823571165876999, 1.26098938024872, 0.0 ], [ 103.823566811595001, 1.26098903838229, 0.0 ], [ 103.823562053870006, 1.26098933409171, 0.0 ], [ 103.823557399473003, 1.26099031802331, 0.0 ], [ 103.823553375844, 1.26099177132277, 0.0 ], [ 103.823549976693002, 1.26099350045591, 0.0 ], [ 103.823546417602003, 1.26099590605353, 0.0 ], [ 103.823543667188005, 1.26099829537563, 0.0 ], [ 103.823540959902004, 1.26100126620461, 0.0 ], [ 103.823538569795005, 1.26100464852091, 0.0 ], [ 103.823536740373001, 1.26100804621354, 0.0 ], [ 103.823535335955, 1.26101157865816, 0.0 ], [ 103.823534281063999, 1.26101555876481, 0.0 ], [ 103.823533749118994, 1.26101936523536, 0.0 ], [ 103.823533679915997, 1.26102369262195, 0.0 ], [ 103.823534099515996, 1.26102756692346, 0.0 ], [ 103.823535015104994, 1.26103151990664, 0.0 ], [ 103.823536531810007, 1.2610356148774, 0.0 ], [ 103.823538474421994, 1.26103931283351, 0.0 ], [ 103.823540619205005, 1.26104242023999, 0.0 ], [ 103.823543547506006, 1.26104570400063, 0.0 ], [ 103.823546059791994, 1.26104792965257, 0.0 ], [ 103.823549662893001, 1.2610504302356, 0.0 ], [ 103.823553048552995, 1.26105220009085, 0.0 ], [ 103.823557384859996, 1.26105379450284, 0.0 ], [ 103.823561235962998, 1.26105466089913, 0.0 ], [ 103.823565999975003, 1.26105507692506, 0.0 ], [ 103.823570916739996, 1.26105477217259, 0.0 ], [ 103.823569887114999, 1.2612712635997, 0.0 ], [ 103.823565809578, 1.26127141823072, 0.0 ], [ 103.823562463445001, 1.26127194094109, 0.0 ], [ 103.823558535060997, 1.26127303520797, 0.0 ], [ 103.823554938233997, 1.26127454096221, 0.0 ], [ 103.823551147320998, 1.26127674126807, 0.0 ], [ 103.823547916191998, 1.26127923639907, 0.0 ], [ 103.823544942042005, 1.26128221807943, 0.0 ], [ 103.823542819699995, 1.2612849203142, 0.0 ], [ 103.823540806078995, 1.26128818235136, 0.0 ], [ 103.823539118623003, 1.26129184231038, 0.0 ], [ 103.823537774404002, 1.26129619591871, 0.0 ], [ 103.823537107679002, 1.26130013080858, 0.0 ], [ 103.823536924364006, 1.26130392914115, 0.0 ], [ 103.823537250515002, 1.26130820045858, 0.0 ], [ 103.823537994484994, 1.26131187580101, 0.0 ], [ 103.823539324297002, 1.26131586134288, 0.0 ], [ 103.823541257024004, 1.26131981523426, 0.0 ], [ 103.823543332620005, 1.26132297509366, 0.0 ], [ 103.823545791889998, 1.26132590253267, 0.0 ], [ 103.823548808249001, 1.26132870607579, 0.0 ], [ 103.823551965681006, 1.26133098056586, 0.0 ], [ 103.823554833787, 1.26133259396399, 0.0 ], [ 103.823558584251998, 1.26133416847773, 0.0 ], [ 103.823562653696996, 1.26133528628833, 0.0 ], [ 103.823567244293002, 1.26133588318661, 0.0 ], [ 103.823571117862002, 1.26133586782704, 0.0 ], [ 103.823574007540998, 1.2613355476927, 0.0 ], [ 103.823575037332006, 1.26155691184608, 0.0 ], [ 103.823573469394006, 1.26155706015604, 0.0 ], [ 103.823570040595001, 1.26155765973712, 0.0 ], [ 103.823565234342993, 1.26155917995665, 0.0 ], [ 103.823560603302994, 1.26156151048791, 0.0 ], [ 103.823557146642997, 1.26156394050376, 0.0 ], [ 103.823553330565005, 1.26156756880194, 0.0 ], [ 103.823550777825005, 1.26157082450652, 0.0 ], [ 103.823548315831999, 1.26157507501299, 0.0 ], [ 103.823546524142998, 1.26157964295414, 0.0 ], [ 103.823545553713998, 1.2615837162107, 0.0 ], [ 103.823545125997995, 1.26158761854432, 0.0 ], [ 103.823545252673, 1.26159249397685, 0.0 ], [ 103.823546048755006, 1.2615970691627, 0.0 ], [ 103.823547414507004, 1.26160130250073, 0.0 ], [ 103.823548933013001, 1.26160456274252, 0.0 ], [ 103.823551615114994, 1.26160876352839, 0.0 ], [ 103.823554549706003, 1.26161214676918, 0.0 ], [ 103.823558191442999, 1.26161529035591, 0.0 ], [ 103.823562057816005, 1.26161774662603, 0.0 ], [ 103.823565950247996, 1.26161952281372, 0.0 ], [ 103.823569980157998, 1.26162074914795, 0.0 ], [ 103.823574769328999, 1.26162149164975, 0.0 ], [ 103.82357908857, 1.26162153507558, 0.0 ], [ 103.823582246909993, 1.26162119595059, 0.0 ], [ 103.823580185782006, 1.26183457726144, 0.0 ], [ 103.823577383262005, 1.26183459443379, 0.0 ], [ 103.823573914030007, 1.26183496249729, 0.0 ], [ 103.823569242559003, 1.26183609112723, 0.0 ], [ 103.823565661006995, 1.26183749830573, 0.0 ], [ 103.823562428082994, 1.26183923467443, 0.0 ], [ 103.823559658801003, 1.2618411464917, 0.0 ], [ 103.823556745752001, 1.26184368955524, 0.0 ], [ 103.823553725774005, 1.26184713065287, 0.0 ], [ 103.823551470447001, 1.26185053919624, 0.0 ], [ 103.823549405604993, 1.26185486024468, 0.0 ], [ 103.823548094630993, 1.26185906101543, 0.0 ], [ 103.823547522254998, 1.26186211324534, 0.0 ], [ 103.823547237407993, 1.26186544492514, 0.0 ], [ 103.823547306582, 1.26186887246897, 0.0 ], [ 103.823547839396994, 1.26187279651099, 0.0 ], [ 103.823548904142001, 1.26187678476493, 0.0 ], [ 103.823550382213, 1.26188041850934, 0.0 ], [ 103.823552386824005, 1.26188398895018, 0.0 ], [ 103.823554747255002, 1.26188717413285, 0.0 ], [ 103.823557233482006, 1.26188980855766, 0.0 ], [ 103.823559955126001, 1.26189210655957, 0.0 ], [ 103.823562537499996, 1.26189385832446, 0.0 ], [ 103.823565745251997, 1.26189556758654, 0.0 ], [ 103.823570139964005, 1.26189721083446, 0.0 ], [ 103.823574317235, 1.26189812697203, 0.0 ], [ 103.823578351641004, 1.26189846612417, 0.0 ], [ 103.823582167705993, 1.26189831058777, 0.0 ], [ 103.823585336828998, 1.26189782405133, 0.0 ], [ 103.823585336028003, 1.26211296797699, 0.0 ], [ 103.823582006069003, 1.26211296434695, 0.0 ], [ 103.823578709355004, 1.26211330256706, 0.0 ], [ 103.823575689386999, 1.26211392023699, 0.0 ], [ 103.823572557101997, 1.2621148924176, 0.0 ], [ 103.823569707852997, 1.26211609702108, 0.0 ], [ 103.823567317753998, 1.26211737126243, 0.0 ], [ 103.823563994975004, 1.26211961588394, 0.0 ], [ 103.823561656988005, 1.26212159824331, 0.0 ], [ 103.823559749397006, 1.26212353357732, 0.0 ], [ 103.823557993658, 1.26212564435872, 0.0 ], [ 103.823556506580005, 1.2621277641848, 0.0 ], [ 103.823555476856001, 1.26212947704833, 0.0 ], [ 103.823554206322996, 1.26213199389146, 0.0 ], [ 103.82355327274, 1.26213428916646, 0.0 ], [ 103.823552402950995, 1.26213706465953, 0.0 ], [ 103.823551802720999, 1.262139794031, 0.0 ], [ 103.823551475646994, 1.26214215623129, 0.0 ], [ 103.823551317495998, 1.26214470382706, 0.0 ], [ 103.823551373193993, 1.26214750826331, 0.0 ], [ 103.823551675988995, 1.26215034254455, 0.0 ], [ 103.823552153099996, 1.26215284311574, 0.0 ], [ 103.823552831482004, 1.2621553228873, 0.0 ], [ 103.823553788409001, 1.26215795188014, 0.0 ], [ 103.823554991533001, 1.26216053746439, 0.0 ], [ 103.823556415696999, 1.26216300729075, 0.0 ], [ 103.823558092347994, 1.26216539753394, 0.0 ], [ 103.823560004415995, 1.26216765664509, 0.0 ], [ 103.823562308242998, 1.26216990671407, 0.0 ], [ 103.823564685750995, 1.26217181493332, 0.0 ], [ 103.823566928481, 1.26217330895288, 0.0 ], [ 103.823569687865998, 1.2621748074962, 0.0 ], [ 103.823572226215006, 1.26217589726569, 0.0 ], [ 103.823575368377007, 1.26217690926205, 0.0 ], [ 103.823578317355995, 1.26217754775491, 0.0 ], [ 103.823581826121, 1.26217793935823, 0.0 ], [ 103.823584910780994, 1.26217796469208, 0.0 ], [ 103.823587768113001, 1.26217772323739, 0.0 ], [ 103.823590485275005, 1.26217725116907, 0.0 ], [ 103.823590484459999, 1.26239612740887, 0.0 ], [ 103.823588936288999, 1.26239624316174, 0.0 ], [ 103.823586461730997, 1.26239658409805, 0.0 ], [ 103.823582698676006, 1.26239748664018, 0.0 ], [ 103.823578472874999, 1.26239909910711, 0.0 ], [ 103.823575270500996, 1.26240080744062, 0.0 ], [ 103.823572451798995, 1.26240272739698, 0.0 ], [ 103.823569453388004, 1.26240530934789, 0.0 ], [ 103.823566964445007, 1.26240801881619, 0.0 ], [ 103.823565036185997, 1.26241062157153, 0.0 ], [ 103.823563579657005, 1.26241302084651, 0.0 ], [ 103.823562046749004, 1.26241620149262, 0.0 ], [ 103.823560875949994, 1.26241948162026, 0.0 ], [ 103.823560084331007, 1.26242272557472, 0.0 ], [ 103.823559595516002, 1.26242638011206, 0.0 ], [ 103.823559519127002, 1.2624301422704, 0.0 ], [ 103.823559822817998, 1.26243355534527, 0.0 ], [ 103.823560554208996, 1.26243721893088, 0.0 ], [ 103.823561558755998, 1.26244041676951, 0.0 ], [ 103.823562828370996, 1.26244338218733, 0.0 ], [ 103.823564504120995, 1.2624464091035, 0.0 ], [ 103.823566486272, 1.26244923886927, 0.0 ], [ 103.823568796388003, 1.26245188685888, 0.0 ], [ 103.823571580928999, 1.26245444079631, 0.0 ], [ 103.823575138207005, 1.26245696579699, 0.0 ], [ 103.823578418740993, 1.26245872932124, 0.0 ], [ 103.823582058688004, 1.26246016546669, 0.0 ], [ 103.823585830721001, 1.26246115123883, 0.0 ], [ 103.823589556032999, 1.2624616658366, 0.0 ], [ 103.823593101639005, 1.26246175357338, 0.0 ], [ 103.823596666116998, 1.26246144881578, 0.0 ], [ 103.823596665314, 1.26267721403931, 0.0 ], [ 103.823594534894994, 1.26267720498763, 0.0 ], [ 103.823591609274004, 1.26267743468532, 0.0 ], [ 103.823587848016004, 1.26267815545009, 0.0 ], [ 103.823584682483997, 1.26267915657026, 0.0 ], [ 103.823581930276006, 1.2626803512261, 0.0 ], [ 103.823579355077996, 1.26268178101753, 0.0 ], [ 103.823576848166994, 1.26268351105842, 0.0 ], [ 103.823574727625001, 1.2626852944583, 0.0 ], [ 103.823572404911005, 1.26268767473834, 0.0 ], [ 103.823570420045002, 1.26269019519624, 0.0 ], [ 103.823569118064, 1.26269219745555, 0.0 ], [ 103.823567763967006, 1.26269472515076, 0.0 ], [ 103.823566712675003, 1.26269719768084, 0.0 ], [ 103.823565811437007, 1.26269999578291, 0.0 ], [ 103.823565220193004, 1.26270263381353, 0.0 ], [ 103.823564859871993, 1.26270530801964, 0.0 ], [ 103.82356473227, 1.2627080473409, 0.0 ], [ 103.823564870633007, 1.26271105616397, 0.0 ], [ 103.823565336060994, 1.26271422596523, 0.0 ], [ 103.823566191450993, 1.26271754137076, 0.0 ], [ 103.82356720768, 1.26272028702689, 0.0 ], [ 103.823568498860993, 1.26272296123924, 0.0 ], [ 103.823570095541996, 1.26272558299958, 0.0 ], [ 103.823572288847998, 1.26272843808833, 0.0 ], [ 103.823574227872996, 1.26273048196069, 0.0 ], [ 103.823576283706998, 1.26273229069856, 0.0 ], [ 103.823579101495994, 1.2627343065389, 0.0 ], [ 103.823581996559994, 1.26273592717202, 0.0 ], [ 103.823585000348004, 1.2627372068599, 0.0 ], [ 103.823588693310995, 1.26273829572936, 0.0 ], [ 103.823592140976004, 1.262738874536, 0.0 ], [ 103.823595066595004, 1.26273905270694, 0.0 ], [ 103.823598648144994, 1.26273888903036, 0.0 ], [ 103.823601815472003, 1.26273838802406, 0.0 ], [ 103.823602845275005, 1.26295716116918, 0.0 ], [ 103.823599462302994, 1.26295676142708, 0.0 ], [ 103.823595863682002, 1.26295677588335, 0.0 ], [ 103.823591286557004, 1.26295745233114, 0.0 ], [ 103.823586661806004, 1.2629589399942, 0.0 ], [ 103.823582664230003, 1.26296098655724, 0.0 ], [ 103.823579229131994, 1.26296345817395, 0.0 ], [ 103.823575765277994, 1.26296688932187, 0.0 ], [ 103.823573155928003, 1.26297046336269, 0.0 ], [ 103.823571375024997, 1.26297380136738, 0.0 ], [ 103.823569943647996, 1.26297766390509, 0.0 ], [ 103.823569073854998, 1.26298163949058, 0.0 ], [ 103.823568763847007, 1.26298544415318, 0.0 ], [ 103.823568942641003, 1.26298918641644, 0.0 ], [ 103.823569638988999, 1.2629930516753, 0.0 ], [ 103.823570782806996, 1.26299663206087, 0.0 ], [ 103.823572614899007, 1.26300046386253, 0.0 ], [ 103.823574987011, 1.26300399541702, 0.0 ], [ 103.823577708653005, 1.26300701238911, 0.0 ], [ 103.823580942459998, 1.26300970560045, 0.0 ], [ 103.823585478241, 1.26301237078137, 0.0 ], [ 103.823590482159005, 1.26301418586091, 0.0 ], [ 103.823641990512996, 1.26301418605471, 0.0 ], [ 103.823641866309003, 1.26306985695811, 0.0 ], [ 103.823568254061996, 1.26307048340579, 0.0 ], [ 103.823568210931995, 1.26307048340563, 0.0 ], [ 103.823568210041003, 1.26306854987315, 0.0 ], [ 103.823567097841007, 1.26301946002957, 0.0 ], [ 103.823567093348998, 1.26301926287797, 0.0 ], [ 103.823563668708999, 1.26286808558544, 0.0 ], [ 103.823563645351001, 1.26286705460919, 0.0 ], [ 103.823560333908006, 1.26272091101279, 0.0 ], [ 103.823560252155005, 1.26271728089115, 0.0 ], [ 103.823553189959995, 1.26240559144828, 0.0 ], [ 103.823548157215001, 1.26218342872686, 0.0 ], [ 103.823517058780993, 1.2608107905525, 0.0 ], [ 103.823516993198993, 1.26080787849673, 0.0 ], [ 103.823541315544006, 1.2608078785889, 0.0 ], [ 103.823549345719002, 1.26080787861928, 0.0 ], [ 103.823549345765002, 1.26079548339167, 0.0 ], [ 103.823549345819998, 1.26078074314545, 0.0 ], [ 103.823559087698001, 1.26078044655053, 0.0 ], [ 103.823638315707996, 1.2607780294808, 0.0 ], [ 103.823637948297005, 1.26075433692339, 0.0 ], [ 103.823635989506997, 1.26075211127361, 0.0 ], [ 103.823634210422995, 1.260749738213, 0.0 ], [ 103.823632474470998, 1.26074698079741, 0.0 ], [ 103.823630948776, 1.2607440135699, 0.0 ], [ 103.823629675568995, 1.26074089169691, 0.0 ], [ 103.823628729426005, 1.26073784850491, 0.0 ], [ 103.823627984557007, 1.26073441914977, 0.0 ], [ 103.823627583822997, 1.260731267436, 0.0 ], [ 103.823627445461995, 1.26072801443434, 0.0 ], [ 103.823627528136001, 1.26072550663031, 0.0 ], [ 103.823627861502004, 1.26072238657209, 0.0 ], [ 103.823628418602993, 1.26071943563096, 0.0 ], [ 103.823629327030005, 1.26071616002409, 0.0 ], [ 103.823630406177003, 1.26071325159007, 0.0 ], [ 103.823631715347005, 1.26071044625455, 0.0 ], [ 103.823633308454006, 1.26070765900737, 0.0 ], [ 103.823635130685005, 1.26070501645948, 0.0 ], [ 103.823637122738006, 1.26070258824674, 0.0 ], [ 103.823635620741996, 1.26060843208075, 0.0 ], [ 103.823624836609994, 1.26059757785075, 0.0 ], [ 103.823624836700006, 1.26057315547208, 0.0 ], [ 103.823641013019, 1.26055687424838, 0.0 ], [ 103.823639670741002, 1.26052219365167, 0.0 ], [ 103.823639598865995, 1.26052034060739, 0.0 ], [ 103.823632925214, 1.26034792971235, 0.0 ], [ 103.823619445508996, 1.26033164837743, 0.0 ], [ 103.823616749107003, 1.26030722598857, 0.0 ], [ 103.823616715868994, 1.2603051947845, 0.0 ], [ 103.823616683528996, 1.2603032006594, 0.0 ], [ 103.823615966665002, 1.2602591906349, 0.0 ], [ 103.823615961274996, 1.26025884516742, 0.0 ], [ 103.823613124611995, 1.26025885872225, 0.0 ], [ 103.823609628433999, 1.26025686187103, 0.0 ], [ 103.823605998378, 1.26025431516535, 0.0 ], [ 103.823602460871996, 1.26025126472868, 0.0 ], [ 103.823598460626997, 1.26024691200455, 0.0 ], [ 103.823595756960998, 1.26024319234084, 0.0 ], [ 103.823593437867004, 1.26023921855199, 0.0 ], [ 103.823591592298996, 1.26023519502484, 0.0 ], [ 103.823590047739998, 1.26023068856788, 0.0 ], [ 103.823588912016007, 1.26022567385928, 0.0 ], [ 103.823588379203002, 1.26022117373668, 0.0 ], [ 103.823588321716997, 1.26021582532143, 0.0 ], [ 103.823588951608997, 1.26021010159727, 0.0 ], [ 103.823589896879, 1.26020585560682, 0.0 ], [ 103.823591575354001, 1.26020085266556, 0.0 ], [ 103.823593747120995, 1.26019620061981, 0.0 ], [ 103.823596641308001, 1.26019150697598, 0.0 ], [ 103.823599821223993, 1.26018748256337, 0.0 ], [ 103.823604111725999, 1.26018323748985, 0.0 ], [ 103.823609205512994, 1.26017941204474, 0.0 ], [ 103.823612110471004, 1.26017768290962, 0.0 ], [ 103.823614644328998, 1.26017768291914, 0.0 ] ] ] } }
]
}
