{
"type": "FeatureCollection",
"crs": { "type": "name", "properties": { "name": "urn:ogc:def:crs:OGC:1.3:CRS84" } },
"features": [
{ "type": "Feature", "properties": { "Name": "kml_300", "Description": "<center><table><tr><th colspan='2' align='center'><em>Attributes<\/em><\/th><\/tr><tr bgcolor=\"#E3E3F3\"> <th>SUBZONE_NO<\/th> <td>1<\/td> <\/tr><tr bgcolor=\"\"> <th>SUBZONE_N<\/th> <td>MURAI<\/td> <\/tr><tr bgcolor=\"#E3E3F3\"> <th>SUBZONE_C<\/th> <td>WCSZ01<\/td> <\/tr><tr bgcolor=\"\"> <th>CA_IND<\/th> <td>N<\/td> <\/tr><tr bgcolor=\"#E3E3F3\"> <th>PLN_AREA_N<\/th> <td>WESTERN WATER CATCHMENT<\/td> <\/tr><tr bgcolor=\"\"> <th>PLN_AREA_C<\/th> <td>WC<\/td> <\/tr><tr bgcolor=\"#E3E3F3\"> <th>REGION_N<\/th> <td>WEST REGION<\/td> <\/tr><tr bgcolor=\"\"> <th>REGION_C<\/th> <td>WR<\/td> <\/tr><tr bgcolor=\"#E3E3F3\"> <th>INC_CRC<\/th> <td>ABCC4215E5EE5CFE<\/td> <\/tr><tr bgcolor=\"\"> <th>FMEL_UPD_D<\/th> <td>20191223152313<\/td> <\/tr><\/table><\/center>", "Subzone": "MURAI" }, "geometry": { "type": "MultiPolygon", "coordinates": [ [ [ [ 103.693015269303999, 1.43367231433266, 0.0 ], [ 103.693241473984997, 1.4330460021548, 0.0 ], [ 103.693390126037997, 1.43263441576731, 0.0 ], [ 103.694324805685, 1.43243079732805, 0.0 ], [ 103.695034434586006, 1.43152531455838, 0.0 ], [ 103.695783894407995, 1.42774087416266, 0.0 ], [ 103.695809848457003, 1.4277092827701, 0.0 ], [ 103.697125297491993, 1.42610809768079, 0.0 ], [ 103.697092988129995, 1.42544552631431, 0.0 ], [ 103.697064882535997, 1.42504002350958, 0.0 ], [ 103.697014884322996, 1.42431865946316, 0.0 ], [ 103.697010821654004, 1.42426005299215, 0.0 ], [ 103.697072963007002, 1.4242385446477, 0.0 ], [ 103.700110612933003, 1.4231872765903, 0.0 ], [ 103.700092989298994, 1.42313375636166, 0.0 ], [ 103.699834149438004, 1.42234770111206, 0.0 ], [ 103.699806356525002, 1.42226241369111, 0.0 ], [ 103.699767089773005, 1.42214191881209, 0.0 ], [ 103.699663827918002, 1.42182504264621, 0.0 ], [ 103.699403202127002, 1.42100417929649, 0.0 ], [ 103.699245484008003, 1.4205032036118, 0.0 ], [ 103.699153487339998, 1.42021098731218, 0.0 ], [ 103.698886818245995, 1.41936973112876, 0.0 ], [ 103.698664886792997, 1.41869157822097, 0.0 ], [ 103.698651425649999, 1.41865047330265, 0.0 ], [ 103.699206069919001, 1.41876128276038, 0.0 ], [ 103.699728667100999, 1.41868349017121, 0.0 ], [ 103.699804996089, 1.41866152043061, 0.0 ], [ 103.700520983763994, 1.41841999880843, 0.0 ], [ 103.701047969982994, 1.41830288633236, 0.0 ], [ 103.701565355921005, 1.41805410990131, 0.0 ], [ 103.701316151018005, 1.41751437628561, 0.0 ], [ 103.700984449908006, 1.41679776017525, 0.0 ], [ 103.700972788593006, 1.41677256399355, 0.0 ], [ 103.701117528767, 1.41670076238845, 0.0 ], [ 103.701742897236002, 1.41639053709305, 0.0 ], [ 103.701969392693002, 1.41607557084642, 0.0 ], [ 103.702143139626997, 1.41545150616427, 0.0 ], [ 103.702226667207, 1.41529888814819, 0.0 ], [ 103.702502774492999, 1.41502797338981, 0.0 ], [ 103.703854601287006, 1.41368599153214, 0.0 ], [ 103.705149713037002, 1.41238140364499, 0.0 ], [ 103.705227178090993, 1.41231745600615, 0.0 ], [ 103.705321374365994, 1.41226103358086, 0.0 ], [ 103.705433511555995, 1.41222492591712, 0.0 ], [ 103.705597230414, 1.41218430652688, 0.0 ], [ 103.705641538137996, 1.41217813489917, 0.0 ], [ 103.705743007029994, 1.41216400081059, 0.0 ], [ 103.705884297297004, 1.41215498036718, 0.0 ], [ 103.706034558005996, 1.41214821679184, 0.0 ], [ 103.706256585974998, 1.41215725725935, 0.0 ], [ 103.706653541169004, 1.4122024220868, 0.0 ], [ 103.707081375265005, 1.41226550213295, 0.0 ], [ 103.707285477385994, 1.41229151368024, 0.0 ], [ 103.707680636885996, 1.41231029529096, 0.0 ], [ 103.708625570112005, 1.41236137602107, 0.0 ], [ 103.708952840227994, 1.41238922811606, 0.0 ], [ 103.709390734661994, 1.41245883868153, 0.0 ], [ 103.709842453606001, 1.41258411789897, 0.0 ], [ 103.710381747780005, 1.41281146164618, 0.0 ], [ 103.710681354383993, 1.41295528920551, 0.0 ], [ 103.710755104499995, 1.4129784891, 0.0 ], [ 103.710870339817006, 1.41299705091241, 0.0 ], [ 103.710999405324998, 1.41299705775502, 0.0 ], [ 103.711289801476994, 1.41296923867414, 0.0 ], [ 103.711534103654003, 1.41292749989961, 0.0 ], [ 103.711993501570007, 1.41283869856608, 0.0 ], [ 103.712300131603001, 1.41280947844741, 0.0 ], [ 103.712503473775001, 1.41281598603343, 0.0 ], [ 103.712874654610005, 1.41285498704501, 0.0 ], [ 103.713223237047004, 1.41296220284492, 0.0 ], [ 103.713367778305994, 1.41300860412868, 0.0 ], [ 103.713861388829997, 1.41339624559917, 0.0 ], [ 103.713895124846005, 1.41342273882058, 0.0 ], [ 103.714098808547007, 1.41365834107462, 0.0 ], [ 103.714460229618993, 1.41407639833836, 0.0 ], [ 103.714680985520999, 1.41433231520832, 0.0 ], [ 103.714846689363, 1.41439875906347, 0.0 ], [ 103.715003055734996, 1.41443525990679, 0.0 ], [ 103.715167259848997, 1.41444854797745, 0.0 ], [ 103.715256870006002, 1.41445579921978, 0.0 ], [ 103.715368093229003, 1.41445731790907, 0.0 ], [ 103.715586486419994, 1.41445512785218, 0.0 ], [ 103.715740787363998, 1.41444796865569, 0.0 ], [ 103.715904585998999, 1.41441213984718, 0.0 ], [ 103.716034988874, 1.41435508666446, 0.0 ], [ 103.716068386429001, 1.41434047477651, 0.0 ], [ 103.716246432480006, 1.41422580528808, 0.0 ], [ 103.716500447170006, 1.41399407358235, 0.0 ], [ 103.716845011526004, 1.41366834340604, 0.0 ], [ 103.717036898722, 1.4134748575833, 0.0 ], [ 103.717070086221995, 1.41343752990186, 0.0 ], [ 103.717158484552996, 1.41332840769377, 0.0 ], [ 103.717190331458994, 1.41328909215487, 0.0 ], [ 103.717261785941005, 1.41318239458832, 0.0 ], [ 103.717420939589005, 1.41294911876599, 0.0 ], [ 103.717818825359004, 1.41228410698661, 0.0 ], [ 103.717909755167994, 1.41213356870127, 0.0 ], [ 103.717952573106999, 1.41207107127864, 0.0 ], [ 103.717997355438001, 1.41198854233209, 0.0 ], [ 103.718033338593997, 1.41192896927339, 0.0 ], [ 103.718561392631003, 1.41106801748352, 0.0 ], [ 103.722827797392995, 1.41107392735818, 0.0 ], [ 103.724993149181998, 1.41107544698393, 0.0 ], [ 103.727348029905002, 1.41107145305026, 0.0 ], [ 103.727520056041001, 1.41108607633141, 0.0 ], [ 103.727679016194003, 1.41111331485862, 0.0 ], [ 103.727888706201, 1.41117459408281, 0.0 ], [ 103.728091631962002, 1.41124948906161, 0.0 ], [ 103.728264024105997, 1.41131834782525, 0.0 ], [ 103.728341322274005, 1.41135555499975, 0.0 ], [ 103.728477187471, 1.41143331734598, 0.0 ], [ 103.728553912682003, 1.41148314034403, 0.0 ], [ 103.728737961044999, 1.4116381365089, 0.0 ], [ 103.736882547321002, 1.41979693522926, 0.0 ], [ 103.738099206081003, 1.42102142064706, 0.0 ], [ 103.739212044284002, 1.42217341656915, 0.0 ], [ 103.739328563575, 1.42228070317645, 0.0 ], [ 103.739373839221003, 1.4221415489404, 0.0 ], [ 103.739549625034996, 1.42160126274576, 0.0 ], [ 103.739551387386996, 1.42159584387667, 0.0 ], [ 103.739830789587003, 1.4207370869471, 0.0 ], [ 103.740037880415002, 1.42010148756672, 0.0 ], [ 103.740331942637994, 1.41919895726795, 0.0 ], [ 103.741092043568003, 1.41691138969157, 0.0 ], [ 103.741666185696999, 1.41526896051396, 0.0 ], [ 103.741966487013997, 1.41441846626525, 0.0 ], [ 103.742033990474994, 1.41421466174001, 0.0 ], [ 103.742086573028999, 1.41398467079685, 0.0 ], [ 103.742107534072005, 1.41385348747181, 0.0 ], [ 103.742141638530995, 1.41342792462673, 0.0 ], [ 103.742141655661001, 1.41321911177854, 0.0 ], [ 103.742120212901995, 1.41298389521017, 0.0 ], [ 103.742096529883, 1.41282005448283, 0.0 ], [ 103.741930962365004, 1.41204954077506, 0.0 ], [ 103.741920511922004, 1.41200090101681, 0.0 ], [ 103.741692663248998, 1.41094054107253, 0.0 ], [ 103.741631094341997, 1.41065688342805, 0.0 ], [ 103.741578507727993, 1.41039544090661, 0.0 ], [ 103.741555506479997, 1.41019356903206, 0.0 ], [ 103.741548949457993, 1.40998839055482, 0.0 ], [ 103.741548981175995, 1.40961443562844, 0.0 ], [ 103.741569126976003, 1.40935067629894, 0.0 ], [ 103.741650426750994, 1.40897337663873, 0.0 ], [ 103.741792030571006, 1.40850109593793, 0.0 ], [ 103.741883806106998, 1.40825836134431, 0.0 ], [ 103.742179734960004, 1.40772447155131, 0.0 ], [ 103.742563902998, 1.40720767310218, 0.0 ], [ 103.742891449477995, 1.40687400042359, 0.0 ], [ 103.743101722448003, 1.40668682087463, 0.0 ], [ 103.743314521626004, 1.40651460499045, 0.0 ], [ 103.743686598579004, 1.40628566908308, 0.0 ], [ 103.744135736274998, 1.40607677766126, 0.0 ], [ 103.744671518554995, 1.40587573480764, 0.0 ], [ 103.745135346208997, 1.40571256019284, 0.0 ], [ 103.745378749984994, 1.40563651341191, 0.0 ], [ 103.745559174839997, 1.40558275677007, 0.0 ], [ 103.745749849510005, 1.40553737851883, 0.0 ], [ 103.745779555070001, 1.40553174093663, 0.0 ], [ 103.745812258479006, 1.40552132752632, 0.0 ], [ 103.746017612841001, 1.40548795522421, 0.0 ], [ 103.745546386691004, 1.40496817021867, 0.0 ], [ 103.745206588640997, 1.40460722428702, 0.0 ], [ 103.744922389302005, 1.40427743934858, 0.0 ], [ 103.744542387048995, 1.40382217036341, 0.0 ], [ 103.744325124957996, 1.40349517787741, 0.0 ], [ 103.743912314759996, 1.40273390730574, 0.0 ], [ 103.743645590441005, 1.40209971253457, 0.0 ], [ 103.743495541041995, 1.40148096062425, 0.0 ], [ 103.743391430909, 1.40104693293955, 0.0 ], [ 103.743174183739001, 1.39937537244911, 0.0 ], [ 103.743107797788994, 1.39875676302342, 0.0 ], [ 103.742886075968997, 1.39713303498789, 0.0 ], [ 103.742836246229999, 1.39677842420692, 0.0 ], [ 103.742833705424999, 1.39676857016981, 0.0 ], [ 103.742721394257003, 1.3963339389314, 0.0 ], [ 103.742662453505005, 1.39610583189163, 0.0 ], [ 103.742537561218001, 1.39572253360761, 0.0 ], [ 103.742327749338997, 1.3952077096067, 0.0 ], [ 103.742074849031994, 1.39471291464476, 0.0 ], [ 103.741754032719001, 1.3941885470481, 0.0 ], [ 103.741534860067006, 1.39382774829263, 0.0 ], [ 103.741250472464003, 1.39336958505109, 0.0 ], [ 103.741250525479998, 1.39336958505318, 0.0 ], [ 103.741250511103999, 1.39336956063482, 0.0 ], [ 103.740720380970004, 1.39253193415907, 0.0 ], [ 103.740556245025005, 1.39223168550446, 0.0 ], [ 103.740468393979995, 1.39204310788513, 0.0 ], [ 103.740382002928001, 1.39181393980001, 0.0 ], [ 103.740289840021006, 1.39152383460523, 0.0 ], [ 103.740238023900005, 1.39128594259453, 0.0 ], [ 103.740198314905001, 1.39107889074383, 0.0 ], [ 103.7401660333, 1.39076377505303, 0.0 ], [ 103.740162979201003, 1.39034706258236, 0.0 ], [ 103.740173796795006, 1.39019611217794, 0.0 ], [ 103.740189247828994, 1.39003544729049, 0.0 ], [ 103.740224163182006, 1.38979950038676, 0.0 ], [ 103.740292762867, 1.38948703847735, 0.0 ], [ 103.740413593705995, 1.3891152307174, 0.0 ], [ 103.740877874830005, 1.38809328362728, 0.0 ], [ 103.741425401065001, 1.38691643223278, 0.0 ], [ 103.741569578436994, 1.38661265871575, 0.0 ], [ 103.737708462406005, 1.38330077591348, 0.0 ], [ 103.737295518910997, 1.38294696241471, 0.0 ], [ 103.736820852809004, 1.38254103965001, 0.0 ], [ 103.736514190112999, 1.3822776313938, 0.0 ], [ 103.736358138455003, 1.3821435595185, 0.0 ], [ 103.735963587643994, 1.38180504386505, 0.0 ], [ 103.735668852367994, 1.3815522993453, 0.0 ], [ 103.735632420084997, 1.38152105933564, 0.0 ], [ 103.735572370528004, 1.3814695651412, 0.0 ], [ 103.735227994498004, 1.38117432612262, 0.0 ], [ 103.734851904839999, 1.38086626187197, 0.0 ], [ 103.734690289683002, 1.38072544221494, 0.0 ], [ 103.733732416763999, 1.37984718161053, 0.0 ], [ 103.732666672394004, 1.37893425727442, 0.0 ], [ 103.730536046596001, 1.37707468276718, 0.0 ], [ 103.729853581051998, 1.3764381507919, 0.0 ], [ 103.728667832735994, 1.37528046017312, 0.0 ], [ 103.727968243806004, 1.37452856103329, 0.0 ], [ 103.727351656227995, 1.37391987849104, 0.0 ], [ 103.726804893592004, 1.37342523817311, 0.0 ], [ 103.726298970711994, 1.37302209757444, 0.0 ], [ 103.725603326026999, 1.3725128647388, 0.0 ], [ 103.724844440433998, 1.37196119433211, 0.0 ], [ 103.724612745586001, 1.37181282034579, 0.0 ], [ 103.724007819243994, 1.37142543330159, 0.0 ], [ 103.722999919041996, 1.37084060058935, 0.0 ], [ 103.722098732663, 1.37044672320614, 0.0 ], [ 103.721339837368006, 1.3701363926921, 0.0 ], [ 103.715256798078002, 1.36826239562122, 0.0 ], [ 103.714557189421001, 1.36805947622067, 0.0 ], [ 103.714118449558001, 1.36796397898534, 0.0 ], [ 103.713245972959996, 1.36779551672023, 0.0 ], [ 103.713118439745003, 1.36776767402353, 0.0 ], [ 103.711576926171006, 1.36739762936729, 0.0 ], [ 103.710901035863003, 1.3671589064521, 0.0 ], [ 103.710284434355998, 1.36693212037859, 0.0 ], [ 103.709644118927002, 1.36666953103665, 0.0 ], [ 103.709098669287002, 1.36638307673843, 0.0 ], [ 103.708659938641006, 1.36612049673165, 0.0 ], [ 103.708562922195, 1.36605044067577, 0.0 ], [ 103.708114494813998, 1.36572663294641, 0.0 ], [ 103.707189608239005, 1.36510599471711, 0.0 ], [ 103.706245733649993, 1.3643484917159, 0.0 ], [ 103.706204271234, 1.36431197408353, 0.0 ], [ 103.705737039447996, 1.36390046625966, 0.0 ], [ 103.704870533250002, 1.3630741675762, 0.0 ], [ 103.704261732194993, 1.36244054420475, 0.0 ], [ 103.703901920109004, 1.36280296866121, 0.0 ], [ 103.703606569092997, 1.36310046425976, 0.0 ], [ 103.703609241722006, 1.36317890153021, 0.0 ], [ 103.703605648655, 1.36325730228646, 0.0 ], [ 103.703595813280998, 1.36333515918261, 0.0 ], [ 103.703579797627995, 1.36341196939661, 0.0 ], [ 103.703557705955006, 1.36348723824791, 0.0 ], [ 103.703529682058004, 1.363560478293, 0.0 ], [ 103.703495904777, 1.36363121836872, 0.0 ], [ 103.703456593384999, 1.36369899907083, 0.0 ], [ 103.703383251540004, 1.36379970574366, 0.0 ], [ 103.703367950989005, 1.3638457079982, 0.0 ], [ 103.703284980698996, 1.36390184537632, 0.0 ], [ 103.702732454571006, 1.36439812911701, 0.0 ], [ 103.702676746384, 1.3644442232113, 0.0 ], [ 103.702617510677996, 1.36448562528132, 0.0 ], [ 103.702555137445003, 1.36452206132653, 0.0 ], [ 103.702490037344006, 1.36455329261761, 0.0 ], [ 103.702422637205004, 1.36457911388759, 0.0 ], [ 103.702353380030004, 1.3645993560449, 0.0 ], [ 103.702282721401005, 1.36461388526885, 0.0 ], [ 103.702211125881007, 1.36462260572243, 0.0 ], [ 103.702139063423999, 1.36462546045666, 0.0 ], [ 103.701989248006001, 1.36461248910568, 0.0 ], [ 103.701915692257003, 1.36459649775276, 0.0 ], [ 103.701843743482996, 1.36457430708503, 0.0 ], [ 103.701706707463003, 1.36451200528528, 0.0 ], [ 103.701642601429, 1.3644723400582, 0.0 ], [ 103.701582054905003, 1.36442736370819, 0.0 ], [ 103.701525502782005, 1.36437739821232, 0.0 ], [ 103.701455252732998, 1.36444640077033, 0.0 ], [ 103.701362260555001, 1.36453773980983, 0.0 ], [ 103.700398106904004, 1.36353057000541, 0.0 ], [ 103.700369997788997, 1.36350121376085, 0.0 ], [ 103.699795814366993, 1.36262081082389, 0.0 ], [ 103.699728552557005, 1.36251767726086, 0.0 ], [ 103.699516707708, 1.36219230587504, 0.0 ], [ 103.699487250749002, 1.36214706443094, 0.0 ], [ 103.699457822542001, 1.36210186549318, 0.0 ], [ 103.699403823986003, 1.36202392456879, 0.0 ], [ 103.699345452835999, 1.36194924452774, 0.0 ], [ 103.699282904965003, 1.36187807227149, 0.0 ], [ 103.699216386133003, 1.36181064565842, 0.0 ], [ 103.699146119171004, 1.36174718717368, 0.0 ], [ 103.699072335897, 1.36168790845064, 0.0 ], [ 103.699049793677005, 1.36167028207903, 0.0 ], [ 103.699007718402001, 1.36163738265356, 0.0 ], [ 103.698637683897999, 1.3613480465776, 0.0 ], [ 103.698357212711997, 1.3611287411391, 0.0 ], [ 103.698220210433007, 1.36103058122165, 0.0 ], [ 103.698017243582001, 1.3608851583388, 0.0 ], [ 103.697958018864995, 1.36084272414702, 0.0 ], [ 103.697954502016003, 1.36084034728554, 0.0 ], [ 103.697842275542001, 1.36076451291989, 0.0 ], [ 103.697550209387998, 1.3606101543919, 0.0 ], [ 103.697364043134996, 1.36051176465179, 0.0 ], [ 103.697270619232995, 1.36046661542, 0.0 ], [ 103.696582770025998, 1.3601795508549, 0.0 ], [ 103.696170045841001, 1.36000749416636, 0.0 ], [ 103.695794519597001, 1.35985094482765, 0.0 ], [ 103.69545975218, 1.35971179227111, 0.0 ], [ 103.695312739659002, 1.35965314590799, 0.0 ], [ 103.694788305632002, 1.35944394043582, 0.0 ], [ 103.694653721799, 1.35939025246393, 0.0 ], [ 103.694426777602999, 1.35929971996707, 0.0 ], [ 103.694098444861993, 1.35913110260029, 0.0 ], [ 103.693858023030003, 1.35869816075911, 0.0 ], [ 103.693442561710995, 1.35841138792236, 0.0 ], [ 103.693373623067998, 1.35836380272535, 0.0 ], [ 103.693256728880002, 1.35828705630147, 0.0 ], [ 103.693136432420999, 1.35821583441933, 0.0 ], [ 103.693012990669999, 1.35815028812183, 0.0 ], [ 103.692886669594003, 1.35809055940872, 0.0 ], [ 103.692663827432, 1.35801740702545, 0.0 ], [ 103.692304776444004, 1.35790007579984, 0.0 ], [ 103.692246362451002, 1.3578879765332, 0.0 ], [ 103.692134109698998, 1.35786809478276, 0.0 ], [ 103.692043424754999, 1.3578552212896, 0.0 ], [ 103.691931583092, 1.35784321111762, 0.0 ], [ 103.691805975235994, 1.35783475607945, 0.0 ], [ 103.691680126259996, 1.35783158339668, 0.0 ], [ 103.691200595569001, 1.35722957944835, 0.0 ], [ 103.690945948057006, 1.35690989426374, 0.0 ], [ 103.690858688180995, 1.35668711228124, 0.0 ], [ 103.690835777893994, 1.35669620156612, 0.0 ], [ 103.690692450065001, 1.35674037474754, 0.0 ], [ 103.690532985781999, 1.35677023453542, 0.0 ], [ 103.690384462371995, 1.35678518746697, 0.0 ], [ 103.690339858661005, 1.35678444685555, 0.0 ], [ 103.690309927886005, 1.35677850884599, 0.0 ], [ 103.690260251257001, 1.35677151698428, 0.0 ], [ 103.690110233981002, 1.356733090774, 0.0 ], [ 103.690056232138005, 1.35635157359568, 0.0 ], [ 103.690033557299998, 1.35562681961392, 0.0 ], [ 103.690021697128998, 1.35524550299895, 0.0 ], [ 103.690013809182005, 1.35499187704486, 0.0 ], [ 103.690008907801996, 1.35483429808277, 0.0 ], [ 103.690009146820003, 1.3548342908621, 0.0 ], [ 103.690008952735994, 1.35483418684897, 0.0 ], [ 103.689979703990005, 1.35389547589856, 0.0 ], [ 103.689975041156998, 1.35374583543542, 0.0 ], [ 103.689970118231997, 1.35358784046455, 0.0 ], [ 103.689964598885993, 1.35341071459355, 0.0 ], [ 103.689960349510002, 1.3532743348082, 0.0 ], [ 103.689956484891994, 1.35315030952897, 0.0 ], [ 103.689948704532995, 1.35290059403754, 0.0 ], [ 103.689942617466002, 1.35270524795954, 0.0 ], [ 103.689940895473001, 1.35264997870426, 0.0 ], [ 103.689937684672003, 1.35254693284313, 0.0 ], [ 103.689936825469005, 1.35251935880779, 0.0 ], [ 103.689931297152995, 1.35234191279114, 0.0 ], [ 103.689926080945995, 1.35217452781534, 0.0 ], [ 103.689921333803994, 1.35202215798243, 0.0 ], [ 103.689915971405995, 1.35185006579563, 0.0 ], [ 103.689910304383005, 1.35167819696786, 0.0 ], [ 103.689905336508005, 1.35152046697032, 0.0 ], [ 103.689903056055996, 1.35147289922465, 0.0 ], [ 103.689888470726004, 1.35101151478603, 0.0 ], [ 103.689864777034003, 1.3502683271187, 0.0 ], [ 103.689857601745004, 1.35004327179063, 0.0 ], [ 103.689855963124998, 1.35000659169181, 0.0 ], [ 103.689854176433002, 1.34995131248385, 0.0 ], [ 103.689814212496003, 1.34868681726802, 0.0 ], [ 103.689813915862999, 1.34867333593215, 0.0 ], [ 103.689813914967004, 1.34867329614018, 0.0 ], [ 103.689810398393007, 1.34851324472977, 0.0 ], [ 103.689779057140996, 1.3474919129531, 0.0 ], [ 103.689935413396995, 1.34714266500181, 0.0 ], [ 103.689951372992994, 1.34710701782095, 0.0 ], [ 103.690030813291003, 1.34692957320934, 0.0 ], [ 103.690066765300998, 1.3468567027817, 0.0 ], [ 103.690088070759003, 1.34681525534022, 0.0 ], [ 103.690129826000998, 1.34670573780848, 0.0 ], [ 103.690180301235003, 1.34658971662204, 0.0 ], [ 103.690295200829993, 1.34638995082987, 0.0 ], [ 103.690369618039995, 1.34618323171833, 0.0 ], [ 103.690493987066006, 1.34606829830585, 0.0 ], [ 103.690463029661998, 1.34604183666815, 0.0 ], [ 103.690311134067002, 1.34591203644009, 0.0 ], [ 103.688338520211005, 1.34437291652016, 0.0 ], [ 103.687878827245996, 1.34403283459486, 0.0 ], [ 103.686838804428007, 1.34321061608861, 0.0 ], [ 103.686039354257005, 1.34257857279649, 0.0 ], [ 103.685953503863999, 1.34251070611349, 0.0 ], [ 103.684995338975995, 1.34176529299829, 0.0 ], [ 103.684280058202006, 1.34121210924687, 0.0 ], [ 103.684265082657006, 1.34120052707665, 0.0 ], [ 103.682721018251996, 1.34000638103236, 0.0 ], [ 103.682135631723995, 1.33970677504852, 0.0 ], [ 103.681877271266004, 1.33959647031787, 0.0 ], [ 103.681604830015999, 1.33952262853374, 0.0 ], [ 103.681359745641004, 1.33948737481252, 0.0 ], [ 103.681336496609006, 1.33948403084213, 0.0 ], [ 103.681311429814002, 1.33948042449327, 0.0 ], [ 103.681231830333004, 1.33948041952301, 0.0 ], [ 103.680923719079004, 1.33948040025973, 0.0 ], [ 103.680494093410005, 1.33948037333424, 0.0 ], [ 103.680295468717006, 1.33944811766805, 0.0 ], [ 103.680169257024005, 1.33942762142914, 0.0 ], [ 103.679812984921995, 1.33938541325748, 0.0 ], [ 103.679467193110995, 1.3393221132801, 0.0 ], [ 103.679034082708, 1.33918146765862, 0.0 ], [ 103.678600976788005, 1.3389845743167, 0.0 ], [ 103.678251703426994, 1.33873143949866, 0.0 ], [ 103.677916406207004, 1.33840799597006, 0.0 ], [ 103.677650967258003, 1.33808455686705, 0.0 ], [ 103.677455387429006, 1.33773299838586, 0.0 ], [ 103.677217903425003, 1.33722675708965, 0.0 ], [ 103.677050276754002, 1.33672052025454, 0.0 ], [ 103.675872540232007, 1.33294660078068, 0.0 ], [ 103.675660388489007, 1.3323058951976, 0.0 ], [ 103.675513712438004, 1.33190775975645, 0.0 ], [ 103.675431612636999, 1.33173696044143, 0.0 ], [ 103.675409636942007, 1.3316912435702, 0.0 ], [ 103.675356553872007, 1.33158081222893, 0.0 ], [ 103.675188911716006, 1.33132768792067, 0.0 ], [ 103.675121481774994, 1.33125477397505, 0.0 ], [ 103.674931902923007, 1.33104977652694, 0.0 ], [ 103.674862648933996, 1.33099095602131, 0.0 ], [ 103.674803353965004, 1.330940595552, 0.0 ], [ 103.674603979636004, 1.33081222306123, 0.0 ], [ 103.674573937263006, 1.33080076557368, 0.0 ], [ 103.674390837676, 1.33069837098983, 0.0 ], [ 103.674128717561004, 1.3305686052977, 0.0 ], [ 103.673982618270998, 1.33049939590591, 0.0 ], [ 103.673858003166004, 1.3304474883309, 0.0 ], [ 103.673729089733996, 1.33040423068386, 0.0 ], [ 103.673578690187995, 1.33037394559432, 0.0 ], [ 103.673385457308001, 1.33034748676693, 0.0 ], [ 103.673384738473004, 1.33034739085778, 0.0 ], [ 103.672851318720006, 1.33027090584532, 0.0 ], [ 103.672331453550001, 1.33019633162116, 0.0 ], [ 103.672331148943996, 1.33019628095695, 0.0 ], [ 103.672186322410994, 1.33016364390854, 0.0 ], [ 103.671832590025005, 1.33007047055432, 0.0 ], [ 103.671486861711998, 1.32995372551213, 0.0 ], [ 103.671206830144001, 1.3298374224789, 0.0 ], [ 103.667721468381998, 1.32798785772999, 0.0 ], [ 103.667184063424003, 1.32832929721429, 0.0 ], [ 103.666877529404999, 1.3286309712044, 0.0 ], [ 103.666709273541002, 1.3287965563834, 0.0 ], [ 103.665774044963996, 1.32971695014332, 0.0 ], [ 103.665445731538, 1.33013778098276, 0.0 ], [ 103.664753886843997, 1.33032564338596, 0.0 ], [ 103.663761712709999, 1.33075094911871, 0.0 ], [ 103.663394346000999, 1.3309084090287, 0.0 ], [ 103.662399898944997, 1.3313348272582, 0.0 ], [ 103.661824609926995, 1.33158134376364, 0.0 ], [ 103.660139945747005, 1.33230301246883, 0.0 ], [ 103.658958808540007, 1.33280044439478, 0.0 ], [ 103.658773000322, 1.33287882200842, 0.0 ], [ 103.657137558683004, 1.33356865843714, 0.0 ], [ 103.656797642653999, 1.33437292761104, 0.0 ], [ 103.656725736387003, 1.33454314923927, 0.0 ], [ 103.656703081627995, 1.33456188594625, 0.0 ], [ 103.656577286643, 1.33466604196747, 0.0 ], [ 103.656506108947994, 1.33472483651152, 0.0 ], [ 103.656363893720993, 1.33484247534194, 0.0 ], [ 103.655562490335001, 1.335505331266, 0.0 ], [ 103.655562112021002, 1.33550564866888, 0.0 ], [ 103.654844224770997, 1.33609946067146, 0.0 ], [ 103.654809519661001, 1.33612818242028, 0.0 ], [ 103.654787103003997, 1.33614673282456, 0.0 ], [ 103.654433966747007, 1.33641045545813, 0.0 ], [ 103.654095641794996, 1.33672901589585, 0.0 ], [ 103.653557990172004, 1.3372134248459, 0.0 ], [ 103.652681895485998, 1.3380018933193, 0.0 ], [ 103.652417360859999, 1.33825107914227, 0.0 ], [ 103.652263057064999, 1.33842901317215, 0.0 ], [ 103.652048728349001, 1.33865139201679, 0.0 ], [ 103.651959310314993, 1.33876410117134, 0.0 ], [ 103.651651112796998, 1.33935739892664, 0.0 ], [ 103.651421837840005, 1.33979288899794, 0.0 ], [ 103.651410988045001, 1.34002087913359, 0.0 ], [ 103.651399850862006, 1.34041724207318, 0.0 ], [ 103.651390875638, 1.34066689448028, 0.0 ], [ 103.651479143808004, 1.34085617366327, 0.0 ], [ 103.651694888652003, 1.34127115714478, 0.0 ], [ 103.651806638948997, 1.34149511304369, 0.0 ], [ 103.651916067247001, 1.34181869667485, 0.0 ], [ 103.652008449841006, 1.34210738973038, 0.0 ], [ 103.652082310973995, 1.34235336215263, 0.0 ], [ 103.652024403596997, 1.34254791821267, 0.0 ], [ 103.651854896605997, 1.3430452393088, 0.0 ], [ 103.651710810793006, 1.34346673893944, 0.0 ], [ 103.650979032744999, 1.34402773901082, 0.0 ], [ 103.650319457001999, 1.34455222349761, 0.0 ], [ 103.649876400826003, 1.34488351310519, 0.0 ], [ 103.649152953374994, 1.34494132464292, 0.0 ], [ 103.648045123407996, 1.34502054899342, 0.0 ], [ 103.647779121080006, 1.34504380506652, 0.0 ], [ 103.647230373197004, 1.34530935898636, 0.0 ], [ 103.646957864711993, 1.34544684594177, 0.0 ], [ 103.646620723393994, 1.34575669973673, 0.0 ], [ 103.646546183563999, 1.3458637954967, 0.0 ], [ 103.646146847151002, 1.34639199752052, 0.0 ], [ 103.645779495143998, 1.34689086269548, 0.0 ], [ 103.645521543683003, 1.34726633551321, 0.0 ], [ 103.645474272412997, 1.34731293439888, 0.0 ], [ 103.644904728678, 1.34786847528217, 0.0 ], [ 103.644577283770005, 1.34804126834745, 0.0 ], [ 103.644103351544004, 1.34829484448175, 0.0 ], [ 103.644007613081001, 1.34838607329825, 0.0 ], [ 103.643532199633995, 1.34884047305564, 0.0 ], [ 103.643288205979999, 1.34907483763494, 0.0 ], [ 103.639198723096996, 1.35274080759985, 0.0 ], [ 103.639130451121005, 1.35280200913266, 0.0 ], [ 103.639117971944998, 1.35281319595514, 0.0 ], [ 103.638793474676007, 1.3531040867686, 0.0 ], [ 103.638794152055993, 1.35310575355721, 0.0 ], [ 103.638820518692995, 1.35317066154253, 0.0 ], [ 103.638839844802007, 1.35323958250567, 0.0 ], [ 103.638859495041004, 1.35328907152937, 0.0 ], [ 103.638892240209003, 1.3533470038023, 0.0 ], [ 103.638893746049007, 1.35337138635148, 0.0 ], [ 103.638924945724995, 1.35342895856457, 0.0 ], [ 103.638942430913005, 1.35346122570157, 0.0 ], [ 103.638986171005001, 1.35355111891393, 0.0 ], [ 103.639034379962993, 1.35363689674756, 0.0 ], [ 103.639086577452005, 1.35371359423167, 0.0 ], [ 103.639132831292997, 1.35377499400043, 0.0 ], [ 103.639155033487995, 1.35380141121715, 0.0 ], [ 103.639184551113004, 1.35384717778799, 0.0 ], [ 103.639239455864001, 1.3539252012787, 0.0 ], [ 103.639301715117995, 1.3540284479388, 0.0 ], [ 103.639358170074004, 1.35413808433266, 0.0 ], [ 103.639381047886999, 1.35419973814975, 0.0 ], [ 103.639418118856995, 1.35430145079564, 0.0 ], [ 103.639470740639993, 1.3544441131732, 0.0 ], [ 103.639498267502006, 1.35452966415154, 0.0 ], [ 103.639531206179001, 1.35461786714649, 0.0 ], [ 103.639570409081998, 1.3547014837355, 0.0 ], [ 103.639594638302, 1.35476357446607, 0.0 ], [ 103.639633272992995, 1.35482867154112, 0.0 ], [ 103.639669311386996, 1.35490961187588, 0.0 ], [ 103.639720791440993, 1.35501433086456, 0.0 ], [ 103.639742747596003, 1.35507283200996, 0.0 ], [ 103.639784730551995, 1.35516906915361, 0.0 ], [ 103.639809092017003, 1.35525194387722, 0.0 ], [ 103.639829767801004, 1.35532085047645, 0.0 ], [ 103.639857024687004, 1.35543441938433, 0.0 ], [ 103.639880904921995, 1.355512329137, 0.0 ], [ 103.639917924453997, 1.35560590977783, 0.0 ], [ 103.639949508198995, 1.35569322367656, 0.0 ], [ 103.640011800208001, 1.35587147607494, 0.0 ], [ 103.640056022343003, 1.35603636963538, 0.0 ], [ 103.640083408983998, 1.35610023406615, 0.0 ], [ 103.640102294738995, 1.35617051605127, 0.0 ], [ 103.640122972295998, 1.35623987482954, 0.0 ], [ 103.640148109878993, 1.35630331222183, 0.0 ], [ 103.640153518874001, 1.3563755474446, 0.0 ], [ 103.640144919300994, 1.35643664074084, 0.0 ], [ 103.640147707161006, 1.35652065322311, 0.0 ], [ 103.640138193927996, 1.35657949640004, 0.0 ], [ 103.640134583524997, 1.35664731310327, 0.0 ], [ 103.640139595609, 1.35672768571826, 0.0 ], [ 103.640133700465995, 1.35685968913306, 0.0 ], [ 103.640122731090997, 1.35690182958216, 0.0 ], [ 103.640121042052002, 1.35707981367008, 0.0 ], [ 103.640121344614997, 1.35710562681939, 0.0 ], [ 103.640130298179997, 1.35716969144134, 0.0 ], [ 103.640148927243999, 1.35727024954394, 0.0 ], [ 103.640172497571001, 1.35736985123167, 0.0 ], [ 103.640184547326001, 1.35742574793005, 0.0 ], [ 103.640206533699001, 1.35748876725585, 0.0 ], [ 103.640228035280003, 1.35754637123965, 0.0 ], [ 103.640249020114993, 1.35759358590318, 0.0 ], [ 103.640288558692006, 1.35768283938687, 0.0 ], [ 103.640295704283005, 1.35778180760752, 0.0 ], [ 103.640304614639007, 1.35786956734183, 0.0 ], [ 103.640318732929003, 1.35791359358725, 0.0 ], [ 103.640331642437999, 1.35794901927936, 0.0 ], [ 103.640352857086995, 1.35799902571799, 0.0 ], [ 103.640393937650003, 1.3580990131646, 0.0 ], [ 103.640432416329006, 1.35813798690273, 0.0 ], [ 103.640470887272997, 1.35814985970696, 0.0 ], [ 103.640514095707999, 1.35814689778222, 0.0 ], [ 103.640537055375006, 1.35811743288861, 0.0 ], [ 103.640559507069995, 1.35809157544291, 0.0 ], [ 103.640593607000994, 1.3580405976409, 0.0 ], [ 103.640607723757, 1.35800196635596, 0.0 ], [ 103.640611176145995, 1.35797777954528, 0.0 ], [ 103.640610503184007, 1.35794299421781, 0.0 ], [ 103.640601189970994, 1.35789294080456, 0.0 ], [ 103.640591939768996, 1.35785282720869, 0.0 ], [ 103.640584917351006, 1.35780952592526, 0.0 ], [ 103.640578867182001, 1.35777751112305, 0.0 ], [ 103.640569147283003, 1.3577342403714, 0.0 ], [ 103.640568319712997, 1.35768880891465, 0.0 ], [ 103.640579688420004, 1.35765329654402, 0.0 ], [ 103.640614038590002, 1.35764207167957, 0.0 ], [ 103.640671751593999, 1.35767302167234, 0.0 ], [ 103.640701258180997, 1.35772286327583, 0.0 ], [ 103.640725340976999, 1.35776236219203, 0.0 ], [ 103.640728259482003, 1.35779667110248, 0.0 ], [ 103.640752984187003, 1.35786598498544, 0.0 ], [ 103.640784798897002, 1.3579194089404, 0.0 ], [ 103.640818431184002, 1.35797552350951, 0.0 ], [ 103.640855968539995, 1.35800990754299, 0.0 ], [ 103.640912109442993, 1.35807029429912, 0.0 ], [ 103.640955947444994, 1.35810551355973, 0.0 ], [ 103.641019861927006, 1.35815295865132, 0.0 ], [ 103.641050212007997, 1.35817207109664, 0.0 ], [ 103.641112606709996, 1.35820078407129, 0.0 ], [ 103.641182633005997, 1.35822805791516, 0.0 ], [ 103.641275445586999, 1.35828221294561, 0.0 ], [ 103.641365530353994, 1.35833368361665, 0.0 ], [ 103.641441636446999, 1.3583821398428, 0.0 ], [ 103.641494654168994, 1.35841728386275, 0.0 ], [ 103.641575851384999, 1.358478796727, 0.0 ], [ 103.641623910917005, 1.3585130893466, 0.0 ], [ 103.641705528879996, 1.35857188554562, 0.0 ], [ 103.641789790808005, 1.35862567903774, 0.0 ], [ 103.641835117170999, 1.35865683692656, 0.0 ], [ 103.641903517645005, 1.35869995138008, 0.0 ], [ 103.641992440148002, 1.35876861561788, 0.0 ], [ 103.642119374686999, 1.3588576635224, 0.0 ], [ 103.642267607614002, 1.3589609504455, 0.0 ], [ 103.642325137834007, 1.35899740070448, 0.0 ], [ 103.642373266980002, 1.35903802292829, 0.0 ], [ 103.642414288753997, 1.35906404551354, 0.0 ], [ 103.642479783702001, 1.3591135354557, 0.0 ], [ 103.642550944598995, 1.35916788406512, 0.0 ], [ 103.642576655431, 1.35919848962841, 0.0 ], [ 103.642621714249003, 1.35923849663995, 0.0 ], [ 103.642680803532997, 1.35930870765412, 0.0 ], [ 103.642727735953002, 1.35937038868882, 0.0 ], [ 103.642777438809006, 1.35945283674635, 0.0 ], [ 103.642819874935995, 1.35951318168408, 0.0 ], [ 103.642888430772999, 1.35959238639569, 0.0 ], [ 103.642943474817997, 1.3596617117166, 0.0 ], [ 103.643002598422001, 1.35974140855328, 0.0 ], [ 103.643071682653996, 1.35984319515611, 0.0 ], [ 103.643175451025002, 1.35997238750034, 0.0 ], [ 103.643216116437998, 1.36003996716794, 0.0 ], [ 103.643241853678006, 1.36007779946408, 0.0 ], [ 103.643292816458995, 1.36013584980806, 0.0 ], [ 103.643350048863994, 1.36018935533783, 0.0 ], [ 103.643423984639, 1.36026582658668, 0.0 ], [ 103.643484422677005, 1.3603364826389, 0.0 ], [ 103.643550743586005, 1.36041885874875, 0.0 ], [ 103.643610765789006, 1.36049855112469, 0.0 ], [ 103.643656844565996, 1.36057243188759, 0.0 ], [ 103.643721420247999, 1.36066927037138, 0.0 ], [ 103.643763878423997, 1.36073548820966, 0.0 ], [ 103.643800933793997, 1.36079856749327, 0.0 ], [ 103.643847516373995, 1.36088780522045, 0.0 ], [ 103.643890015010001, 1.36096531489186, 0.0 ], [ 103.643927115259999, 1.36104059036857, 0.0 ], [ 103.643965501796004, 1.36109869487494, 0.0 ], [ 103.644001233962996, 1.36116855584328, 0.0 ], [ 103.644039653044999, 1.36123569399745, 0.0 ], [ 103.644091695590006, 1.36134433066221, 0.0 ], [ 103.644138349423997, 1.36145344168958, 0.0 ], [ 103.644202201596002, 1.36159906848918, 0.0 ], [ 103.644212629101006, 1.3616261268411, 0.0 ], [ 103.644247002072007, 1.36169192803092, 0.0 ], [ 103.644269634828007, 1.36174106637637, 0.0 ], [ 103.644282779994001, 1.3617744355625, 0.0 ], [ 103.644290118841994, 1.36181686506719, 0.0 ], [ 103.644304151135998, 1.3618470690654, 0.0 ], [ 103.644317288390994, 1.36187818006542, 0.0 ], [ 103.644338932904006, 1.36190202701764, 0.0 ], [ 103.644382882293996, 1.36200844102966, 0.0 ], [ 103.644432989657005, 1.36207869019454, 0.0 ], [ 103.644447057986994, 1.36211928438033, 0.0 ], [ 103.644474604725005, 1.36216027031235, 0.0 ], [ 103.644504502478995, 1.36223105959379, 0.0 ], [ 103.644523602589999, 1.36229692740413, 0.0 ], [ 103.644545972562, 1.36239756176092, 0.0 ], [ 103.644557510618995, 1.36248333663859, 0.0 ], [ 103.644567100231995, 1.36252756328276, 0.0 ], [ 103.644585464537002, 1.36263815341639, 0.0 ], [ 103.644605083409004, 1.36272344238581, 0.0 ], [ 103.644622387297005, 1.36278931819364, 0.0 ], [ 103.644645937115001, 1.36284341973433, 0.0 ], [ 103.644683543868993, 1.36293450254353, 0.0 ], [ 103.644723306415003, 1.36300073282138, 0.0 ], [ 103.644754493953997, 1.36305570676589, 0.0 ], [ 103.644776571075994, 1.36307458429511, 0.0 ], [ 103.644834681068005, 1.36312176026004, 0.0 ], [ 103.644886070322002, 1.36317393589783, 0.0 ], [ 103.644922616700995, 1.36321985219898, 0.0 ], [ 103.644949264858994, 1.36326129475879, 0.0 ], [ 103.645013714862998, 1.36332335154951, 0.0 ], [ 103.645048886143002, 1.36336159425137, 0.0 ], [ 103.645098455443005, 1.36340700151668, 0.0 ], [ 103.645159369278005, 1.36348488431627, 0.0 ], [ 103.645189117570993, 1.36351366518173, 0.0 ], [ 103.645237444580005, 1.36358844051547, 0.0 ], [ 103.645293863879004, 1.36366543759149, 0.0 ], [ 103.645330047192999, 1.36373529677592, 0.0 ], [ 103.645340048308, 1.36376868018187, 0.0 ], [ 103.645361897795993, 1.36384944119688, 0.0 ], [ 103.645386936169004, 1.36394328944788, 0.0 ], [ 103.645409322041999, 1.36404798980366, 0.0 ], [ 103.645433043392003, 1.36414997356858, 0.0 ], [ 103.645435426999001, 1.3641883592923, 0.0 ], [ 103.645449628197994, 1.36426553934713, 0.0 ], [ 103.645461584749995, 1.36434318316198, 0.0 ], [ 103.645487107654006, 1.36444606328861, 0.0 ], [ 103.645505769956998, 1.36451509360663, 0.0 ], [ 103.645545646908005, 1.36461294300487, 0.0 ], [ 103.645552981357994, 1.36465446814919, 0.0 ], [ 103.645588761154002, 1.36473697657605, 0.0 ], [ 103.645616347461001, 1.3647897074201, 0.0 ], [ 103.645669312435999, 1.36490511598389, 0.0 ], [ 103.645724009450007, 1.36500244925078, 0.0 ], [ 103.645756545777004, 1.3650574160591, 0.0 ], [ 103.645782308600999, 1.36510247688647, 0.0 ], [ 103.645813105848006, 1.36517371298439, 0.0 ], [ 103.645855631868002, 1.36525890246007, 0.0 ], [ 103.645913478259004, 1.36535757804105, 0.0 ], [ 103.645991616942993, 1.36547920062077, 0.0 ], [ 103.646068425408998, 1.36560534760502, 0.0 ], [ 103.646126664777995, 1.36568866085949, 0.0 ], [ 103.646169997887, 1.36574855184358, 0.0 ], [ 103.646189891931996, 1.36578550553022, 0.0 ], [ 103.646252705915003, 1.36589183689834, 0.0 ], [ 103.646292051811002, 1.36596710258405, 0.0 ], [ 103.646355856726004, 1.36609917842933, 0.0 ], [ 103.646384434021996, 1.36617720066304, 0.0 ], [ 103.646410679561995, 1.36623174463774, 0.0 ], [ 103.646446416282998, 1.36630250723373, 0.0 ], [ 103.646489419784004, 1.36639537384816, 0.0 ], [ 103.646513444451998, 1.36645670305762, 0.0 ], [ 103.646529448071007, 1.36653568292763, 0.0 ], [ 103.646580732122999, 1.36668317078881, 0.0 ], [ 103.646595407247005, 1.36676757671167, 0.0 ], [ 103.646608788219993, 1.36686644414571, 0.0 ], [ 103.646619555322005, 1.36698790860557, 0.0 ], [ 103.646626172458994, 1.3670795768089, 0.0 ], [ 103.646641802472004, 1.36717933792607, 0.0 ], [ 103.646650467201994, 1.36721588919676, 0.0 ], [ 103.646682329330005, 1.36733319615784, 0.0 ], [ 103.646705084459001, 1.36741621271225, 0.0 ], [ 103.646743115988997, 1.3675005182695, 0.0 ], [ 103.646799213704, 1.36761275095585, 0.0 ], [ 103.646831750949005, 1.36766817084075, 0.0 ], [ 103.646871503943004, 1.36773168982872, 0.0 ], [ 103.646932432894005, 1.36781363770044, 0.0 ], [ 103.647019458798994, 1.367908120224, 0.0 ], [ 103.647050175182997, 1.3679567717383, 0.0 ], [ 103.647121456925007, 1.36804499757469, 0.0 ], [ 103.647184557528007, 1.36810615619541, 0.0 ], [ 103.647221501399002, 1.36813761632027, 0.0 ], [ 103.647285128692999, 1.36822045519048, 0.0 ], [ 103.647325764410994, 1.36827990552896, 0.0 ], [ 103.647375467578001, 1.36836235262788, 0.0 ], [ 103.647396303348998, 1.36841104858652, 0.0 ], [ 103.647422110223005, 1.36846830379117, 0.0 ], [ 103.647435732904, 1.36850935011433, 0.0 ], [ 103.647469261970002, 1.3685909648444, 0.0 ], [ 103.647495567405997, 1.36866176920177, 0.0 ], [ 103.647513612490997, 1.36868382522415, 0.0 ], [ 103.647533548837998, 1.3687320716454, 0.0 ], [ 103.647553889579996, 1.36876812100135, 0.0 ], [ 103.647582845827998, 1.36882671852016, 0.0 ], [ 103.647617690198999, 1.36889929246964, 0.0 ], [ 103.647680068026006, 1.36897684796772, 0.0 ], [ 103.647738097822995, 1.36904111265845, 0.0 ], [ 103.647814828955006, 1.3691119941943, 0.0 ], [ 103.647832771536002, 1.36913502239358, 0.0 ], [ 103.647897834700998, 1.36919552006722, 0.0 ], [ 103.647940457481994, 1.36923931609024, 0.0 ], [ 103.648008647137004, 1.36931833438377, 0.0 ], [ 103.648092539882001, 1.36941224869866, 0.0 ], [ 103.648169251504996, 1.36950345751381, 0.0 ], [ 103.648237879811006, 1.36959241293942, 0.0 ], [ 103.648315932726007, 1.36968723567623, 0.0 ], [ 103.648426276392996, 1.36983037632771, 0.0 ], [ 103.648537495376004, 1.36999565124375, 0.0 ], [ 103.648635250956005, 1.37015189869926, 0.0 ], [ 103.648700721631002, 1.37025395623227, 0.0 ], [ 103.648871551030993, 1.37054297385403, 0.0 ], [ 103.648965695971, 1.37071413029329, 0.0 ], [ 103.649045022636002, 1.37088574680618, 0.0 ], [ 103.649082671177993, 1.37096252261484, 0.0 ], [ 103.649136445465004, 1.37108536413112, 0.0 ], [ 103.649198718674995, 1.37123982271558, 0.0 ], [ 103.649262347447007, 1.3713875059422, 0.0 ], [ 103.649340290362005, 1.37159435800122, 0.0 ], [ 103.649370727654002, 1.37169824052394, 0.0 ], [ 103.649383239854998, 1.37176147612277, 0.0 ], [ 103.649374675035006, 1.37179264963948, 0.0 ], [ 103.649339193518003, 1.37182563793197, 0.0 ], [ 103.649291058387007, 1.37187039186695, 0.0 ], [ 103.649237551452003, 1.37192914487104, 0.0 ], [ 103.649207419373994, 1.37197027100264, 0.0 ], [ 103.649164667205994, 1.37205476562384, 0.0 ], [ 103.649143516297997, 1.37209588340632, 0.0 ], [ 103.649137615135999, 1.37215822588047, 0.0 ], [ 103.649139368584997, 1.37220068750686, 0.0 ], [ 103.64914381186, 1.37224947262377, 0.0 ], [ 103.649168459923999, 1.37230321519657, 0.0 ], [ 103.649196708164993, 1.37235018077751, 0.0 ], [ 103.649234818489006, 1.37241656372214, 0.0 ], [ 103.649287744003004, 1.37248791093903, 0.0 ], [ 103.649306580382003, 1.37251500520173, 0.0 ], [ 103.649327199278005, 1.37255700525689, 0.0 ], [ 103.649326717820998, 1.37258998178723, 0.0 ], [ 103.649345983130999, 1.37263650082234, 0.0 ], [ 103.649384586563997, 1.37265861449801, 0.0 ], [ 103.649417793622007, 1.37268705555952, 0.0 ], [ 103.649445606203997, 1.37272046927658, 0.0 ], [ 103.649482837324001, 1.37276878485496, 0.0 ], [ 103.649499437070006, 1.37278548966072, 0.0 ], [ 103.649521873629993, 1.3728058069301, 0.0 ], [ 103.649548354813007, 1.37282386090009, 0.0 ], [ 103.649611220281002, 1.37283647705604, 0.0 ], [ 103.649677683888001, 1.37284547605015, 0.0 ], [ 103.649744142795996, 1.3728571881209, 0.0 ], [ 103.649809705902996, 1.372867993048, 0.0 ], [ 103.649909840511, 1.37289007529357, 0.0 ], [ 103.649958335272004, 1.37290179411102, 0.0 ], [ 103.650009080423999, 1.37290854454951, 0.0 ], [ 103.650063426719001, 1.37290761182544, 0.0 ], [ 103.650123604129007, 1.37291435575417, 0.0 ], [ 103.650165371179, 1.37291614056281, 0.0 ], [ 103.650227779529999, 1.3729373399451, 0.0 ], [ 103.650272689597003, 1.37294138137139, 0.0 ], [ 103.650316260587999, 1.37293638994977, 0.0 ], [ 103.650348144993998, 1.37294089069032, 0.0 ], [ 103.650393946026995, 1.37295035201022, 0.0 ], [ 103.650456806533001, 1.37296929142698, 0.0 ], [ 103.650518763704994, 1.37299184459381, 0.0 ], [ 103.650549745608998, 1.37300086344309, 0.0 ], [ 103.650599145783005, 1.37300535467562, 0.0 ], [ 103.650715930592995, 1.3729953551068, 0.0 ], [ 103.650761294918993, 1.372993072372, 0.0 ], [ 103.650799905211997, 1.37300795928973, 0.0 ], [ 103.650844355326001, 1.3730223908582, 0.0 ], [ 103.650873981575998, 1.37303954160133, 0.0 ], [ 103.650907656385002, 1.37304991357507, 0.0 ], [ 103.650961062261999, 1.37309144406193, 0.0 ], [ 103.651007287306001, 1.37312620305596, 0.0 ], [ 103.651044087727001, 1.37315509384062, 0.0 ], [ 103.651064728172003, 1.37317405622898, 0.0 ], [ 103.651091634310006, 1.37321695659377, 0.0 ], [ 103.651156182321003, 1.37334295512451, 0.0 ], [ 103.651165112805998, 1.37339535169528, 0.0 ], [ 103.651172698411003, 1.37344413524604, 0.0 ], [ 103.651175757822998, 1.37352996192582, 0.0 ], [ 103.651172536036, 1.37360675899691, 0.0 ], [ 103.651171107446004, 1.37368807167327, 0.0 ], [ 103.651170128242995, 1.37376802874889, 0.0 ], [ 103.651133672076995, 1.37384439008148, 0.0 ], [ 103.651064414375, 1.37393567625575, 0.0 ], [ 103.650983017963, 1.37403826237305, 0.0 ], [ 103.650937098406004, 1.37414579896427, 0.0 ], [ 103.650901967729993, 1.37424429459544, 0.0 ], [ 103.650905481454998, 1.37432289457085, 0.0 ], [ 103.650919371670994, 1.3743563144403, 0.0 ], [ 103.650934158555003, 1.37439108910937, 0.0 ], [ 103.650961967308007, 1.37442811753888, 0.0 ], [ 103.651004586260996, 1.3744768820768, 0.0 ], [ 103.651034645338001, 1.3745098428689, 0.0 ], [ 103.651065613724001, 1.37453151008726, 0.0 ], [ 103.651095688275007, 1.37455001469095, 0.0 ], [ 103.651154939085998, 1.37458341181595, 0.0 ], [ 103.651248290498003, 1.3746529289681, 0.0 ], [ 103.651346607620994, 1.37469579140142, 0.0 ], [ 103.651403179175006, 1.3747138304798, 0.0 ], [ 103.651439109164997, 1.3747156193446, 0.0 ], [ 103.651475491442, 1.37471334043374, 0.0 ], [ 103.651508284111998, 1.37470880577423, 0.0 ], [ 103.651557258417995, 1.37468935584543, 0.0 ], [ 103.651601294364994, 1.3746676500643, 0.0 ], [ 103.651632298704001, 1.37465362943735, 0.0 ], [ 103.651657469018005, 1.37463464342867, 0.0 ], [ 103.651694782871004, 1.374599840194, 0.0 ], [ 103.651734352047995, 1.37455419385857, 0.0 ], [ 103.651791904722998, 1.37449046984346, 0.0 ], [ 103.651843164351007, 1.37443171751488, 0.0 ], [ 103.651864299636998, 1.37440686099613, 0.0 ], [ 103.651928157051998, 1.37432596818991, 0.0 ], [ 103.65199833074, 1.37421796677752, 0.0 ], [ 103.652048730729007, 1.37411946234217, 0.0 ], [ 103.652083842718, 1.3740417461589, 0.0 ], [ 103.652096464875001, 1.37399430802978, 0.0 ], [ 103.652134286266005, 1.37390168187355, 0.0 ], [ 103.652214874397004, 1.37370920229226, 0.0 ], [ 103.652271253188005, 1.37347065820276, 0.0 ], [ 103.652330238269997, 1.37332155638952, 0.0 ], [ 103.652350954320994, 1.37326733617641, 0.0 ], [ 103.652364923283997, 1.37322170324893, 0.0 ], [ 103.652400464232997, 1.37316296055706, 0.0 ], [ 103.652448141042996, 1.37309472301127, 0.0 ], [ 103.652497609286996, 1.37303055160184, 0.0 ], [ 103.652553798452999, 1.37298309055726, 0.0 ], [ 103.652602774648997, 1.37296183188145, 0.0 ], [ 103.652638703684005, 1.37296407200019, 0.0 ], [ 103.652682701665, 1.37298076349625, 0.0 ], [ 103.652714558851997, 1.37301281914069, 0.0 ], [ 103.652749982284007, 1.37307107345338, 0.0 ], [ 103.652767456229, 1.37311352723674, 0.0 ], [ 103.652783582289004, 1.37315643309748, 0.0 ], [ 103.652784438235003, 1.37319753993045, 0.0 ], [ 103.652775406703995, 1.37324587998551, 0.0 ], [ 103.652754703089002, 1.37329016129099, 0.0 ], [ 103.652740729266995, 1.37334076186937, 0.0 ], [ 103.652715983031001, 1.37338459430447, 0.0 ], [ 103.652698868054003, 1.37343203481057, 0.0 ], [ 103.652703306568, 1.3734853363025, 0.0 ], [ 103.652716738826001, 1.3735268890367, 0.0 ], [ 103.652738258393001, 1.37356572659354, 0.0 ], [ 103.652787596468997, 1.37363165274401, 0.0 ], [ 103.652828425945998, 1.37367454601304, 0.0 ], [ 103.652873744632004, 1.37371788908951, 0.0 ], [ 103.652899310791, 1.37375220696289, 0.0 ], [ 103.652918586810003, 1.37378878616193, 0.0 ], [ 103.652939199049996, 1.37383665910694, 0.0 ], [ 103.652945887089999, 1.37388453913326, 0.0 ], [ 103.652942705011, 1.3739238423662, 0.0 ], [ 103.652931881005998, 1.37396992409913, 0.0 ], [ 103.652916110182005, 1.37401871943962, 0.0 ], [ 103.652893163940007, 1.37406029111324, 0.0 ], [ 103.652874718605005, 1.37409011459124, 0.0 ], [ 103.652848625409007, 1.37413394601999, 0.0 ], [ 103.652818010111005, 1.37420849820485, 0.0 ], [ 103.652786916500006, 1.37431060619384, 0.0 ], [ 103.652753139577996, 1.37440322905294, 0.0 ], [ 103.652727028911997, 1.37446422613027, 0.0 ], [ 103.652708082692001, 1.37454690396829, 0.0 ], [ 103.652698154380005, 1.37459524395336, 0.0 ], [ 103.652721907843002, 1.3746453735169, 0.0 ], [ 103.652758232964999, 1.37469820716827, 0.0 ], [ 103.652790103838996, 1.3747158084338, 0.0 ], [ 103.652848019258997, 1.37473926740939, 0.0 ], [ 103.652886190077993, 1.37474376407597, 0.0 ], [ 103.652911339921005, 1.3747460097049, 0.0 ], [ 103.652975119564999, 1.37474326620431, 0.0 ], [ 103.653017791886001, 1.37474008067491, 0.0 ], [ 103.653125600671004, 1.37472240682303, 0.0 ], [ 103.653200619447006, 1.37470971802118, 0.0 ], [ 103.653260819313005, 1.37469342331435, 0.0 ], [ 103.653321922475996, 1.37467396703269, 0.0 ], [ 103.653386614316005, 1.37465721777021, 0.0 ], [ 103.653427042318, 1.37464996967893, 0.0 ], [ 103.653456678270999, 1.37465808403266, 0.0 ], [ 103.653480024215995, 1.37466665551537, 0.0 ], [ 103.653498855829994, 1.37469826702965, 0.0 ], [ 103.653543705771, 1.3747619373562, 0.0 ], [ 103.653576438406006, 1.374815224714, 0.0 ], [ 103.653605576500993, 1.37487212652526, 0.0 ], [ 103.653634255786997, 1.37493625775361, 0.0 ], [ 103.653654853456999, 1.37499903725622, 0.0 ], [ 103.653683551100997, 1.37504600283275, 0.0 ], [ 103.653727055066, 1.37510876959979, 0.0 ], [ 103.653775933286994, 1.3751846355202, 0.0 ], [ 103.653792051612996, 1.37523522120024, 0.0 ], [ 103.653830131991995, 1.37533187120355, 0.0 ], [ 103.653890153174004, 1.3754944624517, 0.0 ], [ 103.653931355328993, 1.37561324689623, 0.0 ], [ 103.653998074244996, 1.37581468361579, 0.0 ], [ 103.654044687443005, 1.37591132883677, 0.0 ], [ 103.654118671739994, 1.37603461313984, 0.0 ], [ 103.654157219015005, 1.37611229061187, 0.0 ], [ 103.654206540588007, 1.37619583547977, 0.0 ], [ 103.654235230561, 1.3762495756111, 0.0 ], [ 103.654301146945002, 1.37635660162502, 0.0 ], [ 103.654387680553, 1.37650562675945, 0.0 ], [ 103.654441035106998, 1.37659865595011, 0.0 ], [ 103.65450650036, 1.37670658447751, 0.0 ], [ 103.654575539543004, 1.37683438748456, 0.0 ], [ 103.654618116880002, 1.37692471182386, 0.0 ], [ 103.654668737842002, 1.37705613901845, 0.0 ], [ 103.654706794098004, 1.37717582757905, 0.0 ], [ 103.654742131201004, 1.37732081540014, 0.0 ], [ 103.654779680993997, 1.37749651816025, 0.0 ], [ 103.654792168038, 1.37758595666983, 0.0 ], [ 103.654807724437006, 1.37774992551171, 0.0 ], [ 103.654820631758994, 1.37786691718335, 0.0 ], [ 103.654842954873999, 1.37800016724126, 0.0 ], [ 103.654870698649006, 1.37810269389193, 0.0 ], [ 103.654906063013001, 1.37821967459552, 0.0 ], [ 103.654972831516005, 1.3783723229039, 0.0 ], [ 103.654999271039998, 1.3784323906667, 0.0 ], [ 103.655075924184999, 1.37858006664374, 0.0 ], [ 103.655132869284998, 1.3786758028462, 0.0 ], [ 103.655197434048006, 1.37878644256705, 0.0 ], [ 103.655278601442006, 1.37891243323579, 0.0 ], [ 103.655310422040003, 1.37897882197247, 0.0 ], [ 103.655384844045003, 1.37911475195022, 0.0 ], [ 103.655407681547999, 1.37918250016754, 0.0 ], [ 103.655438614038005, 1.37924120901279, 0.0 ], [ 103.655497791173005, 1.3793495937544, 0.0 ], [ 103.655633167272001, 1.37961197952019, 0.0 ], [ 103.655675771823994, 1.37967565055885, 0.0 ], [ 103.655728253223003, 1.37974247765046, 0.0 ], [ 103.655807200351006, 1.37984362447179, 0.0 ], [ 103.655848910271004, 1.37990277906808, 0.0 ], [ 103.655867291500002, 1.37993800435976, 0.0 ], [ 103.655887464344005, 1.37997503579247, 0.0 ], [ 103.655920651271003, 1.38002289971978, 0.0 ], [ 103.655967757544005, 1.38007618090245, 0.0 ], [ 103.656016661058999, 1.38012810477511, 0.0 ], [ 103.656069153030003, 1.38018589730726, 0.0 ], [ 103.656152142918998, 1.38028613915948, 0.0 ], [ 103.656186233219003, 1.38032993805435, 0.0 ], [ 103.656210448704002, 1.38036741925513, 0.0 ], [ 103.656246758299005, 1.38043787070525, 0.0 ], [ 103.656283935473994, 1.3805385866229, 0.0 ], [ 103.656286121809998, 1.38059776267006, 0.0 ], [ 103.656297249439007, 1.38069849381854, 0.0 ], [ 103.656309315420998, 1.38075947028208, 0.0 ], [ 103.656351397020003, 1.38089632297836, 0.0 ], [ 103.656406522774006, 1.38101419504223, 0.0 ], [ 103.656452698448007, 1.3811000005473, 0.0 ], [ 103.656491732033004, 1.38114063635906, 0.0 ], [ 103.656532567520003, 1.38117765577008, 0.0 ], [ 103.656591353812004, 1.38122595931776, 0.0 ], [ 103.656639826350997, 1.38126162095026, 0.0 ], [ 103.656687847810005, 1.38129728254823, 0.0 ], [ 103.656726889058007, 1.38133159326454, 0.0 ], [ 103.656761877020003, 1.38137584440107, 0.0 ], [ 103.65682941371, 1.38145919616119, 0.0 ], [ 103.657196198036004, 1.3822093530061, 0.0 ], [ 103.657223345158997, 1.38226487368607, 0.0 ], [ 103.657372686116005, 1.3827002608656, 0.0 ], [ 103.657373718608994, 1.38272419030558, 0.0 ], [ 103.657353488580995, 1.38279199498881, 0.0 ], [ 103.657345439397005, 1.38282568541202, 0.0 ], [ 103.657336725939004, 1.3828624922098, 0.0 ], [ 103.657300639135997, 1.38290169351863, 0.0 ], [ 103.657259471535994, 1.38295682565138, 0.0 ], [ 103.657232010692994, 1.38300036310401, 0.0 ], [ 103.657199783638006, 1.38303428685463, 0.0 ], [ 103.657134922989997, 1.38308294380702, 0.0 ], [ 103.657101406809005, 1.38310025979471, 0.0 ], [ 103.657026688943006, 1.38322046624765, 0.0 ], [ 103.656970429721994, 1.38332573405255, 0.0 ], [ 103.656939365772999, 1.38339124174971, 0.0 ], [ 103.656940656146006, 1.38343957355099, 0.0 ], [ 103.656953605178003, 1.38350416390187, 0.0 ], [ 103.656976467619998, 1.38353938681169, 0.0 ], [ 103.656994854380997, 1.38356106207569, 0.0 ], [ 103.657022214540007, 1.38359131586405, 0.0 ], [ 103.657064847049995, 1.38361840282142, 0.0 ], [ 103.657108835139994, 1.38363826133092, 0.0 ], [ 103.657141616717993, 1.3836396049467, 0.0 ], [ 103.657236181863993, 1.3836219281587, 0.0 ], [ 103.657279930840005, 1.38360652655962, 0.0 ], [ 103.657323669964001, 1.38359067368334, 0.0 ], [ 103.657355887888002, 1.38358320155376, 0.0 ], [ 103.657410843061996, 1.38356620459324, 0.0 ], [ 103.657452811897002, 1.38355174339214, 0.0 ], [ 103.657496534013006, 1.3835349861512, 0.0 ], [ 103.657516557639994, 1.38352461192327, 0.0 ], [ 103.657545327074004, 1.38350184409473, 0.0 ], [ 103.657618196287999, 1.38345869347154, 0.0 ], [ 103.657656725582996, 1.38342938603782, 0.0 ], [ 103.657696145396002, 1.38339961021124, 0.0 ], [ 103.657744092694998, 1.38336919834946, 0.0 ], [ 103.657789199373994, 1.38335422008144, 0.0 ], [ 103.657822756200005, 1.38334626963815, 0.0 ], [ 103.657871759757001, 1.38334657805417, 0.0 ], [ 103.657991836514, 1.38334943843255, 0.0 ], [ 103.657990608736995, 1.38337840046789, 0.0 ], [ 103.657988728461007, 1.38339697678529, 0.0 ], [ 103.657941619105998, 1.38346986921333, 0.0 ], [ 103.657896362269994, 1.38352282968521, 0.0 ], [ 103.657827551980006, 1.38358940263696, 0.0 ], [ 103.657774462114006, 1.38363258277462, 0.0 ], [ 103.657700938600996, 1.38366534949303, 0.0 ], [ 103.657613782506999, 1.38369072295492, 0.0 ], [ 103.657578102014995, 1.38372765254492, 0.0 ], [ 103.657550218737995, 1.38377255555253, 0.0 ], [ 103.657530528013993, 1.38377704423108, 0.0 ], [ 103.657472505171, 1.38386644582708, 0.0 ], [ 103.657461923843002, 1.38389967664639, 0.0 ], [ 103.657461203650996, 1.38395439760122, 0.0 ], [ 103.657451756222002, 1.38397675357724, 0.0 ], [ 103.657448618733994, 1.38404554076541, 0.0 ], [ 103.657439200954997, 1.3840923090345, 0.0 ], [ 103.657438424253996, 1.38412126024978, 0.0 ], [ 103.657446537729996, 1.38419071388638, 0.0 ], [ 103.657456353338006, 1.38423254940323, 0.0 ], [ 103.657492491542001, 1.38426433040234, 0.0 ], [ 103.657526961398005, 1.38427986987717, 0.0 ], [ 103.657548141427995, 1.38428258182379, 0.0 ], [ 103.657576053599001, 1.38428469829917, 0.0 ], [ 103.657610541360995, 1.38430114213411, 0.0 ], [ 103.657666575305001, 1.38433882737157, 0.0 ], [ 103.657714897964993, 1.3843730591871, 0.0 ], [ 103.657743920109993, 1.38440860812036, 0.0 ], [ 103.657785224283998, 1.38445158095459, 0.0 ], [ 103.657837372578996, 1.38456575575601, 0.0 ], [ 103.657857954964001, 1.38460645619809, 0.0 ], [ 103.657874171480998, 1.38463097822046, 0.0 ], [ 103.657902653920999, 1.38466201797369, 0.0 ], [ 103.657958915387994, 1.38473405804712, 0.0 ], [ 103.658023238956005, 1.38480456944698, 0.0 ], [ 103.658062540987004, 1.38483718539893, 0.0 ], [ 103.658122222060996, 1.38487750439537, 0.0 ], [ 103.658159665178999, 1.38490699745292, 0.0 ], [ 103.658192848957995, 1.38492573011891, 0.0 ], [ 103.658248067485005, 1.38494489489784, 0.0 ], [ 103.658294821186999, 1.38496785735825, 0.0 ], [ 103.658348708861993, 1.38498795623994, 0.0 ], [ 103.658401637992, 1.38500491058985, 0.0 ], [ 103.658464783433004, 1.38501576759814, 0.0 ], [ 103.658501798629999, 1.38502356773743, 0.0 ], [ 103.658527353495003, 1.38504291570204, 0.0 ], [ 103.658550866038993, 1.38507270435037, 0.0 ], [ 103.658567763722004, 1.38510896410742, 0.0 ], [ 103.658579901758003, 1.3851317621135, 0.0 ], [ 103.658603053644995, 1.38516608067366, 0.0 ], [ 103.658617598364003, 1.38519696474043, 0.0 ], [ 103.658620695153999, 1.38521724433752, 0.0 ], [ 103.658667571899002, 1.38531480383507, 0.0 ], [ 103.658710802293001, 1.3853871223756, 0.0 ], [ 103.658740576344002, 1.38543802648307, 0.0 ], [ 103.658765597902999, 1.38547592192445, 0.0 ], [ 103.658786080932998, 1.3855116538002, 0.0 ], [ 103.658833018308002, 1.38556671290448, 0.0 ], [ 103.658866282676001, 1.38558951247539, 0.0 ], [ 103.658911398601006, 1.38562064931405, 0.0 ], [ 103.658956056289, 1.3856513420773, 0.0 ], [ 103.659020348449005, 1.38569744116128, 0.0 ], [ 103.659079446882998, 1.38573099096054, 0.0 ], [ 103.659139408979996, 1.38576271401531, 0.0 ], [ 103.659207909326, 1.38579425411527, 0.0 ], [ 103.659293823525999, 1.38581999764926, 0.0 ], [ 103.659417398292007, 1.38586347394055, 0.0 ], [ 103.659584637305002, 1.38593269334331, 0.0 ], [ 103.659681918877993, 1.38596497441736, 0.0 ], [ 103.659725081765004, 1.38596540807684, 0.0 ], [ 103.659756534539, 1.38596473574405, 0.0 ], [ 103.659777906040006, 1.3859543335627, 0.0 ], [ 103.659813081889993, 1.38593730615316, 0.0 ], [ 103.659842449856001, 1.38587654708301, 0.0 ], [ 103.659863953579006, 1.38582726014365, 0.0 ], [ 103.659878693685002, 1.38575415548069, 0.0 ], [ 103.659881823955004, 1.38568491519672, 0.0 ], [ 103.659886744063996, 1.38559258040324, 0.0 ], [ 103.659879787551006, 1.38549055089985, 0.0 ], [ 103.659876515332002, 1.385324694652, 0.0 ], [ 103.659860302230001, 1.38527756906671, 0.0 ], [ 103.659861357813, 1.38519435898071, 0.0 ], [ 103.659871961362995, 1.38513942622211, 0.0 ], [ 103.659888264190002, 1.38507713781882, 0.0 ], [ 103.659914513093995, 1.38501780288305, 0.0 ], [ 103.659943985037003, 1.38498507355114, 0.0 ], [ 103.659989354811998, 1.38496059405644, 0.0 ], [ 103.660016904543994, 1.38496723951245, 0.0 ], [ 103.660044105268, 1.38497886615742, 0.0 ], [ 103.660083073535006, 1.38501736672554, 0.0 ], [ 103.660115804610001, 1.38505871375979, 0.0 ], [ 103.660158886442005, 1.38512334972961, 0.0 ], [ 103.660191918861003, 1.38518504579004, 0.0 ], [ 103.660231665107005, 1.38526332107158, 0.0 ], [ 103.660262283825006, 1.38535171818359, 0.0 ], [ 103.66030285734, 1.3854715660511, 0.0 ], [ 103.660333896455001, 1.38558664362296, 0.0 ], [ 103.660348064716004, 1.38566681617999, 0.0 ], [ 103.660375178, 1.3857195866751, 0.0 ], [ 103.660401618174006, 1.3857610679944, 0.0 ], [ 103.660419908516005, 1.38579955890063, 0.0 ], [ 103.660438017261995, 1.38585161790687, 0.0 ], [ 103.660441993380005, 1.38593924254607, 0.0 ], [ 103.660443495519999, 1.385992560106, 0.0 ], [ 103.660404120454004, 1.38602459778451, 0.0 ], [ 103.660367512731, 1.38606019070484, 0.0 ], [ 103.660310996855998, 1.38611203531914, 0.0 ], [ 103.660199741987995, 1.38612345372585, 0.0 ], [ 103.660144103060006, 1.38615131748565, 0.0 ], [ 103.660116115798004, 1.38616819078357, 0.0 ], [ 103.660039647895999, 1.38623402527517, 0.0 ], [ 103.65998068607, 1.38629857957535, 0.0 ], [ 103.659952264880999, 1.38633897343377, 0.0 ], [ 103.659935984289007, 1.38637955810203, 0.0 ], [ 103.659917345487997, 1.38643737427164, 0.0 ], [ 103.659892041071004, 1.3865446141276, 0.0 ], [ 103.659872041111996, 1.38662461324235, 0.0 ], [ 103.659850401441005, 1.38668972827908, 0.0 ], [ 103.659830540111997, 1.38675390019911, 0.0 ], [ 103.659815327293998, 1.38680305285105, 0.0 ], [ 103.659805288506007, 1.38686385042371, 0.0 ], [ 103.659808604784999, 1.38691803268386, 0.0 ], [ 103.659832506046001, 1.38699031270598, 0.0 ], [ 103.659860860655002, 1.3870376309121, 0.0 ], [ 103.659891256682997, 1.38707450752812, 0.0 ], [ 103.659913394544006, 1.38710296936955, 0.0 ], [ 103.659990135268998, 1.38730161589096, 0.0 ], [ 103.660049678229001, 1.38742603127538, 0.0 ], [ 103.660088114125998, 1.38748308113633, 0.0 ], [ 103.660148793529004, 1.38757401357846, 0.0 ], [ 103.660210903171006, 1.38766898861407, 0.0 ], [ 103.660258534449994, 1.38775929698937, 0.0 ], [ 103.660306696494999, 1.38785366417084, 0.0 ], [ 103.660350190950993, 1.3879164815051, 0.0 ], [ 103.660396511987003, 1.38800862834614, 0.0 ], [ 103.660421884401003, 1.38804154258675, 0.0 ], [ 103.660470269846002, 1.3880789387195, 0.0 ], [ 103.660523714738005, 1.388122104136, 0.0 ], [ 103.660597765972994, 1.38816166538292, 0.0 ], [ 103.660653957492002, 1.38818442592377, 0.0 ], [ 103.660728603804003, 1.38820860042941, 0.0 ], [ 103.660796897425001, 1.38822974938213, 0.0 ], [ 103.660873595008994, 1.38824393356891, 0.0 ], [ 103.660971393886001, 1.38825676366552, 0.0 ], [ 103.661086902982007, 1.38827871100565, 0.0 ], [ 103.661161927864995, 1.38829926175549, 0.0 ], [ 103.661232296188004, 1.38833437868926, 0.0 ], [ 103.661253699189004, 1.38834838969828, 0.0 ], [ 103.661301842186006, 1.3883961886521, 0.0 ], [ 103.661331895505, 1.38843849771976, 0.0 ], [ 103.661395355609997, 1.38851083669899, 0.0 ], [ 103.661451417771005, 1.38859553954629, 0.0 ], [ 103.661525023940001, 1.38872643748316, 0.0 ], [ 103.661604543376001, 1.38886082396769, 0.0 ], [ 103.661625499192994, 1.38892050693308, 0.0 ], [ 103.661634696388006, 1.38895376725531, 0.0 ], [ 103.661641339311004, 1.38899431472415, 0.0 ], [ 103.661638196393994, 1.38904004526943, 0.0 ], [ 103.661631955760996, 1.38906549712263, 0.0 ], [ 103.661603071990996, 1.38912805321312, 0.0 ], [ 103.661563156726004, 1.38922384915423, 0.0 ], [ 103.661552508419007, 1.38927652192213, 0.0 ], [ 103.661545345342006, 1.38934630091526, 0.0 ], [ 103.661519135055002, 1.38943050034418, 0.0 ], [ 103.661485083946999, 1.38955013473828, 0.0 ], [ 103.661471959408004, 1.38963676875678, 0.0 ], [ 103.661466584522998, 1.38970605681244, 0.0 ], [ 103.661473744923995, 1.38977281629081, 0.0 ], [ 103.661489622044002, 1.38989409575264, 0.0 ], [ 103.661518341847, 1.39007387468418, 0.0 ], [ 103.661541338643005, 1.39019138529453, 0.0 ], [ 103.661559329705995, 1.39030583608833, 0.0 ], [ 103.661585720407999, 1.39043593383013, 0.0 ], [ 103.661612879719996, 1.39053662636125, 0.0 ], [ 103.661634437036994, 1.39060398377098, 0.0 ], [ 103.661661925570002, 1.39066266880185, 0.0 ], [ 103.661666016146995, 1.39067139888874, 0.0 ], [ 103.661703928783993, 1.39072119572726, 0.0 ], [ 103.661777802239001, 1.39084734308001, 0.0 ], [ 103.661813597123995, 1.390894609363, 0.0 ], [ 103.661856605675993, 1.39094309796346, 0.0 ], [ 103.661959481680995, 1.39105468271398, 0.0 ], [ 103.662044002456994, 1.39114219024682, 0.0 ], [ 103.662068575874997, 1.39119057168757, 0.0 ], [ 103.662137620185007, 1.39129510357008, 0.0 ], [ 103.662218444082001, 1.39143468840284, 0.0 ], [ 103.662261536406007, 1.39151799938845, 0.0 ], [ 103.662306535889002, 1.39160850921889, 0.0 ], [ 103.662358665865995, 1.39169481519896, 0.0 ], [ 103.662434268566997, 1.39181640830692, 0.0 ], [ 103.662467166515995, 1.39185061541224, 0.0 ], [ 103.662488749638001, 1.39190945465219, 0.0 ], [ 103.662579911372006, 1.39207824292188, 0.0 ], [ 103.662618916292004, 1.39215891558728, 0.0 ], [ 103.662663294479003, 1.39226752794406, 0.0 ], [ 103.662710157025998, 1.39239146938474, 0.0 ], [ 103.662739064997993, 1.39251755737272, 0.0 ], [ 103.662751418146996, 1.39264892923539, 0.0 ], [ 103.662748143935005, 1.39284617173949, 0.0 ], [ 103.662726155824004, 1.39299582726123, 0.0 ], [ 103.662717124956998, 1.39311086753571, 0.0 ], [ 103.662696713086007, 1.39324602085299, 0.0 ], [ 103.662669186187003, 1.39344507482938, 0.0 ], [ 103.662632530075996, 1.39366465078182, 0.0 ], [ 103.662593985890993, 1.39384898730039, 0.0 ], [ 103.662591373016994, 1.39388385923389, 0.0 ], [ 103.662580897422004, 1.39393380446726, 0.0 ], [ 103.662554945590998, 1.39405956378828, 0.0 ], [ 103.662522680454003, 1.39418408638746, 0.0 ], [ 103.662489344448005, 1.39426792446153, 0.0 ], [ 103.662452774529996, 1.39437579385831, 0.0 ], [ 103.662418814499006, 1.3944777344602, 0.0 ], [ 103.662395262355005, 1.39458400318459, 0.0 ], [ 103.662380084828996, 1.39467926103252, 0.0 ], [ 103.662371627281999, 1.39474363818878, 0.0 ], [ 103.662372381224998, 1.39479291863165, 0.0 ], [ 103.662371125738005, 1.39485761374462, 0.0 ], [ 103.662373629689, 1.39496248894491, 0.0 ], [ 103.662392007822007, 1.39510550669062, 0.0 ], [ 103.662424471332997, 1.3952582111621, 0.0 ], [ 103.662475560215995, 1.3954526233671, 0.0 ], [ 103.662509363870001, 1.39557545421066, 0.0 ], [ 103.662542034308004, 1.39571232516101, 0.0 ], [ 103.662603841440003, 1.39593141089907, 0.0 ], [ 103.662651637169006, 1.39608699235458, 0.0 ], [ 103.662708520337006, 1.39627813210191, 0.0 ], [ 103.662757533047994, 1.39645449403072, 0.0 ], [ 103.662781062094993, 1.39658158818021, 0.0 ], [ 103.662806721004998, 1.39673034733457, 0.0 ], [ 103.662825339742, 1.39688919049382, 0.0 ], [ 103.662838321368, 1.39700291290964, 0.0 ], [ 103.662838669216995, 1.39711370879818, 0.0 ], [ 103.662847260801001, 1.39723429860362, 0.0 ], [ 103.662850255877999, 1.39730740186274, 0.0 ], [ 103.662780302898994, 1.39741511960043, 0.0 ], [ 103.662391372659997, 1.39808852646348, 0.0 ], [ 103.662053555368004, 1.39873279398376, 0.0 ], [ 103.662089418779999, 1.39886505203302, 0.0 ], [ 103.662169155715006, 1.39895343646862, 0.0 ], [ 103.662269968971003, 1.39922537045175, 0.0 ], [ 103.662349367605998, 1.3993944735113, 0.0 ], [ 103.662398064639007, 1.39963684285305, 0.0 ], [ 103.662447995611998, 1.39978976113179, 0.0 ], [ 103.662494219343998, 1.39990150362679, 0.0 ], [ 103.662536908104997, 1.39998798708697, 0.0 ], [ 103.662581103395993, 1.40005499526411, 0.0 ], [ 103.662637886848998, 1.40012221960067, 0.0 ], [ 103.662679181582007, 1.40017616770096, 0.0 ], [ 103.662684310358003, 1.4002176782016, 0.0 ], [ 103.662694429645995, 1.4002618080944, 0.0 ], [ 103.662724180877007, 1.40029607376156, 0.0 ], [ 103.662737825947005, 1.4003062189672, 0.0 ], [ 103.662762105520002, 1.4003062153189, 0.0 ], [ 103.662784083196001, 1.40030263656665, 0.0 ], [ 103.662834828307993, 1.40026912379416, 0.0 ], [ 103.662875823182006, 1.40024483839675, 0.0 ], [ 103.662923912794994, 1.40021408824759, 0.0 ], [ 103.662978557523999, 1.40017100310573, 0.0 ], [ 103.662994427897999, 1.40015035501341, 0.0 ], [ 103.663012988974003, 1.40009980626172, 0.0 ], [ 103.663069811929006, 1.39999336633372, 0.0 ], [ 103.663082592654007, 1.40006458109903, 0.0 ], [ 103.663095242807003, 1.40012720714749, 0.0 ], [ 103.663109087314993, 1.40015046468186, 0.0 ], [ 103.663183963153998, 1.40022458607438, 0.0 ], [ 103.663219322312997, 1.40027276482055, 0.0 ], [ 103.663253366687997, 1.40032323059692, 0.0 ], [ 103.663245644368999, 1.40034734479375, 0.0 ], [ 103.663224040539006, 1.40037533677711, 0.0 ], [ 103.663166462733997, 1.4004324962657, 0.0 ], [ 103.663141664107002, 1.40042798712352, 0.0 ], [ 103.663100765568998, 1.40039981060669, 0.0 ], [ 103.663075461302995, 1.40039169212601, 0.0 ], [ 103.663050475429998, 1.40040437214047, 0.0 ], [ 103.663000153354005, 1.40046546340781, 0.0 ], [ 103.662946372316, 1.40050627233825, 0.0 ], [ 103.662903621417001, 1.40053330505367, 0.0 ], [ 103.662861422652995, 1.40056710965645, 0.0 ], [ 103.662821964358997, 1.40060357779922, 0.0 ], [ 103.662790485071, 1.40063266061712, 0.0 ], [ 103.662752167153997, 1.4006555390239, 0.0 ], [ 103.662726669950004, 1.40069355283406, 0.0 ], [ 103.662727112653997, 1.40072248967402, 0.0 ], [ 103.662757838489, 1.40076171130571, 0.0 ], [ 103.662787168163007, 1.40079779289683, 0.0 ], [ 103.662831387604001, 1.40086661160206, 0.0 ], [ 103.662854548843001, 1.40091094773924, 0.0 ], [ 103.662851602025, 1.40095351484543, 0.0 ], [ 103.662856591554998, 1.40104432380938, 0.0 ], [ 103.662861874171, 1.40109578228145, 0.0 ], [ 103.662876757926, 1.40118685604291, 0.0 ], [ 103.662896994715993, 1.4012751176366, 0.0 ], [ 103.662910272451995, 1.40132009333697, 0.0 ], [ 103.662936455879006, 1.4013856306072, 0.0 ], [ 103.662970364003996, 1.40145644900085, 0.0 ], [ 103.662994298616994, 1.40149263329277, 0.0 ], [ 103.663052921309998, 1.4015625364731, 0.0 ], [ 103.663090231804006, 1.40159123273747, 0.0 ], [ 103.663159968721999, 1.40165278767685, 0.0 ], [ 103.663216066820993, 1.4017046477824, 0.0 ], [ 103.663268246529, 1.40176472280711, 0.0 ], [ 103.663302146936999, 1.40180569369834, 0.0 ], [ 103.663328778196004, 1.40184182573194, 0.0 ], [ 103.663361136657997, 1.40187016260013, 0.0 ], [ 103.663393474551995, 1.40189714292639, 0.0 ], [ 103.663435617239998, 1.40191851422285, 0.0 ], [ 103.663481681918, 1.40193166969391, 0.0 ], [ 103.663521376923995, 1.4019399691902, 0.0 ], [ 103.663570857053003, 1.40194130220994, 0.0 ], [ 103.663622916658994, 1.40193489861653, 0.0 ], [ 103.663664617536, 1.40192733306831, 0.0 ], [ 103.663758639486005, 1.40190114784612, 0.0 ], [ 103.663799061358006, 1.40189812751583, 0.0 ], [ 103.663831093374, 1.40190521460609, 0.0 ], [ 103.663866944212998, 1.40192670300372, 0.0 ], [ 103.663882725424997, 1.40195896719828, 0.0 ], [ 103.663875022775002, 1.40198443974724, 0.0 ], [ 103.663813606765004, 1.40199644517517, 0.0 ], [ 103.663751242082, 1.40200530335926, 0.0 ], [ 103.663666001707, 1.40204715183274, 0.0 ], [ 103.663576308670997, 1.40209179897217, 0.0 ], [ 103.663476251221994, 1.4021642272916, 0.0 ], [ 103.663455337817993, 1.4022374319013, 0.0 ], [ 103.663441537639997, 1.40233447234334, 0.0 ], [ 103.663431400644001, 1.40243596612149, 0.0 ], [ 103.663431755646997, 1.40254721238015, 0.0 ], [ 103.663442518253007, 1.40269218298481, 0.0 ], [ 103.663436579348001, 1.40274475571298, 0.0 ], [ 103.663407887904995, 1.4027796637228, 0.0 ], [ 103.663389907893006, 1.40280939776683, 0.0 ], [ 103.663376706988998, 1.40285758381773, 0.0 ], [ 103.663290444254997, 1.40292070817185, 0.0 ], [ 103.663254587398995, 1.40295756002922, 0.0 ], [ 103.663227584251999, 1.40304399497637, 0.0 ], [ 103.663205828599004, 1.40312083233395, 0.0 ], [ 103.663191147776004, 1.40313105866713, 0.0 ], [ 103.663080500451997, 1.4032168001751, 0.0 ], [ 103.663028041288996, 1.40325577244057, 0.0 ], [ 103.663020301947, 1.40327898227331, 0.0 ], [ 103.663030338072005, 1.4033176887128, 0.0 ], [ 103.663055523981996, 1.40334751725545, 0.0 ], [ 103.663074085003998, 1.40338515717448, 0.0 ], [ 103.663076375859006, 1.40341722323533, 0.0 ], [ 103.663056909342004, 1.40343793979294, 0.0 ], [ 103.663019359955996, 1.40348160768251, 0.0 ], [ 103.662984809489004, 1.40354511835406, 0.0 ], [ 103.662945945551002, 1.40364986481183, 0.0 ], [ 103.662923500586004, 1.40374028379259, 0.0 ], [ 103.662875309653998, 1.40394063126875, 0.0 ], [ 103.662843819733993, 1.40411578811611, 0.0 ], [ 103.662847748220003, 1.40416682053474, 0.0 ], [ 103.662865293172999, 1.4042261867256, 0.0 ], [ 103.662868345999001, 1.40423374468612, 0.0 ], [ 103.662889595387995, 1.40428633297053, 0.0 ], [ 103.662884673099001, 1.4043465738376, 0.0 ], [ 103.662866264345993, 1.40437767161834, 0.0 ], [ 103.662842199040995, 1.40442108817553, 0.0 ], [ 103.662808895374994, 1.40447779091114, 0.0 ], [ 103.662728407399996, 1.40459507687376, 0.0 ], [ 103.662613543657002, 1.4047577808814, 0.0 ], [ 103.662598757108, 1.40481312572083, 0.0 ], [ 103.662435290068004, 1.40537153336949, 0.0 ], [ 103.662487936868999, 1.40553349997661, 0.0 ], [ 103.662676302663996, 1.40577965168134, 0.0 ], [ 103.662829835509996, 1.40584596521538, 0.0 ], [ 103.663190793972007, 1.40578681220069, 0.0 ], [ 103.664147420098999, 1.40619058756425, 0.0 ], [ 103.664312583058006, 1.40631087587301, 0.0 ], [ 103.664376809328004, 1.40654479870571, 0.0 ], [ 103.664577110706006, 1.40676103040512, 0.0 ], [ 103.664675453740003, 1.40694037849092, 0.0 ], [ 103.664960946638999, 1.40746104204793, 0.0 ], [ 103.664986228657995, 1.40758005133941, 0.0 ], [ 103.665079264734999, 1.40774685917239, 0.0 ], [ 103.664983846705994, 1.40814118217192, 0.0 ], [ 103.665060678168004, 1.40826513934526, 0.0 ], [ 103.665026839261998, 1.40850513324853, 0.0 ], [ 103.665029172535, 1.40850990210872, 0.0 ], [ 103.665139947209994, 1.40891932029035, 0.0 ], [ 103.665284993583995, 1.40899336716428, 0.0 ], [ 103.665427638148003, 1.4090661785001, 0.0 ], [ 103.665603941116004, 1.40909805007713, 0.0 ], [ 103.665873679569003, 1.40907831747536, 0.0 ], [ 103.666422306738994, 1.4092154047326, 0.0 ], [ 103.666519954687004, 1.40927849902967, 0.0 ], [ 103.666760112353998, 1.40930246197195, 0.0 ], [ 103.666821694809997, 1.40932814751775, 0.0 ], [ 103.666869672174002, 1.40934920809025, 0.0 ], [ 103.666895209258001, 1.40934503268715, 0.0 ], [ 103.666928591963, 1.40932668923735, 0.0 ], [ 103.666955856410993, 1.40931841087572, 0.0 ], [ 103.666979343986, 1.40929938301756, 0.0 ], [ 103.667030634864005, 1.40925084607626, 0.0 ], [ 103.667063576331003, 1.40923296381621, 0.0 ], [ 103.667090526688, 1.40920618403015, 0.0 ], [ 103.667109773780993, 1.40917551132447, 0.0 ], [ 103.667150094655995, 1.40911593225892, 0.0 ], [ 103.667200298053004, 1.40908276845322, 0.0 ], [ 103.667290589499999, 1.40902930915779, 0.0 ], [ 103.667356434843001, 1.40899128643842, 0.0 ], [ 103.667423307619998, 1.40896091558196, 0.0 ], [ 103.667499140260006, 1.40892899348307, 0.0 ], [ 103.667576959765995, 1.40890831272073, 0.0 ], [ 103.667634281928002, 1.4088975657898, 0.0 ], [ 103.667699020933, 1.40890019758823, 0.0 ], [ 103.667755667335001, 1.40890255749812, 0.0 ], [ 103.667836341864998, 1.40889129403354, 0.0 ], [ 103.667913885751005, 1.40885436821743, 0.0 ], [ 103.667967225218007, 1.40882068370565, 0.0 ], [ 103.668052186972005, 1.40874431745686, 0.0 ], [ 103.668036921351998, 1.40893020127647, 0.0 ], [ 103.668034148515005, 1.40897856716647, 0.0 ], [ 103.668048974071993, 1.40903151037551, 0.0 ], [ 103.668080081474002, 1.40909086666064, 0.0 ], [ 103.668144213348, 1.4092167581782, 0.0 ], [ 103.668249686934004, 1.40942254472875, 0.0 ], [ 103.668273624487995, 1.40948296221975, 0.0 ], [ 103.668286478393995, 1.40952556664153, 0.0 ], [ 103.668310845614002, 1.4095584346379, 0.0 ], [ 103.668370717474005, 1.40961850922472, 0.0 ], [ 103.668419366978995, 1.40965264776836, 0.0 ], [ 103.668449003103007, 1.40967817544722, 0.0 ], [ 103.668513554971994, 1.40972279756147, 0.0 ], [ 103.668587093541007, 1.40976767172619, 0.0 ], [ 103.668676011819002, 1.40981852661317, 0.0 ], [ 103.668784140423, 1.40986308851622, 0.0 ], [ 103.668865452147998, 1.40988928095228, 0.0 ], [ 103.668953095101998, 1.40991804221858, 0.0 ], [ 103.669036766934994, 1.40995095511767, 0.0 ], [ 103.669105106497, 1.40998059495037, 0.0 ], [ 103.669186655375, 1.41002078055895, 0.0 ], [ 103.669236339568002, 1.41003638339345, 0.0 ], [ 103.669306709921003, 1.41005333971226, 0.0 ], [ 103.669362316331004, 1.41007377857839, 0.0 ], [ 103.669443716651998, 1.41010538721556, 0.0 ], [ 103.669502665872997, 1.41013749075404, 0.0 ], [ 103.669592592789996, 1.41022128157749, 0.0 ], [ 103.669611434315996, 1.41024614467912, 0.0 ], [ 103.669632089955002, 1.41029850950468, 0.0 ], [ 103.669655753658006, 1.41036931444881, 0.0 ], [ 103.669674035713996, 1.41044069147207, 0.0 ], [ 103.669675808617995, 1.41049211623528, 0.0 ], [ 103.669680326473994, 1.41054664224407, 0.0 ], [ 103.669694504857006, 1.41066731746364, 0.0 ], [ 103.669707294253001, 1.41075913083142, 0.0 ], [ 103.669738365868, 1.41084286593816, 0.0 ], [ 103.669764943730996, 1.41090006408349, 0.0 ], [ 103.669830759259995, 1.41101914675952, 0.0 ], [ 103.669897749998, 1.41110163729217, 0.0 ], [ 103.669922422474997, 1.41112592020524, 0.0 ], [ 103.669952447911001, 1.41117446476944, 0.0 ], [ 103.670011841036001, 1.41123274413378, 0.0 ], [ 103.670030097202996, 1.41127613120342, 0.0 ], [ 103.670060434120003, 1.41131654287669, 0.0 ], [ 103.670127264689995, 1.41138955479304, 0.0 ], [ 103.670217812830998, 1.41145707710628, 0.0 ], [ 103.670336440748002, 1.41153797326834, 0.0 ], [ 103.670408330813004, 1.4115914622051, 0.0 ], [ 103.670484931301004, 1.41163130286638, 0.0 ], [ 103.670552939784002, 1.41166771991647, 0.0 ], [ 103.670599259682007, 1.4116969448688, 0.0 ], [ 103.670623827423, 1.41174154784, 0.0 ], [ 103.670626515962994, 1.41176767138087, 0.0 ], [ 103.670622469616006, 1.41179394457132, 0.0 ], [ 103.670605698095997, 1.41183810692096, 0.0 ], [ 103.670565648700006, 1.41192235249635, 0.0 ], [ 103.670421683781001, 1.41206863619151, 0.0 ], [ 103.670407638235005, 1.4121560958842, 0.0 ], [ 103.670379949028998, 1.4123665186731, 0.0 ], [ 103.670308345470005, 1.41289496660009, 0.0 ], [ 103.670584373934005, 1.41328315469116, 0.0 ], [ 103.671192481781006, 1.413701029134, 0.0 ], [ 103.671809386514994, 1.41363169891755, 0.0 ], [ 103.672122659736999, 1.41348682601716, 0.0 ], [ 103.672406988961001, 1.41354642421711, 0.0 ], [ 103.672616819840997, 1.41367730521162, 0.0 ], [ 103.672705523760996, 1.41379121738596, 0.0 ], [ 103.672681934774999, 1.41387360387814, 0.0 ], [ 103.672665531625995, 1.41393179832593, 0.0 ], [ 103.672633798771997, 1.41398808169662, 0.0 ], [ 103.672581796480998, 1.41400643658926, 0.0 ], [ 103.672389085670005, 1.41404106377253, 0.0 ], [ 103.672304240901994, 1.41406152623979, 0.0 ], [ 103.672246163764001, 1.41409899073892, 0.0 ], [ 103.672234985971002, 1.41414260906685, 0.0 ], [ 103.672228605838995, 1.41421050709207, 0.0 ], [ 103.672176705387002, 1.41423744255272, 0.0 ], [ 103.672101217348001, 1.41428705048595, 0.0 ], [ 103.672030701950007, 1.41433834991792, 0.0 ], [ 103.671960790423, 1.41440228330353, 0.0 ], [ 103.671876555113002, 1.41451035932036, 0.0 ], [ 103.671803200325996, 1.41462450977927, 0.0 ], [ 103.671735432770006, 1.41475388914998, 0.0 ], [ 103.671672159061004, 1.41488271445991, 0.0 ], [ 103.671649943608998, 1.4149442012646, 0.0 ], [ 103.671615932159995, 1.41503576807437, 0.0 ], [ 103.671567623748999, 1.41517328533192, 0.0 ], [ 103.671538049112002, 1.41529637121654, 0.0 ], [ 103.671513567738998, 1.41543108300968, 0.0 ], [ 103.671506433717994, 1.41551119617107, 0.0 ], [ 103.671499130833993, 1.41557731072727, 0.0 ], [ 103.671501635002002, 1.41570959801577, 0.0 ], [ 103.671512030838997, 1.41582454203646, 0.0 ], [ 103.671525040264996, 1.41593219800096, 0.0 ], [ 103.671547130361006, 1.41604597079194, 0.0 ], [ 103.671631635753997, 1.4162947255498, 0.0 ], [ 103.671686841864002, 1.41646645840402, 0.0 ], [ 103.671800880803005, 1.41684868886537, 0.0 ], [ 103.671833573559994, 1.41694595782345, 0.0 ], [ 103.671872666515995, 1.41708824899963, 0.0 ], [ 103.671917250104002, 1.41720060261675, 0.0 ], [ 103.671984415628003, 1.41731876380975, 0.0 ], [ 103.672035768048005, 1.41739527900501, 0.0 ], [ 103.672051107727995, 1.41743513071742, 0.0 ], [ 103.672060970065004, 1.41746877994288, 0.0 ], [ 103.672047070553006, 1.41751065266022, 0.0 ], [ 103.672008414089007, 1.41755309429336, 0.0 ], [ 103.671981444731998, 1.41759391160968, 0.0 ], [ 103.671958915632999, 1.41762965848869, 0.0 ], [ 103.671949088386, 1.41767324525344, 0.0 ], [ 103.671946786619998, 1.41770627233056, 0.0 ], [ 103.671963855876001, 1.41776199478391, 0.0 ], [ 103.672003775012001, 1.41780816789024, 0.0 ], [ 103.672163643649995, 1.41800900044231, 0.0 ], [ 103.672221771192994, 1.41802383511876, 0.0 ], [ 103.672457988749002, 1.41792967970402, 0.0 ], [ 103.672500421517, 1.41788070522817, 0.0 ], [ 103.672590853322006, 1.41784154370177, 0.0 ], [ 103.672606293312001, 1.41780819468419, 0.0 ], [ 103.672624087046998, 1.41776975337777, 0.0 ], [ 103.672940679332996, 1.41770261405124, 0.0 ], [ 103.673024789112006, 1.41777475350349, 0.0 ], [ 103.673024194643006, 1.4178082129866, 0.0 ], [ 103.673022589805996, 1.41789913093463, 0.0 ], [ 103.673063712087995, 1.41798572811268, 0.0 ], [ 103.673073162289, 1.41819793964211, 0.0 ], [ 103.673114847186994, 1.41834847965817, 0.0 ], [ 103.673108335131005, 1.4184661907486, 0.0 ], [ 103.673086209345996, 1.41853033186958, 0.0 ], [ 103.672858217680002, 1.41869859301364, 0.0 ], [ 103.672647062850004, 1.418774625928, 0.0 ], [ 103.672538704540997, 1.41878324956776, 0.0 ], [ 103.672473324712996, 1.41880428855505, 0.0 ], [ 103.672450992923999, 1.41884540554345, 0.0 ], [ 103.672258108736003, 1.41899034019671, 0.0 ], [ 103.672215855139996, 1.4190597767337, 0.0 ], [ 103.672226758502006, 1.41915175275034, 0.0 ], [ 103.672265355741999, 1.41923837779907, 0.0 ], [ 103.672425077192997, 1.41933416797862, 0.0 ], [ 103.672571623509995, 1.41936613199696, 0.0 ], [ 103.672627010371002, 1.41935540925261, 0.0 ], [ 103.672720557537005, 1.41938272295199, 0.0 ], [ 103.673109532384998, 1.41971488457902, 0.0 ], [ 103.673147482732006, 1.41974860901367, 0.0 ], [ 103.673194988278993, 1.41980064921961, 0.0 ], [ 103.673271044160003, 1.41987208180429, 0.0 ], [ 103.673299348289007, 1.41990440742376, 0.0 ], [ 103.673321737391007, 1.41993144845346, 0.0 ], [ 103.673362960610007, 1.41996203679149, 0.0 ], [ 103.673408145639996, 1.41998034599974, 0.0 ], [ 103.673506396028003, 1.42003401848543, 0.0 ], [ 103.673652541531993, 1.42010686402393, 0.0 ], [ 103.673785061090996, 1.42013743428207, 0.0 ], [ 103.673928459752005, 1.42014298977547, 0.0 ], [ 103.674009147367002, 1.42013004402831, 0.0 ], [ 103.674061301500004, 1.42010080243892, 0.0 ], [ 103.674093375160993, 1.42008134644441, 0.0 ], [ 103.674130737499993, 1.42005458358399, 0.0 ], [ 103.674144780424996, 1.42003087855826, 0.0 ], [ 103.674162489611007, 1.419980455363, 0.0 ], [ 103.674170597699003, 1.41988634366056, 0.0 ], [ 103.674160476660006, 1.41983769017899, 0.0 ], [ 103.674151079450994, 1.41980845698263, 0.0 ], [ 103.674155503899996, 1.4197717890927, 0.0 ], [ 103.674318691853998, 1.4197151431175, 0.0 ], [ 103.674397386446003, 1.41968821670931, 0.0 ], [ 103.674468405349998, 1.41959498025375, 0.0 ], [ 103.674569064910997, 1.41943713562218, 0.0 ], [ 103.674628013706993, 1.41934814520255, 0.0 ], [ 103.674661792793003, 1.41929025399825, 0.0 ], [ 103.674771692668998, 1.41918243197603, 0.0 ], [ 103.674827051521007, 1.41925300846433, 0.0 ], [ 103.674812835267005, 1.41932823218411, 0.0 ], [ 103.674763665032003, 1.41944148003928, 0.0 ], [ 103.674709877031006, 1.41951412721738, 0.0 ], [ 103.674674875638999, 1.41954898970399, 0.0 ], [ 103.674612725450999, 1.41963396273419, 0.0 ], [ 103.674543356167007, 1.41971678198115, 0.0 ], [ 103.674475050002002, 1.41981133627952, 0.0 ], [ 103.674407694289997, 1.41990948909094, 0.0 ], [ 103.674373330492003, 1.41998952893958, 0.0 ], [ 103.674383174078002, 1.42011410345713, 0.0 ], [ 103.674455151402995, 1.42018443421452, 0.0 ], [ 103.674571399109993, 1.42027173202302, 0.0 ], [ 103.674641730784003, 1.42032084727107, 0.0 ], [ 103.674786047129999, 1.42045517555978, 0.0 ], [ 103.674911579926999, 1.4205956576224, 0.0 ], [ 103.674925212163004, 1.42063838507087, 0.0 ], [ 103.674933915587999, 1.4206820879842, 0.0 ], [ 103.674925319623995, 1.42070977981161, 0.0 ], [ 103.674869018487996, 1.42069977008314, 0.0 ], [ 103.674796031287997, 1.42065340481706, 0.0 ], [ 103.674730752192005, 1.42058026377831, 0.0 ], [ 103.674656945478006, 1.42050770184394, 0.0 ], [ 103.674606891004004, 1.42046280412555, 0.0 ], [ 103.674549634057996, 1.42044874098066, 0.0 ], [ 103.674490959481005, 1.42042972726754, 0.0 ], [ 103.674450590183, 1.42043439278348, 0.0 ], [ 103.674401750493999, 1.42044370341189, 0.0 ], [ 103.674333030124004, 1.42044517457134, 0.0 ], [ 103.674279242845998, 1.42045410592752, 0.0 ], [ 103.674184911512, 1.42048713748617, 0.0 ], [ 103.674142721400003, 1.42052210527378, 0.0 ], [ 103.674085110977998, 1.42057854150668, 0.0 ], [ 103.674005401263997, 1.420692695197, 0.0 ], [ 103.673910897948005, 1.4208093267082, 0.0 ], [ 103.673842928352997, 1.42089574085599, 0.0 ], [ 103.673736865528994, 1.42105276209743, 0.0 ], [ 103.673672298121005, 1.42118928436949, 0.0 ], [ 103.673632715341, 1.42128160414739, 0.0 ], [ 103.673561787501001, 1.42160439707392, 0.0 ], [ 103.673554329366993, 1.42168087650083, 0.0 ], [ 103.673512283247007, 1.42201273041107, 0.0 ], [ 103.673518677697999, 1.4221156651512, 0.0 ], [ 103.673531577356002, 1.42226594993912, 0.0 ], [ 103.673571237511993, 1.42243391502734, 0.0 ], [ 103.673651316182003, 1.42260082844605, 0.0 ], [ 103.673732286179003, 1.42270356127969, 0.0 ], [ 103.673835684717005, 1.42283533287383, 0.0 ], [ 103.673917257835996, 1.42294890269472, 0.0 ], [ 103.673955119951998, 1.42311689297683, 0.0 ], [ 103.673969505130998, 1.42321293252517, 0.0 ], [ 103.673993095189999, 1.42323403108364, 0.0 ], [ 103.673977983303999, 1.42327834369057, 0.0 ], [ 103.673900093355002, 1.42350678150773, 0.0 ], [ 103.674063368324994, 1.42404552303904, 0.0 ], [ 103.674023147659994, 1.42425331059867, 0.0 ], [ 103.674211560779, 1.42492164690427, 0.0 ], [ 103.674226622836997, 1.42497507394345, 0.0 ], [ 103.674227387228996, 1.42497953158877, 0.0 ], [ 103.674229226368993, 1.42503584442715, 0.0 ], [ 103.674246052040999, 1.42508074889688, 0.0 ], [ 103.674301341068997, 1.42517516886427, 0.0 ], [ 103.674334114187999, 1.42520399039256, 0.0 ], [ 103.674381401564006, 1.42524206182186, 0.0 ], [ 103.674415301330001, 1.42528668169859, 0.0 ], [ 103.674445592425997, 1.42533045574747, 0.0 ], [ 103.674482343912004, 1.42535469515628, 0.0 ], [ 103.674535721992001, 1.42537865536656, 0.0 ], [ 103.674582239005005, 1.42539459704079, 0.0 ], [ 103.674613613275, 1.42541982815808, 0.0 ], [ 103.674658999740998, 1.4254507007422, 0.0 ], [ 103.674722623603998, 1.42549979383369, 0.0 ], [ 103.674796923233004, 1.42554102696296, 0.0 ], [ 103.67485694682, 1.42555855038977, 0.0 ], [ 103.674903323105994, 1.42559573095188, 0.0 ], [ 103.675050878899, 1.4256682735792, 0.0 ], [ 103.675128269035994, 1.42570583882696, 0.0 ], [ 103.675234551434997, 1.42578359132299, 0.0 ], [ 103.675394040786003, 1.425904735083, 0.0 ], [ 103.675507252231995, 1.42599547647073, 0.0 ], [ 103.675546379894996, 1.42602870989291, 0.0 ], [ 103.675646106578, 1.4260880446209, 0.0 ], [ 103.675691050037003, 1.42611937657194, 0.0 ], [ 103.675808846001999, 1.4261851868551, 0.0 ], [ 103.675926307981996, 1.42623361168521, 0.0 ], [ 103.675990377944998, 1.42625108562381, 0.0 ], [ 103.676056934420004, 1.42625360432333, 0.0 ], [ 103.676140358400005, 1.42624138400962, 0.0 ], [ 103.676246565859003, 1.42621929778092, 0.0 ], [ 103.676392388538005, 1.42616989353664, 0.0 ], [ 103.676533395060005, 1.42612960852296, 0.0 ], [ 103.676658366476005, 1.4260995308226, 0.0 ], [ 103.676753771177005, 1.42607626725617, 0.0 ], [ 103.676826102291002, 1.42607417047234, 0.0 ], [ 103.676888573959999, 1.42607404542211, 0.0 ], [ 103.676905828718006, 1.42608641554015, 0.0 ], [ 103.676910769721999, 1.42611796720588, 0.0 ], [ 103.676875891609001, 1.42616238158026, 0.0 ], [ 103.676828581147007, 1.42618575787032, 0.0 ], [ 103.676755939345, 1.42619779988451, 0.0 ], [ 103.676679838229006, 1.42621939080141, 0.0 ], [ 103.676615291786007, 1.42623175079587, 0.0 ], [ 103.676586314771001, 1.42624849847012, 0.0 ], [ 103.676548786839007, 1.42626448318196, 0.0 ], [ 103.676510834650003, 1.42628228291545, 0.0 ], [ 103.676502875232003, 1.42629145168024, 0.0 ], [ 103.676403682571006, 1.42630734443739, 0.0 ], [ 103.676428014476997, 1.42636147931401, 0.0 ], [ 103.676545889843993, 1.42662213312158, 0.0 ], [ 103.676521497761001, 1.42675331616596, 0.0 ], [ 103.676560355161001, 1.42690328168788, 0.0 ], [ 103.676674631913997, 1.42700164505047, 0.0 ], [ 103.676866168198003, 1.42732964076491, 0.0 ], [ 103.676838665670999, 1.4274672346113, 0.0 ], [ 103.676894335005002, 1.42777370176181, 0.0 ], [ 103.677395602798001, 1.42816368541045, 0.0 ], [ 103.677612305134005, 1.42847873687909, 0.0 ], [ 103.677606624983994, 1.42857464120697, 0.0 ], [ 103.677640227856998, 1.42865291227997, 0.0 ], [ 103.677667221744002, 1.42871578797375, 0.0 ], [ 103.677705658020997, 1.42874229920815, 0.0 ], [ 103.677800500306006, 1.42886608006347, 0.0 ], [ 103.677920845192006, 1.42898062551414, 0.0 ], [ 103.677993742260995, 1.42907589309625, 0.0 ], [ 103.678059122470003, 1.42912007555434, 0.0 ], [ 103.678157607461003, 1.42913986604166, 0.0 ], [ 103.678267351071, 1.42910328578688, 0.0 ], [ 103.678284343892997, 1.42906914823668, 0.0 ], [ 103.678706816353994, 1.42889956950395, 0.0 ], [ 103.678800755574997, 1.42887610770888, 0.0 ], [ 103.678878242655003, 1.42882370073814, 0.0 ], [ 103.678951791607005, 1.42865771124158, 0.0 ], [ 103.678953266486999, 1.4286532890183, 0.0 ], [ 103.678995638052996, 1.42852644356113, 0.0 ], [ 103.679151586238007, 1.42852962659237, 0.0 ], [ 103.679562445626999, 1.42861016770715, 0.0 ], [ 103.679657004014999, 1.42865349113502, 0.0 ], [ 103.679662196804998, 1.42865587266585, 0.0 ], [ 103.679733667022006, 1.42868288891597, 0.0 ], [ 103.679960224294007, 1.42870410868746, 0.0 ], [ 103.680224673032001, 1.42874289366066, 0.0 ], [ 103.680660998172002, 1.42888352382053, 0.0 ], [ 103.680877709330005, 1.42904565217661, 0.0 ], [ 103.681129056310994, 1.4290493234703, 0.0 ], [ 103.681397891163996, 1.42914240460989, 0.0 ], [ 103.681454174295993, 1.4291976991559, 0.0 ], [ 103.681698154456001, 1.42943739988699, 0.0 ], [ 103.682192286177994, 1.42986591060723, 0.0 ], [ 103.682421646847999, 1.43019540789457, 0.0 ], [ 103.682510954953003, 1.4302517075402, 0.0 ], [ 103.682590371033996, 1.43020313415237, 0.0 ], [ 103.682672526757997, 1.43032230899538, 0.0 ], [ 103.682950648968003, 1.43052272192191, 0.0 ], [ 103.683053153011997, 1.43071537830622, 0.0 ], [ 103.683100698871002, 1.43087283515723, 0.0 ], [ 103.683031373896995, 1.43097737016139, 0.0 ], [ 103.683068922551001, 1.43105791228632, 0.0 ], [ 103.683144434420001, 1.43111765390358, 0.0 ], [ 103.683306064725997, 1.43117427119627, 0.0 ], [ 103.683340528589994, 1.43117092642546, 0.0 ], [ 103.683392703297997, 1.43104885111178, 0.0 ], [ 103.683489434791994, 1.43097938176996, 0.0 ], [ 103.683658227346996, 1.43097313558667, 0.0 ], [ 103.684362774381, 1.43051495661706, 0.0 ], [ 103.684731554441996, 1.43045367677524, 0.0 ], [ 103.685389620585994, 1.43044551610391, 0.0 ], [ 103.685522591818994, 1.43040934939012, 0.0 ], [ 103.685692146541001, 1.43028758638263, 0.0 ], [ 103.685777155210005, 1.4301715714363, 0.0 ], [ 103.685782887320997, 1.43003081076084, 0.0 ], [ 103.685783889022005, 1.43000621582915, 0.0 ], [ 103.685788470014998, 1.42999246893683, 0.0 ], [ 103.685808980478996, 1.42997618272514, 0.0 ], [ 103.685831422966999, 1.42997310573214, 0.0 ], [ 103.685856542078994, 1.43000252802198, 0.0 ], [ 103.685889141477006, 1.43005352341785, 0.0 ], [ 103.685918729932993, 1.4301149657949, 0.0 ], [ 103.685925775748004, 1.43017180170975, 0.0 ], [ 103.685939307569996, 1.43024299838902, 0.0 ], [ 103.685939308607004, 1.43031125049945, 0.0 ], [ 103.685927603414996, 1.43041223609709, 0.0 ], [ 103.685879441439994, 1.43061280393193, 0.0 ], [ 103.685840226798007, 1.43074181027307, 0.0 ], [ 103.685795094005996, 1.43089938950941, 0.0 ], [ 103.685782284146995, 1.43101892618638, 0.0 ], [ 103.685753470769995, 1.43111838320852, 0.0 ], [ 103.685747810833007, 1.43126853838673, 0.0 ], [ 103.685771060093998, 1.43139471992762, 0.0 ], [ 103.685784426853999, 1.43141936191163, 0.0 ], [ 103.685819500920005, 1.4314573455269, 0.0 ], [ 103.685880064269, 1.43152573630552, 0.0 ], [ 103.686078868495997, 1.43162462111883, 0.0 ], [ 103.686199474483999, 1.43165577780895, 0.0 ], [ 103.686229476592999, 1.43169879205058, 0.0 ], [ 103.686252995922999, 1.43184589599407, 0.0 ], [ 103.686313162437997, 1.43189516855015, 0.0 ], [ 103.686397524293, 1.43193229257802, 0.0 ], [ 103.686524188093998, 1.43195734520815, 0.0 ], [ 103.686850293649002, 1.43193428419835, 0.0 ], [ 103.687267284468007, 1.43199692529993, 0.0 ], [ 103.687345988247003, 1.43200043655195, 0.0 ], [ 103.687381204936997, 1.43198614176773, 0.0 ], [ 103.687415549196004, 1.43195603869927, 0.0 ], [ 103.687489888797998, 1.43195510111559, 0.0 ], [ 103.687535919099005, 1.43199821856164, 0.0 ], [ 103.687575886307002, 1.4320034112462, 0.0 ], [ 103.687656607606002, 1.43194711361509, 0.0 ], [ 103.687726503638004, 1.43183284937451, 0.0 ], [ 103.687776416282006, 1.43171249027089, 0.0 ], [ 103.687939685756007, 1.43205511510086, 0.0 ], [ 103.688480560296, 1.43258566574772, 0.0 ], [ 103.688453948741, 1.43263924201155, 0.0 ], [ 103.688459501913002, 1.43275564536851, 0.0 ], [ 103.688525260700999, 1.43291519237894, 0.0 ], [ 103.688603416969997, 1.43299515641757, 0.0 ], [ 103.688603218899999, 1.4330441601045, 0.0 ], [ 103.688627340300997, 1.43305038725838, 0.0 ], [ 103.688651740899004, 1.43298924044721, 0.0 ], [ 103.688941912572005, 1.43289859849786, 0.0 ], [ 103.689231689012004, 1.43290596207732, 0.0 ], [ 103.689430436666996, 1.4330231915818, 0.0 ], [ 103.689478781478002, 1.43311466622371, 0.0 ], [ 103.689560563716, 1.43319286424564, 0.0 ], [ 103.689568472749002, 1.43325645669295, 0.0 ], [ 103.689580549699002, 1.43330164384978, 0.0 ], [ 103.689615627547994, 1.43333811261098, 0.0 ], [ 103.689646474466997, 1.43335152351825, 0.0 ], [ 103.689687172598994, 1.43335130451886, 0.0 ], [ 103.689736858955996, 1.43334289528885, 0.0 ], [ 103.689795534406997, 1.43332674258191, 0.0 ], [ 103.689851015616995, 1.43330653542189, 0.0 ], [ 103.689893729660994, 1.43327146157059, 0.0 ], [ 103.68994177143, 1.43322233157181, 0.0 ], [ 103.689973189187, 1.43318867594937, 0.0 ], [ 103.690021339623996, 1.43315493184824, 0.0 ], [ 103.690112846700998, 1.43311326284613, 0.0 ], [ 103.690152565139996, 1.43310218873178, 0.0 ], [ 103.690220809942005, 1.43309639335654, 0.0 ], [ 103.690321930292001, 1.43309585257333, 0.0 ], [ 103.690360665574005, 1.433086345651, 0.0 ], [ 103.690409853283995, 1.4330766630339, 0.0 ], [ 103.690449553836004, 1.4330641925797, 0.0 ], [ 103.690494690386998, 1.43305948097863, 0.0 ], [ 103.690520878875006, 1.43306055881132, 0.0 ], [ 103.690552938702993, 1.4330625820692, 0.0 ], [ 103.690586375452, 1.43307461307151, 0.0 ], [ 103.690608065142996, 1.43308293093506, 0.0 ], [ 103.690622983948003, 1.43309120677335, 0.0 ], [ 103.690635653355002, 1.43310310443625, 0.0 ], [ 103.690666418535997, 1.43313056819009, 0.0 ], [ 103.690683633971005, 1.43315612922335, 0.0 ], [ 103.690696331317, 1.43318120614025, 0.0 ], [ 103.690707228785001, 1.43320627118764, 0.0 ], [ 103.690719950702999, 1.43324089182741, 0.0 ], [ 103.690729944104007, 1.43326731426392, 0.0 ], [ 103.690741271606001, 1.43328420210617, 0.0 ], [ 103.690759404139001, 1.43331567590856, 0.0 ], [ 103.690773899820996, 1.4333366742698, 0.0 ], [ 103.690791094312004, 1.43335223397306, 0.0 ], [ 103.690812818151002, 1.43337509757916, 0.0 ], [ 103.690829565844993, 1.43339383698741, 0.0 ], [ 103.690853980545995, 1.43340899108428, 0.0 ], [ 103.690878853388995, 1.43342642058185, 0.0 ], [ 103.690898735174002, 1.43343381949912, 0.0 ], [ 103.690924482178005, 1.43343943628775, 0.0 ], [ 103.690966489925003, 1.43344788655201, 0.0 ], [ 103.691008953988998, 1.4334590643968, 0.0 ], [ 103.691046440193006, 1.43346475878893, 0.0 ], [ 103.691093421421002, 1.43347687564136, 0.0 ], [ 103.691122784301996, 1.43348342595438, 0.0 ], [ 103.691150333937998, 1.43348814572712, 0.0 ], [ 103.691199560184998, 1.43349482389068, 0.0 ], [ 103.691232068472999, 1.43349594190231, 0.0 ], [ 103.691298443636995, 1.4334995472115, 0.0 ], [ 103.691347659409999, 1.43350122606366, 0.0 ], [ 103.691409068031007, 1.4335052552051, 0.0 ], [ 103.691466872261998, 1.43351153326602, 0.0 ], [ 103.691504361080007, 1.43351858871429, 0.0 ], [ 103.691538678178006, 1.43352062656945, 0.0 ], [ 103.691587902658995, 1.43352684983109, 0.0 ], [ 103.691634866395006, 1.43353124071553, 0.0 ], [ 103.691675046943004, 1.43353104335334, 0.0 ], [ 103.691707093663993, 1.43352715840437, 0.0 ], [ 103.691721966024005, 1.43351634588524, 0.0 ], [ 103.691776068579003, 1.43348488020097, 0.0 ], [ 103.691795000886003, 1.43347227729903, 0.0 ], [ 103.691822053932, 1.43345699799326, 0.0 ], [ 103.691851826708003, 1.43344673625114, 0.0 ], [ 103.691874379216998, 1.4334377908095, 0.0 ], [ 103.691892880596001, 1.43343336511223, 0.0 ], [ 103.691919514904001, 1.43343262790443, 0.0 ], [ 103.691956091904004, 1.43343558743754, 0.0 ], [ 103.692004404535993, 1.4334381687716, 0.0 ], [ 103.692035111964998, 1.43344063777524, 0.0 ], [ 103.692276231172997, 1.43345445147375, 0.0 ], [ 103.692448713575999, 1.43346282749775, 0.0 ], [ 103.692575594312004, 1.43347000150598, 0.0 ], [ 103.692653260200998, 1.43347504359948, 0.0 ], [ 103.692699319984001, 1.43347897318202, 0.0 ], [ 103.692731844034, 1.43348690734251, 0.0 ], [ 103.692764307231997, 1.43350545598453, 0.0 ], [ 103.692817529042998, 1.43354951883787, 0.0 ], [ 103.692892156696004, 1.43361518910146, 0.0 ], [ 103.692952762708003, 1.43365162231352, 0.0 ], [ 103.692987933454006, 1.43366874132492, 0.0 ], [ 103.693014728259996, 1.43367381101686, 0.0 ], [ 103.693015269303999, 1.43367231433266, 0.0 ] ] ], [ [ [ 103.661128293386, 1.3968050889107, 0.0 ], [ 103.660996045076999, 1.39677253033587, 0.0 ], [ 103.660670764862004, 1.39690864232698, 0.0 ], [ 103.660471643183001, 1.39702934156081, 0.0 ], [ 103.660288576769005, 1.39708292851014, 0.0 ], [ 103.660423672912998, 1.39718588723611, 0.0 ], [ 103.660492510709005, 1.39730140984563, 0.0 ], [ 103.660552192436995, 1.39734967271862, 0.0 ], [ 103.660592686919998, 1.3974586194359, 0.0 ], [ 103.660597712284996, 1.39774661504003, 0.0 ], [ 103.660682356768007, 1.39785256797517, 0.0 ], [ 103.660731705904993, 1.39809595930468, 0.0 ], [ 103.660825773976001, 1.39821155612389, 0.0 ], [ 103.661025933882996, 1.3985676237605, 0.0 ], [ 103.660987817644994, 1.3986346258777, 0.0 ], [ 103.660912082392997, 1.3986534743764, 0.0 ], [ 103.660801316567998, 1.39875218340357, 0.0 ], [ 103.660813467734002, 1.39885462477065, 0.0 ], [ 103.660913644020994, 1.39901183526031, 0.0 ], [ 103.661253051208007, 1.39924373008787, 0.0 ], [ 103.661331955991997, 1.39922170298879, 0.0 ], [ 103.661515555280005, 1.39904653114757, 0.0 ], [ 103.661649179723995, 1.39872910068859, 0.0 ], [ 103.661908230451004, 1.39792524951516, 0.0 ], [ 103.661875817283004, 1.39741315418682, 0.0 ], [ 103.661649922715, 1.39717216724636, 0.0 ], [ 103.661505273683005, 1.39709474519917, 0.0 ], [ 103.661369838536004, 1.3970685440591, 0.0 ], [ 103.661300688032, 1.39702663725443, 0.0 ], [ 103.661241273100998, 1.39691758153278, 0.0 ], [ 103.661128293386, 1.3968050889107, 0.0 ] ] ], [ [ [ 103.685271779174002, 1.43353047566976, 0.0 ], [ 103.685211487567997, 1.43351185819311, 0.0 ], [ 103.685132842791006, 1.43355438515895, 0.0 ], [ 103.684987274326005, 1.43372527724576, 0.0 ], [ 103.684781794863, 1.43378567332811, 0.0 ], [ 103.684319019586994, 1.43408601562526, 0.0 ], [ 103.684254424014, 1.43413232280046, 0.0 ], [ 103.684254137937003, 1.43422066797078, 0.0 ], [ 103.684349828817005, 1.43441778056235, 0.0 ], [ 103.684445903036007, 1.43449556820618, 0.0 ], [ 103.684664309853005, 1.43457222977941, 0.0 ], [ 103.684804652617998, 1.43467340345471, 0.0 ], [ 103.685000095451997, 1.4347577297643, 0.0 ], [ 103.685213422792003, 1.43498469571338, 0.0 ], [ 103.685317193505, 1.43504856571512, 0.0 ], [ 103.685398195286993, 1.43506280381742, 0.0 ], [ 103.685479312984, 1.43503514741253, 0.0 ], [ 103.685595734250995, 1.43497043983013, 0.0 ], [ 103.685652547908006, 1.43489781521313, 0.0 ], [ 103.685709779565997, 1.43469654078074, 0.0 ], [ 103.685653697399999, 1.43454446887646, 0.0 ], [ 103.685495095210001, 1.43441531766338, 0.0 ], [ 103.685467701529006, 1.4343749406964, 0.0 ], [ 103.685473674139999, 1.43408606112715, 0.0 ], [ 103.685451323527005, 1.4339170699181, 0.0 ], [ 103.685403442470005, 1.43381275602643, 0.0 ], [ 103.685337949702003, 1.43358586664448, 0.0 ], [ 103.685271779174002, 1.43353047566976, 0.0 ] ] ] ] } }
]
}
