{
"type": "FeatureCollection",
"crs": { "type": "name", "properties": { "name": "urn:ogc:def:crs:OGC:1.3:CRS84" } },
"features": [
{ "type": "Feature", "properties": { "Name": "kml_327", "Description": "<center><table><tr><th colspan='2' align='center'><em>Attributes<\/em><\/th><\/tr><tr bgcolor=\"#E3E3F3\"> <th>SUBZONE_NO<\/th> <td>7<\/td> <\/tr><tr bgcolor=\"\"> <th>SUBZONE_N<\/th> <td>NEE SOON<\/td> <\/tr><tr bgcolor=\"#E3E3F3\"> <th>SUBZONE_C<\/th> <td>YSSZ07<\/td> <\/tr><tr bgcolor=\"\"> <th>CA_IND<\/th> <td>N<\/td> <\/tr><tr bgcolor=\"#E3E3F3\"> <th>PLN_AREA_N<\/th> <td>YISHUN<\/td> <\/tr><tr bgcolor=\"\"> <th>PLN_AREA_C<\/th> <td>YS<\/td> <\/tr><tr bgcolor=\"#E3E3F3\"> <th>REGION_N<\/th> <td>NORTH REGION<\/td> <\/tr><tr bgcolor=\"\"> <th>REGION_C<\/th> <td>NR<\/td> <\/tr><tr bgcolor=\"#E3E3F3\"> <th>INC_CRC<\/th> <td>DF8BD7E1E39CEFFD<\/td> <\/tr><tr bgcolor=\"\"> <th>FMEL_UPD_D<\/th> <td>20191223152313<\/td> <\/tr><\/table><\/center>", "Subzone": "NEE SOON" }, "geometry": { "type": "Polygon", "coordinates": [ [ [ 103.811111057473994, 1.41527261872857, 0.0 ], [ 103.814663843324993, 1.41370336635938, 0.0 ], [ 103.815251505766, 1.41357782000697, 0.0 ], [ 103.815828671828001, 1.41356206862906, 0.0 ], [ 103.816537906118, 1.41364004001685, 0.0 ], [ 103.818108748447003, 1.41390214010005, 0.0 ], [ 103.819679745600993, 1.414180523999, 0.0 ], [ 103.820315583723996, 1.41423980692124, 0.0 ], [ 103.820771844865007, 1.41425464644557, 0.0 ], [ 103.821024993104999, 1.41424277803377, 0.0 ], [ 103.821660814317994, 1.41410048600554, 0.0 ], [ 103.822314310070993, 1.41389297929827, 0.0 ], [ 103.822708759106007, 1.4137210470949, 0.0 ], [ 103.823079673799995, 1.41341102015454, 0.0 ], [ 103.822734377277001, 1.41205648850959, 0.0 ], [ 103.822386394560993, 1.41123929729203, 0.0 ], [ 103.822043643024998, 1.41055209570148, 0.0 ], [ 103.820776158645003, 1.40795001880818, 0.0 ], [ 103.820379471224996, 1.40713563957849, 0.0 ], [ 103.820283365901005, 1.40695992383169, 0.0 ], [ 103.819734199188005, 1.40595575922569, 0.0 ], [ 103.819473630838004, 1.40544185827536, 0.0 ], [ 103.819198482169, 1.40493048490329, 0.0 ], [ 103.818228525514002, 1.40373030729164, 0.0 ], [ 103.817994543184, 1.40335835079544, 0.0 ], [ 103.817728236991002, 1.40273257164085, 0.0 ], [ 103.817507834826998, 1.40226997711202, 0.0 ], [ 103.817452120685999, 1.40217009696302, 0.0 ], [ 103.817238306473996, 1.40165796500973, 0.0 ], [ 103.817163827271997, 1.40103289341228, 0.0 ], [ 103.817390929762993, 1.39979935964106, 0.0 ], [ 103.818009872787997, 1.39827461327155, 0.0 ], [ 103.818397868199, 1.39716824123549, 0.0 ], [ 103.818591865694003, 1.39655462332098, 0.0 ], [ 103.818692154957006, 1.39603763610038, 0.0 ], [ 103.818785031241006, 1.3953170764762, 0.0 ], [ 103.818822489134007, 1.39434085820381, 0.0 ], [ 103.817163862512999, 1.39483036783831, 0.0 ], [ 103.817086296056004, 1.39485326037254, 0.0 ], [ 103.816442775550001, 1.39509626838314, 0.0 ], [ 103.816241606038005, 1.39521450619075, 0.0 ], [ 103.815634013316995, 1.39557161875436, 0.0 ], [ 103.815011076673002, 1.39610751928533, 0.0 ], [ 103.814530489055002, 1.39666928198818, 0.0 ], [ 103.814114749943002, 1.39734546706636, 0.0 ], [ 103.813909511071998, 1.39782587258016, 0.0 ], [ 103.813796344550994, 1.39816985010751, 0.0 ], [ 103.813233910554999, 1.39981038153663, 0.0 ], [ 103.812995885961996, 1.40035642450569, 0.0 ], [ 103.812439684848002, 1.40153368173585, 0.0 ], [ 103.811808684108001, 1.40272644796383, 0.0 ], [ 103.811759076271002, 1.40280070935157, 0.0 ], [ 103.81108575332, 1.40380863925211, 0.0 ], [ 103.810045578818006, 1.40506527079994, 0.0 ], [ 103.809127730246004, 1.40631211881594, 0.0 ], [ 103.808754143439003, 1.40695986464149, 0.0 ], [ 103.808193111248997, 1.4081519947497, 0.0 ], [ 103.807536038305997, 1.40985996374995, 0.0 ], [ 103.807019599274, 1.4112588252681, 0.0 ], [ 103.806619418235996, 1.41238598905137, 0.0 ], [ 103.806201457987001, 1.41338219793947, 0.0 ], [ 103.805944685545001, 1.41402824982897, 0.0 ], [ 103.805776584821004, 1.41435500081331, 0.0 ], [ 103.805931748044003, 1.41430457533415, 0.0 ], [ 103.806128946947993, 1.4142726780426, 0.0 ], [ 103.806347081753003, 1.41426451962567, 0.0 ], [ 103.806558864037001, 1.41429190080476, 0.0 ], [ 103.806692598699001, 1.41431456118943, 0.0 ], [ 103.806764449585998, 1.41432673565995, 0.0 ], [ 103.806903262521999, 1.41439749468221, 0.0 ], [ 103.807017035580998, 1.41445549012365, 0.0 ], [ 103.807126975293997, 1.41451153118573, 0.0 ], [ 103.807233180506003, 1.41456566941885, 0.0 ], [ 103.807350933400997, 1.4146256933772, 0.0 ], [ 103.807460922553005, 1.41468175974631, 0.0 ], [ 103.807565211105, 1.41473492032551, 0.0 ], [ 103.807677361356994, 1.41479208822377, 0.0 ], [ 103.807817772028997, 1.41486366204133, 0.0 ], [ 103.807925893049998, 1.41491877607276, 0.0 ], [ 103.808035980176001, 1.41497489215591, 0.0 ], [ 103.808098494554997, 1.41500675900567, 0.0 ], [ 103.808167864221005, 1.41504211948618, 0.0 ], [ 103.808254007759999, 1.41508305374158, 0.0 ], [ 103.808342794064998, 1.41512250938756, 0.0 ], [ 103.808443200884, 1.41516389958993, 0.0 ], [ 103.808559202667993, 1.41520759970093, 0.0 ], [ 103.808675260214002, 1.41524705381846, 0.0 ], [ 103.808760270804996, 1.41527332378315, 0.0 ], [ 103.808913102128002, 1.41531512691348, 0.0 ], [ 103.809048727410996, 1.41534654142493, 0.0 ], [ 103.809178981903003, 1.41537181071978, 0.0 ], [ 103.809334257581995, 1.41539579607131, 0.0 ], [ 103.809485407918999, 1.41541284309024, 0.0 ], [ 103.809608800069, 1.41542221086018, 0.0 ], [ 103.809783800830004, 1.41542854681944, 0.0 ], [ 103.809909754952997, 1.41542808145124, 0.0 ], [ 103.810034850947005, 1.41542553150878, 0.0 ], [ 103.810153582243004, 1.41542311172392, 0.0 ], [ 103.810296078489003, 1.41542020652722, 0.0 ], [ 103.810438169471993, 1.41541731036129, 0.0 ], [ 103.810588553805999, 1.41538497360723, 0.0 ], [ 103.810757120193998, 1.41534872655209, 0.0 ], [ 103.810922110191001, 1.41531324815903, 0.0 ], [ 103.811111057473994, 1.41527261872857, 0.0 ] ] ] } }
]
}
