{
"type": "FeatureCollection",
"crs": { "type": "name", "properties": { "name": "urn:ogc:def:crs:OGC:1.3:CRS84" } },
"features": [
{ "type": "Feature", "properties": { "Name": "kml_125", "Description": "<center><table><tr><th colspan='2' align='center'><em>Attributes<\/em><\/th><\/tr><tr bgcolor=\"#E3E3F3\"> <th>SUBZONE_NO<\/th> <td>9<\/td> <\/tr><tr bgcolor=\"\"> <th>SUBZONE_N<\/th> <td>PANDAN<\/td> <\/tr><tr bgcolor=\"#E3E3F3\"> <th>SUBZONE_C<\/th> <td>CLSZ09<\/td> <\/tr><tr bgcolor=\"\"> <th>CA_IND<\/th> <td>N<\/td> <\/tr><tr bgcolor=\"#E3E3F3\"> <th>PLN_AREA_N<\/th> <td>CLEMENTI<\/td> <\/tr><tr bgcolor=\"\"> <th>PLN_AREA_C<\/th> <td>CL<\/td> <\/tr><tr bgcolor=\"#E3E3F3\"> <th>REGION_N<\/th> <td>WEST REGION<\/td> <\/tr><tr bgcolor=\"\"> <th>REGION_C<\/th> <td>WR<\/td> <\/tr><tr bgcolor=\"#E3E3F3\"> <th>INC_CRC<\/th> <td>514BECD2F891A439<\/td> <\/tr><tr bgcolor=\"\"> <th>FMEL_UPD_D<\/th> <td>20191223152313<\/td> <\/tr><\/table><\/center>", "Subzone": "PANDAN" }, "geometry": { "type": "Polygon", "coordinates": [ [ [ 103.756460482717998, 1.31038691355569, 0.0 ], [ 103.759262046317005, 1.30662164740508, 0.0 ], [ 103.760894448008003, 1.30428559096136, 0.0 ], [ 103.762314262429996, 1.30134391890369, 0.0 ], [ 103.762143327058993, 1.30133691337237, 0.0 ], [ 103.761334562605001, 1.30113167830684, 0.0 ], [ 103.761023883926995, 1.30102506292859, 0.0 ], [ 103.758665366101994, 1.29921722074783, 0.0 ], [ 103.758632325901004, 1.29924240178158, 0.0 ], [ 103.758570776954997, 1.29928931021631, 0.0 ], [ 103.758310962023003, 1.29910784724962, 0.0 ], [ 103.757413431977, 1.2984651023338, 0.0 ], [ 103.757281154761998, 1.29837169652189, 0.0 ], [ 103.757260449981004, 1.29841978635578, 0.0 ], [ 103.755321847559998, 1.30225120227389, 0.0 ], [ 103.755235052512006, 1.30245868597947, 0.0 ], [ 103.75342852, 1.30677694484009, 0.0 ], [ 103.753425492572006, 1.30678404852136, 0.0 ], [ 103.752904370899003, 1.30742506025975, 0.0 ], [ 103.752902906209997, 1.30742686170532, 0.0 ], [ 103.752894717432994, 1.30743693515028, 0.0 ], [ 103.752759968771997, 1.30760268441725, 0.0 ], [ 103.752752435060003, 1.30761195119027, 0.0 ], [ 103.752478861322999, 1.30782027521025, 0.0 ], [ 103.751613952314003, 1.30840767201953, 0.0 ], [ 103.751117699386995, 1.30873137724943, 0.0 ], [ 103.750693489975006, 1.30897533344092, 0.0 ], [ 103.750420502414997, 1.30908228890424, 0.0 ], [ 103.75022650535, 1.30915829512167, 0.0 ], [ 103.749783127949996, 1.30929445577271, 0.0 ], [ 103.749404697358997, 1.30938114440676, 0.0 ], [ 103.749359032833993, 1.3093916063566, 0.0 ], [ 103.749141814921998, 1.30942977221913, 0.0 ], [ 103.749000449592003, 1.30944364761231, 0.0 ], [ 103.748814264285002, 1.30944364130234, 0.0 ], [ 103.748669455203995, 1.30941934607927, 0.0 ], [ 103.748476373618999, 1.30936381428938, 0.0 ], [ 103.748369489652006, 1.30933604848848, 0.0 ], [ 103.748279845764003, 1.30931869521145, 0.0 ], [ 103.748197099009005, 1.30930481221058, 0.0 ], [ 103.748128140112996, 1.30930133890515, 0.0 ], [ 103.748108613781, 1.30930133823727, 0.0 ], [ 103.748086764704993, 1.30930133748977, 0.0 ], [ 103.748028150549004, 1.30930480643149, 0.0 ], [ 103.747990223414007, 1.30931521526343, 0.0 ], [ 103.747948849449998, 1.30932562488099, 0.0 ], [ 103.747921265258, 1.30934297415353, 0.0 ], [ 103.747859201964999, 1.30938808530495, 0.0 ], [ 103.747800583849994, 1.30948177899203, 0.0 ], [ 103.747759205882005, 1.30961017461, 0.0 ], [ 103.747728167923, 1.30975245166099, 0.0 ], [ 103.747712195778007, 1.30987200166471, 0.0 ], [ 103.747691714921004, 1.30993270185304, 0.0 ], [ 103.747614593159994, 1.31060318179359, 0.0 ], [ 103.747543396674999, 1.3112383275356, 0.0 ], [ 103.747490131120003, 1.31170218740488, 0.0 ], [ 103.747488489673003, 1.3117754281466, 0.0 ], [ 103.747480174445997, 1.31214627394954, 0.0 ], [ 103.747466569500006, 1.31275301379335, 0.0 ], [ 103.747506266328998, 1.31323154293203, 0.0 ], [ 103.747625213820996, 1.31374993101803, 0.0 ], [ 103.749448329361002, 1.31707944266832, 0.0 ], [ 103.749688956545, 1.31745810156091, 0.0 ], [ 103.749768299161005, 1.31760108323799, 0.0 ], [ 103.749768817592994, 1.3176020174632, 0.0 ], [ 103.750153604226, 1.3174536243353, 0.0 ], [ 103.750577264751001, 1.31719762582129, 0.0 ], [ 103.752446882653004, 1.31516222970384, 0.0 ], [ 103.754487868610994, 1.31295893320835, 0.0 ], [ 103.756460482717998, 1.31038691355569, 0.0 ] ] ] } }
]
}
