{
"type": "FeatureCollection",
"crs": { "type": "name", "properties": { "name": "urn:ogc:def:crs:OGC:1.3:CRS84" } },
"features": [
{ "type": "Feature", "properties": { "Name": "kml_240", "Description": "<center><table><tr><th colspan='2' align='center'><em>Attributes<\/em><\/th><\/tr><tr bgcolor=\"#E3E3F3\"> <th>SUBZONE_NO<\/th> <td>4<\/td> <\/tr><tr bgcolor=\"\"> <th>SUBZONE_N<\/th> <td>PENG SIANG<\/td> <\/tr><tr bgcolor=\"#E3E3F3\"> <th>SUBZONE_C<\/th> <td>CKSZ04<\/td> <\/tr><tr bgcolor=\"\"> <th>CA_IND<\/th> <td>N<\/td> <\/tr><tr bgcolor=\"#E3E3F3\"> <th>PLN_AREA_N<\/th> <td>CHOA CHU KANG<\/td> <\/tr><tr bgcolor=\"\"> <th>PLN_AREA_C<\/th> <td>CK<\/td> <\/tr><tr bgcolor=\"#E3E3F3\"> <th>REGION_N<\/th> <td>WEST REGION<\/td> <\/tr><tr bgcolor=\"\"> <th>REGION_C<\/th> <td>WR<\/td> <\/tr><tr bgcolor=\"#E3E3F3\"> <th>INC_CRC<\/th> <td>55D32D2C89CA2B41<\/td> <\/tr><tr bgcolor=\"\"> <th>FMEL_UPD_D<\/th> <td>20191223152313<\/td> <\/tr><\/table><\/center>", "Subzone": "PENG SIANG" }, "geometry": { "type": "Polygon", "coordinates": [ [ [ 103.742353330981999, 1.37620175574782, 0.0 ], [ 103.741338236223996, 1.37270292030263, 0.0 ], [ 103.740146927498003, 1.37306284746335, 0.0 ], [ 103.739260505667005, 1.37341120482337, 0.0 ], [ 103.738672475724997, 1.37368609425262, 0.0 ], [ 103.738368552669996, 1.37383357106368, 0.0 ], [ 103.738042443948004, 1.37402446269713, 0.0 ], [ 103.737801418401006, 1.37418625892396, 0.0 ], [ 103.737601413674994, 1.37432051711705, 0.0 ], [ 103.737092284091005, 1.37470919625406, 0.0 ], [ 103.736908352689994, 1.37484922396553, 0.0 ], [ 103.735401495174997, 1.37603663326312, 0.0 ], [ 103.734983679921001, 1.37639352278434, 0.0 ], [ 103.734409185407998, 1.37696109148793, 0.0 ], [ 103.733943064239995, 1.3774959528717, 0.0 ], [ 103.733538342667998, 1.3779785490847, 0.0 ], [ 103.732666672394004, 1.37893425727442, 0.0 ], [ 103.733732416763999, 1.37984718161053, 0.0 ], [ 103.734690289683002, 1.38072544221494, 0.0 ], [ 103.734851904839999, 1.38086626187197, 0.0 ], [ 103.735227994498004, 1.38117432612262, 0.0 ], [ 103.735572370528004, 1.3814695651412, 0.0 ], [ 103.735632420084997, 1.38152105933564, 0.0 ], [ 103.735668852367994, 1.3815522993453, 0.0 ], [ 103.735963587643994, 1.38180504386505, 0.0 ], [ 103.736358138455003, 1.3821435595185, 0.0 ], [ 103.736514190112999, 1.3822776313938, 0.0 ], [ 103.736820852809004, 1.38254103965001, 0.0 ], [ 103.737295518910997, 1.38294696241471, 0.0 ], [ 103.737708462406005, 1.38330077591348, 0.0 ], [ 103.741569578436994, 1.38661265871575, 0.0 ], [ 103.742160890559006, 1.38536678600145, 0.0 ], [ 103.742233168143997, 1.38518372582764, 0.0 ], [ 103.742329530244007, 1.38490581427414, 0.0 ], [ 103.742421525517003, 1.3845264447708, 0.0 ], [ 103.742465323241007, 1.38428272785797, 0.0 ], [ 103.742534886737999, 1.38396662671846, 0.0 ], [ 103.742724812142001, 1.38313772922525, 0.0 ], [ 103.742977819044, 1.38211965945297, 0.0 ], [ 103.743055831457994, 1.38190467001532, 0.0 ], [ 103.743171320523999, 1.38171737450687, 0.0 ], [ 103.743329744834, 1.3814924826377, 0.0 ], [ 103.743334772582998, 1.38148638290038, 0.0 ], [ 103.743172873581003, 1.38137512288334, 0.0 ], [ 103.742465627117994, 1.38089896128641, 0.0 ], [ 103.741129069251997, 1.37999175560342, 0.0 ], [ 103.739156651887996, 1.37865031400183, 0.0 ], [ 103.739135777710999, 1.37863609025415, 0.0 ], [ 103.739640152532999, 1.37790487943084, 0.0 ], [ 103.740017352432005, 1.37732831949288, 0.0 ], [ 103.740062636809, 1.37726042079634, 0.0 ], [ 103.740277272740997, 1.37699673144832, 0.0 ], [ 103.740463735953995, 1.37681952701924, 0.0 ], [ 103.741177296600995, 1.37653106849167, 0.0 ], [ 103.741842064774005, 1.37631012488848, 0.0 ], [ 103.742353330981999, 1.37620175574782, 0.0 ] ] ] } }
]
}
