{
"type": "FeatureCollection",
"crs": { "type": "name", "properties": { "name": "urn:ogc:def:crs:OGC:1.3:CRS84" } },
"features": [
{ "type": "Feature", "properties": { "Name": "kml_292", "Description": "<center><table><tr><th colspan='2' align='center'><em>Attributes<\/em><\/th><\/tr><tr bgcolor=\"#E3E3F3\"> <th>SUBZONE_NO<\/th> <td>2<\/td> <\/tr><tr bgcolor=\"\"> <th>SUBZONE_N<\/th> <td>PEOPLE'S PARK<\/td> <\/tr><tr bgcolor=\"#E3E3F3\"> <th>SUBZONE_C<\/th> <td>OTSZ02<\/td> <\/tr><tr bgcolor=\"\"> <th>CA_IND<\/th> <td>Y<\/td> <\/tr><tr bgcolor=\"#E3E3F3\"> <th>PLN_AREA_N<\/th> <td>OUTRAM<\/td> <\/tr><tr bgcolor=\"\"> <th>PLN_AREA_C<\/th> <td>OT<\/td> <\/tr><tr bgcolor=\"#E3E3F3\"> <th>REGION_N<\/th> <td>CENTRAL REGION<\/td> <\/tr><tr bgcolor=\"\"> <th>REGION_C<\/th> <td>CR<\/td> <\/tr><tr bgcolor=\"#E3E3F3\"> <th>INC_CRC<\/th> <td>63E72AD190C5910E<\/td> <\/tr><tr bgcolor=\"\"> <th>FMEL_UPD_D<\/th> <td>20191223152313<\/td> <\/tr><\/table><\/center>", "Subzone": "PEOPLE'S PARK" }, "geometry": { "type": "Polygon", "coordinates": [ [ [ 103.843193716241998, 1.28432838941169, 0.0 ], [ 103.843354932579004, 1.28419544623582, 0.0 ], [ 103.843306797585001, 1.28413456638878, 0.0 ], [ 103.843121096447007, 1.28389969359761, 0.0 ], [ 103.842922960430002, 1.28365738876832, 0.0 ], [ 103.842711573688007, 1.28341338376572, 0.0 ], [ 103.842610177593002, 1.28329087434534, 0.0 ], [ 103.842457140430994, 1.28310097635518, 0.0 ], [ 103.842279635107005, 1.28289150346303, 0.0 ], [ 103.842126156898004, 1.28272727856479, 0.0 ], [ 103.841947282253003, 1.28251748822111, 0.0 ], [ 103.841814258452004, 1.2823614278404, 0.0 ], [ 103.841707151324002, 1.28223732038862, 0.0 ], [ 103.841552140226, 1.28205511216299, 0.0 ], [ 103.841341002625001, 1.28180637449913, 0.0 ], [ 103.841115579141004, 1.28153745776614, 0.0 ], [ 103.840899507724004, 1.28127973340491, 0.0 ], [ 103.840740799239001, 1.2810919768599, 0.0 ], [ 103.840558416907996, 1.28087523457143, 0.0 ], [ 103.840343586489993, 1.28062004780552, 0.0 ], [ 103.840193225529006, 1.28044106354186, 0.0 ], [ 103.840055151247, 1.28028044146225, 0.0 ], [ 103.839614605855004, 1.27980700573177, 0.0 ], [ 103.839241684320996, 1.28079201197489, 0.0 ], [ 103.838966208534003, 1.28114518971499, 0.0 ], [ 103.838585120201003, 1.28147374992698, 0.0 ], [ 103.838206840417001, 1.28170402731297, 0.0 ], [ 103.838141186973004, 1.28174399041974, 0.0 ], [ 103.838547688039995, 1.28238890581427, 0.0 ], [ 103.838702411729997, 1.2822914276146, 0.0 ], [ 103.838823456415, 1.28221095244336, 0.0 ], [ 103.839087346124998, 1.28205781303419, 0.0 ], [ 103.839203837949, 1.28200277764048, 0.0 ], [ 103.839360746105001, 1.28197645663681, 0.0 ], [ 103.839534295262993, 1.28197884916937, 0.0 ], [ 103.839719731249005, 1.28200516934751, 0.0 ], [ 103.840602150934004, 1.28228166389372, 0.0 ], [ 103.840665329947996, 1.28230146026053, 0.0 ], [ 103.840727745205001, 1.28232101697129, 0.0 ], [ 103.840717992674996, 1.28239455000701, 0.0 ], [ 103.840705133094005, 1.28250151290092, 0.0 ], [ 103.840704877148994, 1.28255022651809, 0.0 ], [ 103.840704463150004, 1.28262953570528, 0.0 ], [ 103.840699116270002, 1.28274324875694, 0.0 ], [ 103.840695392883006, 1.28279876501698, 0.0 ], [ 103.840694093820005, 1.28287731725313, 0.0 ], [ 103.840712959908998, 1.28300419055265, 0.0 ], [ 103.840758260952001, 1.28310813450678, 0.0 ], [ 103.840784560418996, 1.28315202325918, 0.0 ], [ 103.840856902970998, 1.28324470778877, 0.0 ], [ 103.840939457447007, 1.2833450314561, 0.0 ], [ 103.841003872155994, 1.28342331308944, 0.0 ], [ 103.841088006285005, 1.28352657864602, 0.0 ], [ 103.841097422122999, 1.28354185062755, 0.0 ], [ 103.841131532636993, 1.2835971795684, 0.0 ], [ 103.841150831601993, 1.2836431601343, 0.0 ], [ 103.841161343712002, 1.28367565483756, 0.0 ], [ 103.841168107102007, 1.28370358703135, 0.0 ], [ 103.84117254057, 1.28372828612775, 0.0 ], [ 103.841175237149997, 1.28374929270757, 0.0 ], [ 103.841177302085001, 1.28377936735629, 0.0 ], [ 103.841176947283003, 1.28381905993329, 0.0 ], [ 103.841176460441005, 1.28387340683966, 0.0 ], [ 103.841176471226007, 1.28387431934382, 0.0 ], [ 103.841173490060001, 1.28393588128112, 0.0 ], [ 103.841177195636007, 1.28393590478318, 0.0 ], [ 103.841242333451007, 1.28393632239782, 0.0 ], [ 103.841247936743002, 1.2839363576506, 0.0 ], [ 103.841254541905997, 1.28393640013517, 0.0 ], [ 103.841255878034005, 1.28393631331197, 0.0 ], [ 103.841312491405006, 1.28393627605583, 0.0 ], [ 103.841344409320001, 1.283936255155, 0.0 ], [ 103.841389866425999, 1.28393622516721, 0.0 ], [ 103.841785811387993, 1.28393596432803, 0.0 ], [ 103.841900579124996, 1.28393588888131, 0.0 ], [ 103.841897094653007, 1.2839551310652, 0.0 ], [ 103.841894996628994, 1.28397457763087, 0.0 ], [ 103.841894295833001, 1.28399412457633, 0.0 ], [ 103.841894316511002, 1.28399758648512, 0.0 ], [ 103.841895493905994, 1.28409028388409, 0.0 ], [ 103.841900059683994, 1.2844500637414, 0.0 ], [ 103.841900963678, 1.28446906987118, 0.0 ], [ 103.841903188524995, 1.28448796475959, 0.0 ], [ 103.841906725238999, 1.28450665706584, 0.0 ], [ 103.841911554052004, 1.28452505364039, 0.0 ], [ 103.841917651602003, 1.28454306495121, 0.0 ], [ 103.841924989134, 1.28456060056186, 0.0 ], [ 103.841933530708005, 1.28457757636653, 0.0 ], [ 103.841943230498003, 1.28459390645072, 0.0 ], [ 103.841944044578995, 1.28459527475205, 0.0 ], [ 103.842005381416001, 1.28454462920439, 0.0 ], [ 103.842288897691006, 1.2843104356938, 0.0 ], [ 103.842289436813004, 1.28430998984001, 0.0 ], [ 103.842467017743004, 1.2845278308166, 0.0 ], [ 103.842661926218, 1.28476692700483, 0.0 ], [ 103.842825822945002, 1.28463177268055, 0.0 ], [ 103.842826400703999, 1.28463129698247, 0.0 ], [ 103.843193716241998, 1.28432838941169, 0.0 ] ] ] } }
]
}
