{
"type": "FeatureCollection",
"crs": { "type": "name", "properties": { "name": "urn:ogc:def:crs:OGC:1.3:CRS84" } },
"features": [
{ "type": "Feature", "properties": { "Name": "kml_116", "Description": "<center><table><tr><th colspan='2' align='center'><em>Attributes<\/em><\/th><\/tr><tr bgcolor=\"#E3E3F3\"> <th>SUBZONE_NO<\/th> <td>7<\/td> <\/tr><tr bgcolor=\"\"> <th>SUBZONE_N<\/th> <td>SAFTI<\/td> <\/tr><tr bgcolor=\"#E3E3F3\"> <th>SUBZONE_C<\/th> <td>JWSZ07<\/td> <\/tr><tr bgcolor=\"\"> <th>CA_IND<\/th> <td>N<\/td> <\/tr><tr bgcolor=\"#E3E3F3\"> <th>PLN_AREA_N<\/th> <td>JURONG WEST<\/td> <\/tr><tr bgcolor=\"\"> <th>PLN_AREA_C<\/th> <td>JW<\/td> <\/tr><tr bgcolor=\"#E3E3F3\"> <th>REGION_N<\/th> <td>WEST REGION<\/td> <\/tr><tr bgcolor=\"\"> <th>REGION_C<\/th> <td>WR<\/td> <\/tr><tr bgcolor=\"#E3E3F3\"> <th>INC_CRC<\/th> <td>F98103316DAE6E47<\/td> <\/tr><tr bgcolor=\"\"> <th>FMEL_UPD_D<\/th> <td>20191223152313<\/td> <\/tr><\/table><\/center>", "Subzone": "SAFTI" }, "geometry": { "type": "Polygon", "coordinates": [ [ [ 103.687469905784994, 1.33717534112053, 0.0 ], [ 103.687522206818002, 1.33716493414096, 0.0 ], [ 103.688659507490996, 1.3380555593065, 0.0 ], [ 103.688872771788994, 1.33823699503613, 0.0 ], [ 103.688956875688007, 1.33829898948742, 0.0 ], [ 103.689028978346002, 1.33831713525168, 0.0 ], [ 103.689101084583001, 1.33832017003545, 0.0 ], [ 103.689194221489998, 1.33829295878131, 0.0 ], [ 103.689261830126, 1.33824005490889, 0.0 ], [ 103.689353879226005, 1.33814522084558, 0.0 ], [ 103.689556858244003, 1.33788723924387, 0.0 ], [ 103.690433215499993, 1.33674783752442, 0.0 ], [ 103.691747149690997, 1.33503701811027, 0.0 ], [ 103.691851875207007, 1.33489814043433, 0.0 ], [ 103.691698437788006, 1.33483895192033, 0.0 ], [ 103.691570001966994, 1.3347762396457, 0.0 ], [ 103.691437751034996, 1.33469529882787, 0.0 ], [ 103.691302163535994, 1.33458725951417, 0.0 ], [ 103.690912680563002, 1.33414947150543, 0.0 ], [ 103.689566532110007, 1.33236476242741, 0.0 ], [ 103.689216342408997, 1.33189984295433, 0.0 ], [ 103.688870347077994, 1.33143842176211, 0.0 ], [ 103.688547726859994, 1.33100738213615, 0.0 ], [ 103.688099257320999, 1.33040538987241, 0.0 ], [ 103.687932172122004, 1.3302087681287, 0.0 ], [ 103.687222840429001, 1.32972936185215, 0.0 ], [ 103.687208695075, 1.32971982451622, 0.0 ], [ 103.686180807604003, 1.3297318444401, 0.0 ], [ 103.685120547085006, 1.32977452525896, 0.0 ], [ 103.683696677645003, 1.32988752017587, 0.0 ], [ 103.682889985938004, 1.3299457949093, 0.0 ], [ 103.682353589973999, 1.32998359771879, 0.0 ], [ 103.680742375107002, 1.33009406884456, 0.0 ], [ 103.679931645848001, 1.33015767716536, 0.0 ], [ 103.679453445928999, 1.33020339613112, 0.0 ], [ 103.678857222740007, 1.33025203860435, 0.0 ], [ 103.678588470597006, 1.33027399492508, 0.0 ], [ 103.678318552901999, 1.33029799952034, 0.0 ], [ 103.678050335517995, 1.33031797797669, 0.0 ], [ 103.677518081439999, 1.33036227780811, 0.0 ], [ 103.677249444181996, 1.33038617745879, 0.0 ], [ 103.676979377484002, 1.33040756738594, 0.0 ], [ 103.676712538396004, 1.33042878204289, 0.0 ], [ 103.676172465852005, 1.33047540709394, 0.0 ], [ 103.675903864614, 1.33049795276784, 0.0 ], [ 103.675835691708997, 1.33050780683021, 0.0 ], [ 103.675776931146999, 1.33051757015506, 0.0 ], [ 103.675700170336995, 1.33053432122403, 0.0 ], [ 103.675615546347004, 1.33056437584128, 0.0 ], [ 103.675473734736997, 1.33062491640468, 0.0 ], [ 103.675293245492995, 1.33073302928683, 0.0 ], [ 103.674931902923007, 1.33104977652694, 0.0 ], [ 103.675121481774994, 1.33125477397505, 0.0 ], [ 103.675188911716006, 1.33132768792067, 0.0 ], [ 103.675356553872007, 1.33158081222893, 0.0 ], [ 103.675409636942007, 1.3316912435702, 0.0 ], [ 103.675431612636999, 1.33173696044143, 0.0 ], [ 103.675513712438004, 1.33190775975645, 0.0 ], [ 103.675660388489007, 1.3323058951976, 0.0 ], [ 103.675872540232007, 1.33294660078068, 0.0 ], [ 103.677050276754002, 1.33672052025454, 0.0 ], [ 103.677217903425003, 1.33722675708965, 0.0 ], [ 103.677455387429006, 1.33773299838586, 0.0 ], [ 103.677650967258003, 1.33808455686705, 0.0 ], [ 103.677916406207004, 1.33840799597006, 0.0 ], [ 103.678251703426994, 1.33873143949866, 0.0 ], [ 103.678600976788005, 1.3389845743167, 0.0 ], [ 103.679034082708, 1.33918146765862, 0.0 ], [ 103.679467193110995, 1.3393221132801, 0.0 ], [ 103.679812984921995, 1.33938541325748, 0.0 ], [ 103.680169257024005, 1.33942762142914, 0.0 ], [ 103.680295468717006, 1.33944811766805, 0.0 ], [ 103.680494093410005, 1.33948037333424, 0.0 ], [ 103.680923719079004, 1.33948040025973, 0.0 ], [ 103.681231830333004, 1.33948041952301, 0.0 ], [ 103.681311429814002, 1.33948042449327, 0.0 ], [ 103.681336496609006, 1.33948403084213, 0.0 ], [ 103.681359745641004, 1.33948737481252, 0.0 ], [ 103.681604830015999, 1.33952262853374, 0.0 ], [ 103.681877271266004, 1.33959647031787, 0.0 ], [ 103.682135631723995, 1.33970677504852, 0.0 ], [ 103.682721018251996, 1.34000638103236, 0.0 ], [ 103.684265082657006, 1.34120052707665, 0.0 ], [ 103.684395354209997, 1.34104208731762, 0.0 ], [ 103.684760410653993, 1.34059809530278, 0.0 ], [ 103.684841327068995, 1.34057489432727, 0.0 ], [ 103.686290650884004, 1.33866596741962, 0.0 ], [ 103.686747701330006, 1.33806097527337, 0.0 ], [ 103.687359935071001, 1.33725328146717, 0.0 ], [ 103.687391530268997, 1.33721960493238, 0.0 ], [ 103.687428390546003, 1.33719364201194, 0.0 ], [ 103.687469905784994, 1.33717534112053, 0.0 ] ] ] } }
]
}
