{
"type": "FeatureCollection",
"crs": { "type": "name", "properties": { "name": "urn:ogc:def:crs:OGC:1.3:CRS84" } },
"features": [
{ "type": "Feature", "properties": { "Name": "kml_88", "Description": "<center><table><tr><th colspan='2' align='center'><em>Attributes<\/em><\/th><\/tr><tr bgcolor=\"#E3E3F3\"> <th>SUBZONE_NO<\/th> <td>8<\/td> <\/tr><tr bgcolor=\"\"> <th>SUBZONE_N<\/th> <td>SELEGIE<\/td> <\/tr><tr bgcolor=\"#E3E3F3\"> <th>SUBZONE_C<\/th> <td>RCSZ08<\/td> <\/tr><tr bgcolor=\"\"> <th>CA_IND<\/th> <td>Y<\/td> <\/tr><tr bgcolor=\"#E3E3F3\"> <th>PLN_AREA_N<\/th> <td>ROCHOR<\/td> <\/tr><tr bgcolor=\"\"> <th>PLN_AREA_C<\/th> <td>RC<\/td> <\/tr><tr bgcolor=\"#E3E3F3\"> <th>REGION_N<\/th> <td>CENTRAL REGION<\/td> <\/tr><tr bgcolor=\"\"> <th>REGION_C<\/th> <td>CR<\/td> <\/tr><tr bgcolor=\"#E3E3F3\"> <th>INC_CRC<\/th> <td>E8FA232C5BEEA956<\/td> <\/tr><tr bgcolor=\"\"> <th>FMEL_UPD_D<\/th> <td>20191223152313<\/td> <\/tr><\/table><\/center>", "Subzone": "SELEGIE" }, "geometry": { "type": "Polygon", "coordinates": [ [ [ 103.850771671285997, 1.30486458225215, 0.0 ], [ 103.850499598420996, 1.30445012915443, 0.0 ], [ 103.850468727619997, 1.3044004842643, 0.0 ], [ 103.850368509898999, 1.30424732083372, 0.0 ], [ 103.850264207064001, 1.3040443061292, 0.0 ], [ 103.850156937020998, 1.3036720422924, 0.0 ], [ 103.850125823685005, 1.30349512524518, 0.0 ], [ 103.850100961471995, 1.30330820949884, 0.0 ], [ 103.850076013714997, 1.30282088006357, 0.0 ], [ 103.850070632102998, 1.30251526088644, 0.0 ], [ 103.850065085164999, 1.30221024401656, 0.0 ], [ 103.850049008357004, 1.30179670163736, 0.0 ], [ 103.850011669110003, 1.30135834815115, 0.0 ], [ 103.849976847432004, 1.3011686063264, 0.0 ], [ 103.849927927652999, 1.30098937873882, 0.0 ], [ 103.849877338360002, 1.30080652013645, 0.0 ], [ 103.849808166859006, 1.30057713660971, 0.0 ], [ 103.849775478880005, 1.30046869173254, 0.0 ], [ 103.849717537643997, 1.30027504500683, 0.0 ], [ 103.849679588567994, 1.30014733719294, 0.0 ], [ 103.849643583987003, 1.30002564429572, 0.0 ], [ 103.849597014186998, 1.29988366113838, 0.0 ], [ 103.849543168203994, 1.29977741671389, 0.0 ], [ 103.849498333846, 1.29968895294579, 0.0 ], [ 103.849460270871006, 1.29959208306275, 0.0 ], [ 103.849286720883001, 1.29964826331137, 0.0 ], [ 103.849275131471998, 1.29965161857829, 0.0 ], [ 103.849240932024998, 1.29966262220145, 0.0 ], [ 103.849212336793002, 1.29967213539554, 0.0 ], [ 103.849153626900005, 1.29969299674845, 0.0 ], [ 103.849110764621003, 1.29971051275514, 0.0 ], [ 103.849107546952993, 1.29971385711628, 0.0 ], [ 103.849084468875006, 1.2997378419193, 0.0 ], [ 103.849057150589999, 1.29976623190948, 0.0 ], [ 103.848997811074, 1.29982940396848, 0.0 ], [ 103.848964798780003, 1.2998693273571, 0.0 ], [ 103.848941200588001, 1.29991716387848, 0.0 ], [ 103.848926485367997, 1.29995812355475, 0.0 ], [ 103.848912658794006, 1.29999661159648, 0.0 ], [ 103.848901822317004, 1.29999251127388, 0.0 ], [ 103.848884253924993, 1.29998586701486, 0.0 ], [ 103.848856915631004, 1.29997552848609, 0.0 ], [ 103.848856947979002, 1.29997562073109, 0.0 ], [ 103.848865097048005, 1.3000025707508, 0.0 ], [ 103.848898667591996, 1.30015017010794, 0.0 ], [ 103.849041592328007, 1.30050000644842, 0.0 ], [ 103.849119390832996, 1.30075225951917, 0.0 ], [ 103.849218527988995, 1.301001220564, 0.0 ], [ 103.848900928673004, 1.30108565495459, 0.0 ], [ 103.848801102262996, 1.30111575283173, 0.0 ], [ 103.848951150904, 1.30164324977815, 0.0 ], [ 103.848853573444998, 1.30165895648711, 0.0 ], [ 103.848804799533994, 1.30166567441013, 0.0 ], [ 103.848814201424005, 1.30173251504691, 0.0 ], [ 103.848826706126005, 1.30182124490901, 0.0 ], [ 103.848855065734, 1.30192088402484, 0.0 ], [ 103.848921772322001, 1.30197873130227, 0.0 ], [ 103.848985231661999, 1.30205167877643, 0.0 ], [ 103.849093146098994, 1.30219586639868, 0.0 ], [ 103.849445565969006, 1.30267390412821, 0.0 ], [ 103.849478753232006, 1.30273178778011, 0.0 ], [ 103.849504815548997, 1.30287134646648, 0.0 ], [ 103.849511168567005, 1.30291808309113, 0.0 ], [ 103.849524050710002, 1.3030101093556, 0.0 ], [ 103.849553974583998, 1.30322765138793, 0.0 ], [ 103.849560360846993, 1.30327394668208, 0.0 ], [ 103.849566645571002, 1.30331957274695, 0.0 ], [ 103.849572858410994, 1.30336512555872, 0.0 ], [ 103.849579615810001, 1.30341687959594, 0.0 ], [ 103.849620000171001, 1.3037123153981, 0.0 ], [ 103.849627756800004, 1.30377111714294, 0.0 ], [ 103.849639269524999, 1.30385655511787, 0.0 ], [ 103.849658189324003, 1.3039970498652, 0.0 ], [ 103.849658797667999, 1.30400148396153, 0.0 ], [ 103.849659234382003, 1.30400466822692, 0.0 ], [ 103.849666753771999, 1.30405948986382, 0.0 ], [ 103.849713049762002, 1.30436582864532, 0.0 ], [ 103.849753137438995, 1.30463109302848, 0.0 ], [ 103.849753397130002, 1.30463281131976, 0.0 ], [ 103.849989372311995, 1.30446092258057, 0.0 ], [ 103.850388719928006, 1.3050363933919, 0.0 ], [ 103.850481327756995, 1.30516984081715, 0.0 ], [ 103.850792167397003, 1.30490249760021, 0.0 ], [ 103.850794975338999, 1.30490008111805, 0.0 ], [ 103.850771671285997, 1.30486458225215, 0.0 ] ] ] } }
]
}
