{
"type": "FeatureCollection",
"crs": { "type": "name", "properties": { "name": "urn:ogc:def:crs:OGC:1.3:CRS84" } },
"features": [
{ "type": "Feature", "properties": { "Name": "kml_8", "Description": "<center><table><tr><th colspan='2' align='center'><em>Attributes<\/em><\/th><\/tr><tr bgcolor=\"#E3E3F3\"> <th>SUBZONE_NO<\/th> <td>2<\/td> <\/tr><tr bgcolor=\"\"> <th>SUBZONE_N<\/th> <td>SEMAKAU<\/td> <\/tr><tr bgcolor=\"#E3E3F3\"> <th>SUBZONE_C<\/th> <td>WISZ02<\/td> <\/tr><tr bgcolor=\"\"> <th>CA_IND<\/th> <td>N<\/td> <\/tr><tr bgcolor=\"#E3E3F3\"> <th>PLN_AREA_N<\/th> <td>WESTERN ISLANDS<\/td> <\/tr><tr bgcolor=\"\"> <th>PLN_AREA_C<\/th> <td>WI<\/td> <\/tr><tr bgcolor=\"#E3E3F3\"> <th>REGION_N<\/th> <td>WEST REGION<\/td> <\/tr><tr bgcolor=\"\"> <th>REGION_C<\/th> <td>WR<\/td> <\/tr><tr bgcolor=\"#E3E3F3\"> <th>INC_CRC<\/th> <td>052DA66CF07E9FEF<\/td> <\/tr><tr bgcolor=\"\"> <th>FMEL_UPD_D<\/th> <td>20191223152313<\/td> <\/tr><\/table><\/center>", "Subzone": "SEMAKAU" }, "geometry": { "type": "MultiPolygon", "coordinates": [ [ [ [ 103.760030434930997, 1.21299463408167, 0.0 ], [ 103.760102643880998, 1.2129007449096, 0.0 ], [ 103.760165554989001, 1.21294098994526, 0.0 ], [ 103.760235242345999, 1.2129942851459, 0.0 ], [ 103.760402842185002, 1.21309799409772, 0.0 ], [ 103.760455739435997, 1.21310173417551, 0.0 ], [ 103.760539168753994, 1.21311883073652, 0.0 ], [ 103.760651726136999, 1.213135296836, 0.0 ], [ 103.760683587204994, 1.21314503408717, 0.0 ], [ 103.760851362202999, 1.21318418675344, 0.0 ], [ 103.760871085477007, 1.21318496865616, 0.0 ], [ 103.760984246717001, 1.21313191081905, 0.0 ], [ 103.761152397903999, 1.21304646372807, 0.0 ], [ 103.761271384216002, 1.21299291858193, 0.0 ], [ 103.761414976610993, 1.21292929132645, 0.0 ], [ 103.761465098011001, 1.21291183028855, 0.0 ], [ 103.761524975225996, 1.21286993176743, 0.0 ], [ 103.761522048466006, 1.21281306885479, 0.0 ], [ 103.761495504302005, 1.21278840159889, 0.0 ], [ 103.761365328834998, 1.21273863545155, 0.0 ], [ 103.761330974192006, 1.21266842237057, 0.0 ], [ 103.761316892067001, 1.21262336473592, 0.0 ], [ 103.761288455368998, 1.2125747824076, 0.0 ], [ 103.761246968082006, 1.21251364172123, 0.0 ], [ 103.761188403041999, 1.21244086592468, 0.0 ], [ 103.761150094441007, 1.21238963715926, 0.0 ], [ 103.761127361384993, 1.21231212797352, 0.0 ], [ 103.761126186987994, 1.21224577380035, 0.0 ], [ 103.761140270143997, 1.21218384057113, 0.0 ], [ 103.761168332725006, 1.21214304000647, 0.0 ], [ 103.761207060345001, 1.21208050513064, 0.0 ], [ 103.761218158565001, 1.21205515699009, 0.0 ], [ 103.761218907060993, 1.21201993924025, 0.0 ], [ 103.761192711253003, 1.21197179649248, 0.0 ], [ 103.761160799314993, 1.2119494189413, 0.0 ], [ 103.761126667903994, 1.21193247384893, 0.0 ], [ 103.761066076264001, 1.2119111744342, 0.0 ], [ 103.761037218892994, 1.21186936759265, 0.0 ], [ 103.761017283135004, 1.2118175731869, 0.0 ], [ 103.761029659461997, 1.21177641678665, 0.0 ], [ 103.761049564116007, 1.21171354588786, 0.0 ], [ 103.761052138178997, 1.21168644395588, 0.0 ], [ 103.761058203580006, 1.21163629709653, 0.0 ], [ 103.761052722390005, 1.21161195326056, 0.0 ], [ 103.761040225670996, 1.2115172288627, 0.0 ], [ 103.761032793915007, 1.21145497400638, 0.0 ], [ 103.761068517856003, 1.211424058354, 0.0 ], [ 103.761118135508994, 1.21139350934145, 0.0 ], [ 103.761128843413005, 1.21138170586059, 0.0 ], [ 103.761135870689998, 1.21134780503403, 0.0 ], [ 103.761133965645996, 1.21132118229502, 0.0 ], [ 103.761126213216002, 1.21128917752491, 0.0 ], [ 103.761105855889994, 1.21124370733076, 0.0 ], [ 103.761087306278995, 1.21120183655648, 0.0 ], [ 103.761060178948, 1.21114512130977, 0.0 ], [ 103.761053723374005, 1.21110182105925, 0.0 ], [ 103.761056666328997, 1.21105575822678, 0.0 ], [ 103.761067658292006, 1.21100512947288, 0.0 ], [ 103.761080626725004, 1.21099827835385, 0.0 ], [ 103.761092288479006, 1.21100046451613, 0.0 ], [ 103.761151585917005, 1.21103396015685, 0.0 ], [ 103.761196370744997, 1.2110264623646, 0.0 ], [ 103.761260394746003, 1.21101162616692, 0.0 ], [ 103.761282283002004, 1.21099433801252, 0.0 ], [ 103.761301040787004, 1.2109788747822, 0.0 ], [ 103.761313475139005, 1.21095171252086, 0.0 ], [ 103.761366918166004, 1.21087148052147, 0.0 ], [ 103.761430288442995, 1.21080744053145, 0.0 ], [ 103.761473564797001, 1.21076067879594, 0.0 ], [ 103.761498964892994, 1.21072621413432, 0.0 ], [ 103.761509630812, 1.21070493109966, 0.0 ], [ 103.761530303585005, 1.21061135793864, 0.0 ], [ 103.761526925781993, 1.21055404554392, 0.0 ], [ 103.761516714582996, 1.21047014012275, 0.0 ], [ 103.761477178026993, 1.21033946560317, 0.0 ], [ 103.761448166196004, 1.2102606422101, 0.0 ], [ 103.761443061934003, 1.21021913896868, 0.0 ], [ 103.761447889392002, 1.21019473300701, 0.0 ], [ 103.761463421165999, 1.21015807138021, 0.0 ], [ 103.761488372898, 1.21012360941937, 0.0 ], [ 103.761507947922993, 1.21008918077647, 0.0 ], [ 103.761510063808004, 1.21005937297193, 0.0 ], [ 103.761496371126995, 1.20999986721771, 0.0 ], [ 103.761464457412004, 1.20997748967099, 0.0 ], [ 103.761419122454996, 1.20996061211212, 0.0 ], [ 103.761374723499998, 1.20995320870219, 0.0 ], [ 103.761341564725996, 1.20995431475929, 0.0 ], [ 103.761167681668994, 1.20995492598249, 0.0 ], [ 103.761061338901996, 1.20992442614708, 0.0 ], [ 103.760978808177995, 1.20990777638787, 0.0 ], [ 103.760836521862004, 1.20985537638772, 0.0 ], [ 103.761034688516006, 1.209874480083, 0.0 ], [ 103.761119426204004, 1.20988299061724, 0.0 ], [ 103.761163384837005, 1.20989220274889, 0.0 ], [ 103.761205969822001, 1.20989465019507, 0.0 ], [ 103.761275854586998, 1.20988790369442, 0.0 ], [ 103.761351141960006, 1.20988699229729, 0.0 ], [ 103.761406723945996, 1.20988936140756, 0.0 ], [ 103.761443503503003, 1.20989681073633, 0.0 ], [ 103.761487483571997, 1.20991098782563, 0.0 ], [ 103.761528372456993, 1.20993646939082, 0.0 ], [ 103.761558566852997, 1.20997646301127, 0.0 ], [ 103.761621683285995, 1.21006591269186, 0.0 ], [ 103.761643773328004, 1.21009692756298, 0.0 ], [ 103.761684691691002, 1.21012918191414, 0.0 ], [ 103.761721968721005, 1.21014836538477, 0.0 ], [ 103.761816096919006, 1.21015185330556, 0.0 ], [ 103.761922911271, 1.21018821792988, 0.0 ], [ 103.761956501439997, 1.21018304675778, 0.0 ], [ 103.761983343037997, 1.21017159730674, 0.0 ], [ 103.762007425736002, 1.21014346044456, 0.0 ], [ 103.762031499507003, 1.21011306719191, 0.0 ], [ 103.762042968382005, 1.21006920761494, 0.0 ], [ 103.762052229396005, 1.21003348726202, 0.0 ], [ 103.76205293145, 1.2099869848465, 0.0 ], [ 103.762022543271001, 1.2099009464005, 0.0 ], [ 103.762096398956004, 1.20987927706116, 0.0 ], [ 103.762165023300994, 1.21010638203915, 0.0 ], [ 103.762180332629995, 1.21012344328386, 0.0 ], [ 103.762243274072006, 1.21017091143165, 0.0 ], [ 103.762269761965996, 1.21018203581629, 0.0 ], [ 103.762310557993004, 1.21018539660655, 0.0 ], [ 103.762332105029003, 1.21019384213207, 0.0 ], [ 103.762376589721001, 1.21022156027376, 0.0 ], [ 103.762388316653997, 1.21023954568383, 0.0 ], [ 103.762415789667003, 1.21027188196775, 0.0 ], [ 103.762424587065993, 1.21033909187276, 0.0 ], [ 103.762445813436003, 1.21037823695411, 0.0 ], [ 103.762482737672997, 1.21041999515779, 0.0 ], [ 103.762520403246995, 1.21042473049718, 0.0 ], [ 103.762589812873998, 1.2104116660586, 0.0 ], [ 103.762684647596998, 1.21036955408962, 0.0 ], [ 103.762719890100996, 1.21033096667445, 0.0 ], [ 103.762776505505997, 1.21025929453888, 0.0 ], [ 103.762784973392002, 1.21024795673985, 0.0 ], [ 103.762841004699993, 1.21014378262307, 0.0 ], [ 103.762887213230002, 1.21004824674011, 0.0 ], [ 103.762905998753993, 1.20993211232849, 0.0 ], [ 103.762893934252006, 1.20983377229574, 0.0 ], [ 103.762871157404007, 1.20974588191755, 0.0 ], [ 103.762853954633997, 1.20970445432789, 0.0 ], [ 103.762763849219994, 1.20959169487102, 0.0 ], [ 103.762682794903, 1.20949964469677, 0.0 ], [ 103.762631821586993, 1.20942050421137, 0.0 ], [ 103.762601185964002, 1.2093823193201, 0.0 ], [ 103.762563017651004, 1.20925750422825, 0.0 ], [ 103.762530736027998, 1.20914709943819, 0.0 ], [ 103.762508914850997, 1.20907319689205, 0.0 ], [ 103.762475800811004, 1.20897814547978, 0.0 ], [ 103.762466696153993, 1.20894434370417, 0.0 ], [ 103.762461624024994, 1.20891051671226, 0.0 ], [ 103.762453249092999, 1.20883698349969, 0.0 ], [ 103.762448904015997, 1.20876252432346, 0.0 ], [ 103.762429337132005, 1.20869176721655, 0.0 ], [ 103.762419350941002, 1.20866158197224, 0.0 ], [ 103.762400429758998, 1.20863822263814, 0.0 ], [ 103.762398865020003, 1.20858541312239, 0.0 ], [ 103.762420570177994, 1.20852478869804, 0.0 ], [ 103.762461660054996, 1.20849113113037, 0.0 ], [ 103.762520776182996, 1.20848128957611, 0.0 ], [ 103.762579322503001, 1.20844255897821, 0.0 ], [ 103.762644190467995, 1.20841507703321, 0.0 ], [ 103.762707746404004, 1.2083952767264, 0.0 ], [ 103.762724346319999, 1.20839968955628, 0.0 ], [ 103.762768722931, 1.20840167489299, 0.0 ], [ 103.762835967521994, 1.20840668230896, 0.0 ], [ 103.762896082165994, 1.20842121159368, 0.0 ], [ 103.762974622309002, 1.20844781733998, 0.0 ], [ 103.763018451432004, 1.20842633167994, 0.0 ], [ 103.763051069851002, 1.20840311025131, 0.0 ], [ 103.763061265066995, 1.20837641276485, 0.0 ], [ 103.763066596236001, 1.20836509387436, 0.0 ], [ 103.763065393209004, 1.20829196781336, 0.0 ], [ 103.763054917578003, 1.20825185444196, 0.0 ], [ 103.763012103101005, 1.20819478338923, 0.0 ], [ 103.762897689069007, 1.20816297932446, 0.0 ], [ 103.762729021192996, 1.20812473566408, 0.0 ], [ 103.762663046664002, 1.20810211577565, 0.0 ], [ 103.762602904350004, 1.20808081369787, 0.0 ], [ 103.762220600866002, 1.20786149430185, 0.0 ], [ 103.762148265416002, 1.20781814709843, 0.0 ], [ 103.762099693769997, 1.20777736348978, 0.0 ], [ 103.762056919507003, 1.20772977287992, 0.0 ], [ 103.762040193683006, 1.20769556574659, 0.0 ], [ 103.762018890535998, 1.2076383632101, 0.0 ], [ 103.762014316782995, 1.20761627036315, 0.0 ], [ 103.761962885336999, 1.20753487527384, 0.0 ], [ 103.761894883447994, 1.20745628870244, 0.0 ], [ 103.761807748679004, 1.20741032386778, 0.0 ], [ 103.761643141969003, 1.20737882590712, 0.0 ], [ 103.761554856789999, 1.20737936527735, 0.0 ], [ 103.761478697773995, 1.20738615141445, 0.0 ], [ 103.761427667266005, 1.20740045801105, 0.0 ], [ 103.761370436556007, 1.20743240769296, 0.0 ], [ 103.761320010671, 1.20748372904739, 0.0 ], [ 103.761254421901995, 1.20755319969185, 0.0 ], [ 103.761194687661998, 1.20762940529493, 0.0 ], [ 103.761131252270999, 1.20767809730962, 0.0 ], [ 103.761026127757006, 1.20772388429173, 0.0 ], [ 103.760935769534001, 1.20776461445792, 0.0 ], [ 103.760901417504002, 1.20780184171033, 0.0 ], [ 103.760884096775001, 1.20783941759964, 0.0 ], [ 103.760869035686, 1.20788149276387, 0.0 ], [ 103.760854501522005, 1.20794252613961, 0.0 ], [ 103.760804188394005, 1.20780695057021, 0.0 ], [ 103.760772741815998, 1.20778908490494, 0.0 ], [ 103.760737294855005, 1.20777891798859, 0.0 ], [ 103.760717058091004, 1.207762339535, 0.0 ], [ 103.760617526489, 1.20775256429192, 0.0 ], [ 103.760681964846, 1.20772959877992, 0.0 ], [ 103.760751779901994, 1.20770659994931, 0.0 ], [ 103.760806856350996, 1.20769497762919, 0.0 ], [ 103.760877200127993, 1.20769093610259, 0.0 ], [ 103.760939820057999, 1.20766166078279, 0.0 ], [ 103.761010928405994, 1.20762601534368, 0.0 ], [ 103.761038100475005, 1.20758657310823, 0.0 ], [ 103.761096885322999, 1.20749773169952, 0.0 ], [ 103.761135177022993, 1.20743790899685, 0.0 ], [ 103.761220548831005, 1.20738411695024, 0.0 ], [ 103.761315404, 1.20734697089069, 0.0 ], [ 103.761396399393007, 1.20731803609038, 0.0 ], [ 103.761481025389003, 1.20729991216007, 0.0 ], [ 103.761530285681999, 1.20729103532113, 0.0 ], [ 103.761584947692995, 1.20728753959488, 0.0 ], [ 103.761642330187001, 1.20729215518699, 0.0 ], [ 103.761726171982005, 1.20730067110006, 0.0 ], [ 103.761806034819998, 1.20732230290697, 0.0 ], [ 103.761849999670005, 1.20733286885946, 0.0 ], [ 103.761929436472997, 1.2073599214138, 0.0 ], [ 103.762012043032001, 1.20739462859276, 0.0 ], [ 103.762096791283, 1.20751238725744, 0.0 ], [ 103.762130213456004, 1.2075740296394, 0.0 ], [ 103.76213755325, 1.20761461410501, 0.0 ], [ 103.762151634469006, 1.20765967264064, 0.0 ], [ 103.762187661962997, 1.20770098406693, 0.0 ], [ 103.762233085290006, 1.20773907891476, 0.0 ], [ 103.762313057982993, 1.20778689478294, 0.0 ], [ 103.762417672433997, 1.20783320372008, 0.0 ], [ 103.762519586040995, 1.2078763708194, 0.0 ], [ 103.762666365686997, 1.20793145138203, 0.0 ], [ 103.762728399650001, 1.20797666762481, 0.0 ], [ 103.762783659164, 1.20800883370589, 0.0 ], [ 103.762811425132, 1.20800414891745, 0.0 ], [ 103.762844072126001, 1.20798769756634, 0.0 ], [ 103.762872148032002, 1.20795005682936, 0.0 ], [ 103.762898831542998, 1.20790068734922, 0.0 ], [ 103.762905411326997, 1.20786678921675, 0.0 ], [ 103.762890859413005, 1.20781631624025, 0.0 ], [ 103.762883363320995, 1.20773871612256, 0.0 ], [ 103.762916864155002, 1.2077123267283, 0.0 ], [ 103.762974294003996, 1.2077277765838, 0.0 ], [ 103.762976716178997, 1.20777109933621, 0.0 ], [ 103.762999089307996, 1.20786982851509, 0.0 ], [ 103.763005006358, 1.20789146107415, 0.0 ], [ 103.763020375509996, 1.2079229668294, 0.0 ], [ 103.763065282625007, 1.20794481292905, 0.0 ], [ 103.763093426409, 1.20792297234802, 0.0 ], [ 103.763124804236, 1.20792458655074, 0.0 ], [ 103.76316294403, 1.20793563978383, 0.0 ], [ 103.763179547514, 1.20794095516693, 0.0 ], [ 103.763231957920993, 1.20793521742927, 0.0 ], [ 103.763252474271994, 1.20791161675464, 0.0 ], [ 103.763273859658, 1.20788124060158, 0.0 ], [ 103.763277794847994, 1.20785774078534, 0.0 ], [ 103.763270391624005, 1.20780225962386, 0.0 ], [ 103.763209028412007, 1.2077037699956, 0.0 ], [ 103.763141488236002, 1.20762834150704, 0.0 ], [ 103.763085348090002, 1.20759979377387, 0.0 ], [ 103.763057490147006, 1.20758235689666, 0.0 ], [ 103.762929893408995, 1.20750594017811, 0.0 ], [ 103.762906104601001, 1.20749750816537, 0.0 ], [ 103.762828508531996, 1.20748218258476, 0.0 ], [ 103.762771094768993, 1.20747034475975, 0.0 ], [ 103.762709154576996, 1.20744770056076, 0.0 ], [ 103.762663378436002, 1.20743263174248, 0.0 ], [ 103.762594637880994, 1.20739151933047, 0.0 ], [ 103.762543448423003, 1.20736790502597, 0.0 ], [ 103.762527129877995, 1.20732376526794, 0.0 ], [ 103.762510822943995, 1.20728233136946, 0.0 ], [ 103.762546090415, 1.20724961237701, 0.0 ], [ 103.762602762840999, 1.20729847397569, 0.0 ], [ 103.762707958700005, 1.20737638051629, 0.0 ], [ 103.762758681050002, 1.20739548202544, 0.0 ], [ 103.762810698459006, 1.2074028385824, 0.0 ], [ 103.762832561085006, 1.20740233180441, 0.0 ], [ 103.762890014720995, 1.20740099846077, 0.0 ], [ 103.762913250682999, 1.20738460474224, 0.0 ], [ 103.762928839574997, 1.20736148777659, 0.0 ], [ 103.762937605776003, 1.2073144836467, 0.0 ], [ 103.762956227787001, 1.20726651752936, 0.0 ], [ 103.762986232852995, 1.20726136885783, 0.0 ], [ 103.763029721658, 1.20726561779109, 0.0 ], [ 103.763080927188, 1.20729329358909, 0.0 ], [ 103.763150517132999, 1.20732311411267, 0.0 ], [ 103.763180993779997, 1.20732337897873, 0.0 ], [ 103.763211339143993, 1.20729249570982, 0.0 ], [ 103.763191860657003, 1.20724295681551, 0.0 ], [ 103.763188991906006, 1.20720008804247, 0.0 ], [ 103.763191576664994, 1.20717524340075, 0.0 ], [ 103.763223274241994, 1.20714615713946, 0.0 ], [ 103.763252910431007, 1.20715997117569, 0.0 ], [ 103.763282845796994, 1.20724511065977, 0.0 ], [ 103.763297542396998, 1.20732988981138, 0.0 ], [ 103.763332691043004, 1.20737572211995, 0.0 ], [ 103.763400130297995, 1.20742722563131, 0.0 ], [ 103.763442205274004, 1.20741477904351, 0.0 ], [ 103.763458227338006, 1.20738804553107, 0.0 ], [ 103.763464248906999, 1.20732796873521, 0.0 ], [ 103.763462613591997, 1.20725845650366, 0.0 ], [ 103.763453170453005, 1.20714384882529, 0.0 ], [ 103.763457849632005, 1.20708423141191, 0.0 ], [ 103.763479521714999, 1.20701547944922, 0.0 ], [ 103.763495450894993, 1.20696662788469, 0.0 ], [ 103.763514138980995, 1.20693446101697, 0.0 ], [ 103.763519442451994, 1.20691682242345, 0.0 ], [ 103.763527307467001, 1.20686847076401, 0.0 ], [ 103.763531490065006, 1.20679711830014, 0.0 ], [ 103.763519245121998, 1.20676243288171, 0.0 ], [ 103.763484484993995, 1.20670260282771, 0.0 ], [ 103.763445062692995, 1.20659946533692, 0.0 ], [ 103.763413341049997, 1.20651569139897, 0.0 ], [ 103.763399102633002, 1.206433165032, 0.0 ], [ 103.763374002744001, 1.20632542469409, 0.0 ], [ 103.763347685485996, 1.20624838931725, 0.0 ], [ 103.763334944855998, 1.20620242103038, 0.0 ], [ 103.763293545134005, 1.20616204549749, 0.0 ], [ 103.763222563708993, 1.20612094660981, 0.0 ], [ 103.763317635822006, 1.20613571463657, 0.0 ], [ 103.763347712317994, 1.20614771995309, 0.0 ], [ 103.763408955827998, 1.20621776911103, 0.0 ], [ 103.763497755385998, 1.20634001801008, 0.0 ], [ 103.763525727639006, 1.20638453970599, 0.0 ], [ 103.763547064746007, 1.20644986704643, 0.0 ], [ 103.763561774748993, 1.2065378069526, 0.0 ], [ 103.763580092143002, 1.20663114329637, 0.0 ], [ 103.763589165298001, 1.20670267516679, 0.0 ], [ 103.763552613730994, 1.20681143493994, 0.0 ], [ 103.763528702547006, 1.20688065078481, 0.0 ], [ 103.763520902731997, 1.20694435132485, 0.0 ], [ 103.763528788254007, 1.20700795459863, 0.0 ], [ 103.763535179559995, 1.20703590596574, 0.0 ], [ 103.763550122693005, 1.20707238119167, 0.0 ], [ 103.763584778321999, 1.20710783318549, 0.0 ], [ 103.763638260467999, 1.20714407246194, 0.0 ], [ 103.763698446535003, 1.20717575662481, 0.0 ], [ 103.763799494688996, 1.20722615043241, 0.0 ], [ 103.764040628390006, 1.20733889021898, 0.0 ], [ 103.764190158914005, 1.20740885299654, 0.0 ], [ 103.764315887246994, 1.207466770828, 0.0 ], [ 103.764589791218995, 1.20759285349867, 0.0 ], [ 103.764889310518996, 1.20773503086803, 0.0 ], [ 103.765041525868, 1.20780407392982, 0.0 ], [ 103.765189686358994, 1.20786817452746, 0.0 ], [ 103.765376880705006, 1.20794242035995, 0.0 ], [ 103.765565847952004, 1.2080116886006, 0.0 ], [ 103.765747626294001, 1.20807739073816, 0.0 ], [ 103.765782186392002, 1.20808982028861, 0.0 ], [ 103.765960350216005, 1.20814786868256, 0.0 ], [ 103.766134859294993, 1.20818968814761, 0.0 ], [ 103.766264515719001, 1.20822275404504, 0.0 ], [ 103.766417025842998, 1.20825522723968, 0.0 ], [ 103.766530952267004, 1.2082775552112, 0.0 ], [ 103.766669921464995, 1.20828708793867, 0.0 ], [ 103.766870292332996, 1.20829759888547, 0.0 ], [ 103.767021318934994, 1.20829667653001, 0.0 ], [ 103.767076427537006, 1.20829272852193, 0.0 ], [ 103.767149448954001, 1.20828641332483, 0.0 ], [ 103.767269964061001, 1.20827664732785, 0.0 ], [ 103.767413717785999, 1.2082513910277, 0.0 ], [ 103.767489836615994, 1.20823512607497, 0.0 ], [ 103.767576231914006, 1.20821157399847, 0.0 ], [ 103.767672011445995, 1.20818119328845, 0.0 ], [ 103.767772257562001, 1.20814762479731, 0.0 ], [ 103.767837124587004, 1.20811969235037, 0.0 ], [ 103.768033043014995, 1.20803001213823, 0.0 ], [ 103.768198947421993, 1.20794367552853, 0.0 ], [ 103.768345630558002, 1.20786874158199, 0.0 ], [ 103.768423468646006, 1.2078348605203, 0.0 ], [ 103.768594836407004, 1.20776880620689, 0.0 ], [ 103.768809181197, 1.20769165454357, 0.0 ], [ 103.768884827525, 1.20766952201959, 0.0 ], [ 103.768952420405, 1.20765059979676, 0.0 ], [ 103.769075539838994, 1.20762095403074, 0.0 ], [ 103.769255571109994, 1.20759005977741, 0.0 ], [ 103.769306179140003, 1.2075820745313, 0.0 ], [ 103.769426678124006, 1.20756869821091, 0.0 ], [ 103.769558846002994, 1.20755931221849, 0.0 ], [ 103.769689692040998, 1.20755535237769, 0.0 ], [ 103.769850622668997, 1.20756520288955, 0.0 ], [ 103.769907999832995, 1.20756846266412, 0.0 ], [ 103.770018752027994, 1.20758178022666, 0.0 ], [ 103.770141183839002, 1.20760179849748, 0.0 ], [ 103.770230446173997, 1.20762066382723, 0.0 ], [ 103.770283051093998, 1.2076345316826, 0.0 ], [ 103.770335880640999, 1.20764845923031, 0.0 ], [ 103.770499191173002, 1.20770897408964, 0.0 ], [ 103.770543961008997, 1.20772516235811, 0.0 ], [ 103.770620316012, 1.20775277077504, 0.0 ], [ 103.770730996679006, 1.20779047541116, 0.0 ], [ 103.770799333319005, 1.20781965451917, 0.0 ], [ 103.770885809823994, 1.20785836424237, 0.0 ], [ 103.770971162042997, 1.20790794711619, 0.0 ], [ 103.771058847603001, 1.20796199760389, 0.0 ], [ 103.771143366835005, 1.20801476291344, 0.0 ], [ 103.771175118502001, 1.20805381592991, 0.0 ], [ 103.771274738719001, 1.2081211545193, 0.0 ], [ 103.771458771783003, 1.20825798734514, 0.0 ], [ 103.771674515754, 1.20840991654292, 0.0 ], [ 103.771924606042006, 1.20857417119128, 0.0 ], [ 103.772091383941003, 1.20867885250693, 0.0 ], [ 103.772269848793002, 1.20878462202835, 0.0 ], [ 103.772498365073005, 1.20890281140665, 0.0 ], [ 103.772607393704007, 1.20896948274051, 0.0 ], [ 103.772803658306998, 1.20906806654527, 0.0 ], [ 103.773002959113995, 1.20916160947421, 0.0 ], [ 103.773268254323995, 1.20927941163999, 0.0 ], [ 103.773519207052004, 1.20937584422362, 0.0 ], [ 103.773710197808001, 1.20945782370802, 0.0 ], [ 103.773888750797994, 1.20952381463748, 0.0 ], [ 103.774158024345994, 1.20961666447361, 0.0 ], [ 103.774414109716005, 1.20970077602141, 0.0 ], [ 103.774580488419005, 1.20974173200995, 0.0 ], [ 103.774742821127006, 1.20978232796327, 0.0 ], [ 103.774907222403996, 1.20981428817092, 0.0 ], [ 103.775042840767995, 1.2098428373863, 0.0 ], [ 103.775288469469004, 1.20987610884651, 0.0 ], [ 103.775285595401996, 1.21028569838816, 0.0 ], [ 103.775822842693998, 1.21029740424948, 0.0 ], [ 103.777121485264999, 1.2103125408746, 0.0 ], [ 103.778735808799993, 1.21034217392908, 0.0 ], [ 103.779819136038, 1.21035860264903, 0.0 ], [ 103.780424615623005, 1.21037236728344, 0.0 ], [ 103.780450946120993, 1.20979273673298, 0.0 ], [ 103.780516425338007, 1.20979169618796, 0.0 ], [ 103.780571314029004, 1.20977733594576, 0.0 ], [ 103.780599599650003, 1.20975635070828, 0.0 ], [ 103.780639285863003, 1.20972244955175, 0.0 ], [ 103.780669947451003, 1.20968603950972, 0.0 ], [ 103.780698109615003, 1.20963703251776, 0.0 ], [ 103.780792284898993, 1.20943690379543, 0.0 ], [ 103.780871434109002, 1.20924796448549, 0.0 ], [ 103.780944853387993, 1.20906412839322, 0.0 ], [ 103.780977595544996, 1.20895354326999, 0.0 ], [ 103.781029889053002, 1.20881177420934, 0.0 ], [ 103.781075436055005, 1.20864710649339, 0.0 ], [ 103.781150618043995, 1.20832943434652, 0.0 ], [ 103.781190974557006, 1.20815222840981, 0.0 ], [ 103.78127069384, 1.20774902240119, 0.0 ], [ 103.781336507768003, 1.20738997988427, 0.0 ], [ 103.781391708301001, 1.2070384090243, 0.0 ], [ 103.781430679595999, 1.20674913594273, 0.0 ], [ 103.781473725954996, 1.20639558428547, 0.0 ], [ 103.781480551737005, 1.2063122580267, 0.0 ], [ 103.781533564929006, 1.20578716568445, 0.0 ], [ 103.781549349391994, 1.20543875481573, 0.0 ], [ 103.781565833274996, 1.20521282483627, 0.0 ], [ 103.781585073944001, 1.20483585870389, 0.0 ], [ 103.781589578517, 1.2047706649193, 0.0 ], [ 103.781614388950004, 1.20444690992503, 0.0 ], [ 103.781625553845998, 1.2041139735546, 0.0 ], [ 103.781650799087998, 1.20374545882443, 0.0 ], [ 103.781658104217996, 1.20368562707315, 0.0 ], [ 103.781685471909, 1.20306890847462, 0.0 ], [ 103.781716031402993, 1.20267495947718, 0.0 ], [ 103.781734569544994, 1.20224150667687, 0.0 ], [ 103.781751580665002, 1.20197533516509, 0.0 ], [ 103.781747900159999, 1.20179461310152, 0.0 ], [ 103.781730890947003, 1.20157622669046, 0.0 ], [ 103.781717964674002, 1.20144815025712, 0.0 ], [ 103.781681279810002, 1.20123292422739, 0.0 ], [ 103.781632854180003, 1.20101389783136, 0.0 ], [ 103.781584276020993, 1.20083148917518, 0.0 ], [ 103.781559448851993, 1.20075792402595, 0.0 ], [ 103.781485720923996, 1.20055213071983, 0.0 ], [ 103.781424835644003, 1.20038220658655, 0.0 ], [ 103.781354677118998, 1.20019757729787, 0.0 ], [ 103.781260835989997, 1.19999540739246, 0.0 ], [ 103.781138859210998, 1.19977760589739, 0.0 ], [ 103.780953795532994, 1.19950202962605, 0.0 ], [ 103.780781284149, 1.19927001323595, 0.0 ], [ 103.780703651856001, 1.19918092905788, 0.0 ], [ 103.780560954321004, 1.19902507433984, 0.0 ], [ 103.780449221308004, 1.19891371498051, 0.0 ], [ 103.780351895444994, 1.19882688770555, 0.0 ], [ 103.780280169490993, 1.19876343424293, 0.0 ], [ 103.780208515352001, 1.19870359371853, 0.0 ], [ 103.780014040072999, 1.1985606721922, 0.0 ], [ 103.779836169749998, 1.19843997303857, 0.0 ], [ 103.779751108910006, 1.19838269973182, 0.0 ], [ 103.779495290916998, 1.19822354813023, 0.0 ], [ 103.779327069985001, 1.19813607731846, 0.0 ], [ 103.779078301905002, 1.1980147346111, 0.0 ], [ 103.778904470488001, 1.19793824084602, 0.0 ], [ 103.778680734584, 1.19783440801666, 0.0 ], [ 103.778197148344006, 1.19761581232191, 0.0 ], [ 103.777899794478003, 1.19748789288843, 0.0 ], [ 103.777738054398, 1.19741021910128, 0.0 ], [ 103.777488106549995, 1.1972970399338, 0.0 ], [ 103.777305205765998, 1.19721577897618, 0.0 ], [ 103.777235834360994, 1.19717984441109, 0.0 ], [ 103.777041118341003, 1.19709116920823, 0.0 ], [ 103.776878003619004, 1.19701217135317, 0.0 ], [ 103.776716900900993, 1.19692182555762, 0.0 ], [ 103.776592286517996, 1.19683878506959, 0.0 ], [ 103.776449017106003, 1.19672091256632, 0.0 ], [ 103.776324188667999, 1.19660533210283, 0.0 ], [ 103.776204172779998, 1.19648376393376, 0.0 ], [ 103.776131885089001, 1.19639275073532, 0.0 ], [ 103.776096216309, 1.19633751408169, 0.0 ], [ 103.776050202576002, 1.19625900880158, 0.0 ], [ 103.776004490895005, 1.1961732640848, 0.0 ], [ 103.775965662540997, 1.19609504835129, 0.0 ], [ 103.775922022120994, 1.19595682337218, 0.0 ], [ 103.775899537016997, 1.19586602916815, 0.0 ], [ 103.775872079161999, 1.19575139127427, 0.0 ], [ 103.775857024033996, 1.1956509358944, 0.0 ], [ 103.775834854940001, 1.19544351568199, 0.0 ], [ 103.77582381149, 1.19526475412834, 0.0 ], [ 103.775821949771995, 1.19513551941658, 0.0 ], [ 103.775808155958003, 1.19474214202555, 0.0 ], [ 103.775800025617997, 1.19455653991507, 0.0 ], [ 103.775770820073006, 1.19410145375136, 0.0 ], [ 103.775736609027007, 1.19372866560711, 0.0 ], [ 103.775701650976004, 1.19341598064479, 0.0 ], [ 103.775687647153006, 1.19327066425568, 0.0 ], [ 103.775660098512006, 1.19311602990729, 0.0 ], [ 103.775635795027995, 1.19301693087786, 0.0 ], [ 103.775587274141998, 1.19282731524485, 0.0 ], [ 103.775542504151005, 1.19269910336612, 0.0 ], [ 103.775497978947996, 1.19259528673994, 0.0 ], [ 103.775441212752995, 1.19247806897233, 0.0 ], [ 103.775370116226, 1.1923623856076, 0.0 ], [ 103.775324135640005, 1.19229247630799, 0.0 ], [ 103.775269613884007, 1.19222041353319, 0.0 ], [ 103.775191984816999, 1.19212378951967, 0.0 ], [ 103.775065962995996, 1.191985299606, 0.0 ], [ 103.774620531338996, 1.19155802371164, 0.0 ], [ 103.773886727054006, 1.19085241411323, 0.0 ], [ 103.773743670548001, 1.19071413810834, 0.0 ], [ 103.773352601373006, 1.19034311109515, 0.0 ], [ 103.773182527060996, 1.1901929746283, 0.0 ], [ 103.773064966719005, 1.19009368813657, 0.0 ], [ 103.772707171766001, 1.18982210032494, 0.0 ], [ 103.772360659273005, 1.18955805150763, 0.0 ], [ 103.772007159645, 1.1893126170389, 0.0 ], [ 103.771717464450006, 1.18912602375959, 0.0 ], [ 103.771603822751999, 1.18906012464599, 0.0 ], [ 103.771474803421995, 1.1889804110053, 0.0 ], [ 103.771229988507002, 1.18884341045021, 0.0 ], [ 103.770996605714004, 1.18872885737855, 0.0 ], [ 103.770867846395006, 1.18867534769346, 0.0 ], [ 103.770718774849001, 1.18860808486024, 0.0 ], [ 103.770607630475993, 1.18856745643637, 0.0 ], [ 103.770504128756997, 1.18852899142427, 0.0 ], [ 103.770402773216006, 1.18850628230503, 0.0 ], [ 103.770369660851003, 1.18849288337778, 0.0 ], [ 103.770245414152996, 1.18846594853423, 0.0 ], [ 103.770115764766004, 1.18843774473662, 0.0 ], [ 103.769995156055998, 1.18841391374651, 0.0 ], [ 103.769838159694004, 1.18838704505197, 0.0 ], [ 103.769700500930995, 1.18836303278168, 0.0 ], [ 103.769616399208999, 1.18834991211182, 0.0 ], [ 103.769447384290999, 1.18832910417055, 0.0 ], [ 103.769258242736001, 1.18831222702394, 0.0 ], [ 103.769022950198007, 1.1882992402661, 0.0 ], [ 103.768830958156002, 1.18830092240194, 0.0 ], [ 103.768742078849002, 1.1882978129138, 0.0 ], [ 103.768499626318999, 1.18831474324103, 0.0 ], [ 103.768319983897001, 1.18833158188551, 0.0 ], [ 103.768191556245, 1.18835303128237, 0.0 ], [ 103.768097142588005, 1.18836897389902, 0.0 ], [ 103.767892888391003, 1.18841871634546, 0.0 ], [ 103.767663322860997, 1.18848511295609, 0.0 ], [ 103.767498217306994, 1.18854236344232, 0.0 ], [ 103.767299006459993, 1.18862769905611, 0.0 ], [ 103.767123041895999, 1.18870769765372, 0.0 ], [ 103.766963510365997, 1.18877705316578, 0.0 ], [ 103.766907054590007, 1.18881045813673, 0.0 ], [ 103.766751216649993, 1.18888652682623, 0.0 ], [ 103.766609396139003, 1.18896960015386, 0.0 ], [ 103.766509834752995, 1.18902942599368, 0.0 ], [ 103.766393061124006, 1.18910758650452, 0.0 ], [ 103.766290036686001, 1.18917559584959, 0.0 ], [ 103.766157974310005, 1.1892801896587, 0.0 ], [ 103.765854577460999, 1.18953153959167, 0.0 ], [ 103.765477600609998, 1.18986894793773, 0.0 ], [ 103.765252111446998, 1.19008158747882, 0.0 ], [ 103.764781513211005, 1.19054330106083, 0.0 ], [ 103.764556518234002, 1.19078754086806, 0.0 ], [ 103.763966442026998, 1.19141280477529, 0.0 ], [ 103.763517870197006, 1.19187733033853, 0.0 ], [ 103.763199179734997, 1.19218356093363, 0.0 ], [ 103.762778097867994, 1.19259843110177, 0.0 ], [ 103.762266988300993, 1.19310910184264, 0.0 ], [ 103.761999208160006, 1.19337163017112, 0.0 ], [ 103.761713620202997, 1.19364301987406, 0.0 ], [ 103.761300870081001, 1.19404556531817, 0.0 ], [ 103.761059553538004, 1.19430767461427, 0.0 ], [ 103.760870662190001, 1.19453689443401, 0.0 ], [ 103.760794147094998, 1.19463609308179, 0.0 ], [ 103.760719439911, 1.19476506708175, 0.0 ], [ 103.760653810937995, 1.19487176952898, 0.0 ], [ 103.760596051584002, 1.19499415296513, 0.0 ], [ 103.760561843277003, 1.19507326407672, 0.0 ], [ 103.760530052559005, 1.19516362916767, 0.0 ], [ 103.760506701677002, 1.1952484416835, 0.0 ], [ 103.760456108994006, 1.19543218917074, 0.0 ], [ 103.760446010270002, 1.19548082925676, 0.0 ], [ 103.760430445420994, 1.19561635694793, 0.0 ], [ 103.760424656859996, 1.19573241030882, 0.0 ], [ 103.760424189627003, 1.19583489020073, 0.0 ], [ 103.760434466838007, 1.19593459488425, 0.0 ], [ 103.760443169515995, 1.19597923365825, 0.0 ], [ 103.760476009113006, 1.19611581984483, 0.0 ], [ 103.760524554523997, 1.19625727374178, 0.0 ], [ 103.760629870333005, 1.19647106205677, 0.0 ], [ 103.760699866249993, 1.19659794087589, 0.0 ], [ 103.760754908414995, 1.1966856340735, 0.0 ], [ 103.760859038251994, 1.19682991106322, 0.0 ], [ 103.761008607308, 1.19701634169868, 0.0 ], [ 103.761194143899004, 1.19723009323548, 0.0 ], [ 103.761305362627994, 1.19735491298942, 0.0 ], [ 103.761448986145993, 1.19751294096559, 0.0 ], [ 103.761609744512995, 1.1976956938155, 0.0 ], [ 103.761794276429995, 1.19788371791971, 0.0 ], [ 103.762004470887007, 1.19809957451191, 0.0 ], [ 103.762148039124995, 1.19824405959073, 0.0 ], [ 103.762249361970007, 1.19836036355247, 0.0 ], [ 103.762384415054996, 1.19850489994651, 0.0 ], [ 103.762495231965005, 1.19864100792809, 0.0 ], [ 103.762534879230998, 1.19869087563543, 0.0 ], [ 103.762629491067003, 1.19880992958333, 0.0 ], [ 103.762754290960004, 1.19896761968074, 0.0 ], [ 103.762859711569007, 1.19909924638156, 0.0 ], [ 103.762967447199998, 1.19924846574738, 0.0 ], [ 103.763072487345994, 1.1993963465799, 0.0 ], [ 103.763131596101999, 1.19949168986262, 0.0 ], [ 103.763252087549006, 1.19969048863578, 0.0 ], [ 103.763324364729002, 1.19982728381562, 0.0 ], [ 103.763359173894997, 1.19989884981285, 0.0 ], [ 103.763481289086002, 1.20016445133503, 0.0 ], [ 103.763525237731997, 1.20027839610069, 0.0 ], [ 103.763592282941005, 1.20044953258533, 0.0 ], [ 103.763628147798002, 1.20055946447541, 0.0 ], [ 103.763671420348004, 1.20072578098831, 0.0 ], [ 103.763695631537999, 1.20083533184118, 0.0 ], [ 103.763718893323002, 1.20093224869305, 0.0 ], [ 103.763745180171995, 1.20110905178392, 0.0 ], [ 103.763750981095995, 1.20121014002292, 0.0 ], [ 103.763763255491, 1.20135858639562, 0.0 ], [ 103.763761344157004, 1.20154413939733, 0.0 ], [ 103.763749743161995, 1.20166338954856, 0.0 ], [ 103.763728837442997, 1.20180797795424, 0.0 ], [ 103.763705594377996, 1.2019295556413, 0.0 ], [ 103.763688901600005, 1.20201001383692, 0.0 ], [ 103.763648349492001, 1.20217187600909, 0.0 ], [ 103.763566035956998, 1.20242112135571, 0.0 ], [ 103.763464847700007, 1.20265784166422, 0.0 ], [ 103.763339559838997, 1.20291863644077, 0.0 ], [ 103.763307682774993, 1.2030118267924, 0.0 ], [ 103.763303528761995, 1.20308995114225, 0.0 ], [ 103.763316481038004, 1.20318647885307, 0.0 ], [ 103.763364038003004, 1.20330582005917, 0.0 ], [ 103.763429678359998, 1.20346251923194, 0.0 ], [ 103.763485478996998, 1.20362424370495, 0.0 ], [ 103.763508432495996, 1.20369006215746, 0.0 ], [ 103.763535682365003, 1.20376819816897, 0.0 ], [ 103.763487357241999, 1.20375153761988, 0.0 ], [ 103.763449741775005, 1.20375853914663, 0.0 ], [ 103.763413513345, 1.20377591558151, 0.0 ], [ 103.763360311683996, 1.20380693844232, 0.0 ], [ 103.763316533543005, 1.20384061314309, 0.0 ], [ 103.763291047799001, 1.20385476217587, 0.0 ], [ 103.763239563663006, 1.20386726640075, 0.0 ], [ 103.763183118116999, 1.20387302936104, 0.0 ], [ 103.763152511122996, 1.20384161455321, 0.0 ], [ 103.763166161892002, 1.20378374822152, 0.0 ], [ 103.763204993830001, 1.20374604173699, 0.0 ], [ 103.763241159744993, 1.20371376770215, 0.0 ], [ 103.763266558862, 1.20367885264323, 0.0 ], [ 103.763303030233999, 1.20361271919761, 0.0 ], [ 103.763300138258998, 1.20356443237359, 0.0 ], [ 103.763262546052005, 1.2034698610714, 0.0 ], [ 103.763190436673, 1.20337369448062, 0.0 ], [ 103.763161634724, 1.20334497743997, 0.0 ], [ 103.763098625542995, 1.20328125969126, 0.0 ], [ 103.763034254326001, 1.20321348582981, 0.0 ], [ 103.762994206865002, 1.20317490639791, 0.0 ], [ 103.762969037312004, 1.20315745421745, 0.0 ], [ 103.762925862076003, 1.20312115189397, 0.0 ], [ 103.762897093169002, 1.20310056328233, 0.0 ], [ 103.762880027061996, 1.20309208894085, 0.0 ], [ 103.762840554773007, 1.20308375238461, 0.0 ], [ 103.762813198808999, 1.20307940529605, 0.0 ], [ 103.762781455731002, 1.20309765636027, 0.0 ], [ 103.762770363821005, 1.20312435925057, 0.0 ], [ 103.762798007344003, 1.20319732321632, 0.0 ], [ 103.762819280114996, 1.20324730258514, 0.0 ], [ 103.762839709757998, 1.20330992766466, 0.0 ], [ 103.762857493918006, 1.20338295196592, 0.0 ], [ 103.762870847204994, 1.20346819231138, 0.0 ], [ 103.762835480616999, 1.20358397721477, 0.0 ], [ 103.762764164266997, 1.20367695671914, 0.0 ], [ 103.762701758777993, 1.20375724278957, 0.0 ], [ 103.762653985602995, 1.2038004213445, 0.0 ], [ 103.762587902171006, 1.20385861006701, 0.0 ], [ 103.762553467165006, 1.20387597478008, 0.0 ], [ 103.762515873119, 1.20388839343915, 0.0 ], [ 103.762470178312995, 1.2038922846304, 0.0 ], [ 103.762436130039006, 1.20389520031604, 0.0 ], [ 103.762400184748998, 1.20387330018227, 0.0 ], [ 103.762349422290001, 1.20384426693497, 0.0 ], [ 103.762284324929993, 1.20381712705075, 0.0 ], [ 103.762233608903998, 1.20379937937055, 0.0 ], [ 103.762178445035005, 1.20378978622977, 0.0 ], [ 103.762130041334004, 1.20378917812949, 0.0 ], [ 103.762053049111998, 1.2038108663897, 0.0 ], [ 103.762012822086007, 1.20383639283536, 0.0 ], [ 103.761962893740005, 1.20389989872739, 0.0 ], [ 103.761924564609004, 1.20395069407737, 0.0 ], [ 103.761883565881007, 1.20400602022376, 0.0 ], [ 103.761816610718995, 1.2040700827522, 0.0 ], [ 103.761782638346006, 1.20409105588258, 0.0 ], [ 103.761757589338998, 1.20410249453066, 0.0 ], [ 103.761658683018993, 1.20413515123992, 0.0 ], [ 103.761569560165, 1.20414969106552, 0.0 ], [ 103.761550123698001, 1.20411008299181, 0.0 ], [ 103.761580871857007, 1.20406836274726, 0.0 ], [ 103.761615769510996, 1.20405460647471, 0.0 ], [ 103.761660961507005, 1.20403717604007, 0.0 ], [ 103.761718702107004, 1.2040201203434, 0.0 ], [ 103.761793365947995, 1.20397722829562, 0.0 ], [ 103.761815221096001, 1.20395226569219, 0.0 ], [ 103.761853952145998, 1.20389063244721, 0.0 ], [ 103.761947112067006, 1.20376998179166, 0.0 ], [ 103.762042723603997, 1.20369987523917, 0.0 ], [ 103.762081204538006, 1.20368519479366, 0.0 ], [ 103.762124668289999, 1.20368312313209, 0.0 ], [ 103.762177990501002, 1.20368144241428, 0.0 ], [ 103.762249763192003, 1.20369725621158, 0.0 ], [ 103.762341752968993, 1.2037255860408, 0.0 ], [ 103.762419395372007, 1.20375174592049, 0.0 ], [ 103.762479051729997, 1.20376402061541, 0.0 ], [ 103.762518927738, 1.20376152018487, 0.0 ], [ 103.762577910698994, 1.20372007920983, 0.0 ], [ 103.762597549956993, 1.20370099853015, 0.0 ], [ 103.762635872817995, 1.203648848431, 0.0 ], [ 103.762687412380004, 1.20354244673705, 0.0 ], [ 103.762735733092995, 1.20341574829918, 0.0 ], [ 103.762708666511003, 1.20337393067097, 0.0 ], [ 103.762691635235996, 1.20337358295109, 0.0 ], [ 103.762654417229001, 1.20336839364012, 0.0 ], [ 103.762621667589002, 1.20336046783741, 0.0 ], [ 103.762605040024994, 1.20334928312437, 0.0 ], [ 103.762523948381002, 1.20324820558221, 0.0 ], [ 103.762463166697998, 1.20318176393116, 0.0 ], [ 103.76246647939, 1.2031167365728, 0.0 ], [ 103.762489191062997, 1.20308183682522, 0.0 ], [ 103.762548588420998, 1.20303271870799, 0.0 ], [ 103.762603137819994, 1.20300259031453, 0.0 ], [ 103.762633919885005, 1.20296899577444, 0.0 ], [ 103.762650806492999, 1.20293458242162, 0.0 ], [ 103.762656492234996, 1.20290114277763, 0.0 ], [ 103.762648253942004, 1.20286011153269, 0.0 ], [ 103.762625256514994, 1.20282639530967, 0.0 ], [ 103.762550099776007, 1.20275146491809, 0.0 ], [ 103.762257071698997, 1.20244672882938, 0.0 ], [ 103.762160793139998, 1.20235793305815, 0.0 ], [ 103.761978979622, 1.20217711501543, 0.0 ], [ 103.761892117455005, 1.2020891641599, 0.0 ], [ 103.761825989483, 1.20202997897863, 0.0 ], [ 103.761745969634006, 1.20197087753538, 0.0 ], [ 103.761717660714993, 1.20195299297509, 0.0 ], [ 103.761678616257001, 1.20194014092105, 0.0 ], [ 103.761639155599994, 1.20193451201689, 0.0 ], [ 103.761597488874003, 1.20193747632788, 0.0 ], [ 103.761510681095004, 1.20196960701633, 0.0 ], [ 103.761434649028004, 1.20200663874007, 0.0 ], [ 103.761379192212999, 1.20203406394034, 0.0 ], [ 103.761274628783994, 1.20210693306936, 0.0 ], [ 103.761250514896005, 1.20212784676832, 0.0 ], [ 103.761232338580996, 1.20217490671438, 0.0 ], [ 103.761228138972001, 1.20224219676705, 0.0 ], [ 103.761230330626006, 1.20233788766041, 0.0 ], [ 103.761234970453003, 1.20237532848472, 0.0 ], [ 103.761235701862006, 1.20244304010231, 0.0 ], [ 103.761224699235001, 1.20249096028961, 0.0 ], [ 103.761197129761001, 1.20254259154925, 0.0 ], [ 103.761150849885993, 1.20262097432448, 0.0 ], [ 103.761114339181006, 1.2026780776562, 0.0 ], [ 103.761088539013997, 1.20272428277303, 0.0 ], [ 103.761076118096994, 1.20275460398355, 0.0 ], [ 103.761071821162005, 1.20279842124567, 0.0 ], [ 103.761072864306001, 1.20283362638453, 0.0 ], [ 103.761093017880995, 1.20293733314068, 0.0 ], [ 103.761119125204004, 1.20296471167025, 0.0 ], [ 103.761142582578998, 1.20300113468092, 0.0 ], [ 103.761088244901998, 1.20297483159356, 0.0 ], [ 103.761051462753997, 1.20296693098718, 0.0 ], [ 103.760989550353997, 1.20295105773466, 0.0 ], [ 103.760913365571, 1.20295152325752, 0.0 ], [ 103.760917232015004, 1.20291177291266, 0.0 ], [ 103.760924629952996, 1.20285890937321, 0.0 ], [ 103.760927138827995, 1.20281600818523, 0.0 ], [ 103.760921635344999, 1.20278579502076, 0.0 ], [ 103.760907553267998, 1.20274073738417, 0.0 ], [ 103.760891714376001, 1.20270426754826, 0.0 ], [ 103.760857842142002, 1.20264217657712, 0.0 ], [ 103.760819020141994, 1.2025751485461, 0.0 ], [ 103.760793598814999, 1.2024976573729, 0.0 ], [ 103.760786190293999, 1.20244082146777, 0.0 ], [ 103.760782766969001, 1.20237267568366, 0.0 ], [ 103.760771752853998, 1.20231089642434, 0.0 ], [ 103.760750791871004, 1.20222841056359, 0.0 ], [ 103.760738041476003, 1.2021801849722, 0.0 ], [ 103.760699575868003, 1.20209148746561, 0.0 ], [ 103.760637362590003, 1.20200383657688, 0.0 ], [ 103.760580573341002, 1.20192698756488, 0.0 ], [ 103.760509432237001, 1.20184797130884, 0.0 ], [ 103.760460332009004, 1.20178777637774, 0.0 ], [ 103.760383834756993, 1.20171375749453, 0.0 ], [ 103.760287972501999, 1.20161728452049, 0.0 ], [ 103.760146233341999, 1.20148136553439, 0.0 ], [ 103.759921717313006, 1.20127010981763, 0.0 ], [ 103.759888863257004, 1.20123690427344, 0.0 ], [ 103.759751202187999, 1.20111179434637, 0.0 ], [ 103.759696301033998, 1.20105795783427, 0.0 ], [ 103.759678738388004, 1.20103775023235, 0.0 ], [ 103.759646405002997, 1.20102214725484, 0.0 ], [ 103.759622661807995, 1.20102409913399, 0.0 ], [ 103.759572966660002, 1.20103614030556, 0.0 ], [ 103.759505477456003, 1.20107988982875, 0.0 ], [ 103.759442510198994, 1.20113309279767, 0.0 ], [ 103.759328623239995, 1.2012272358733, 0.0 ], [ 103.759276444189993, 1.20128804845672, 0.0 ], [ 103.759235851848004, 1.20133344012792, 0.0 ], [ 103.759189949765997, 1.2013951156446, 0.0 ], [ 103.759136601513006, 1.20149791875133, 0.0 ], [ 103.759114804388005, 1.20153687547459, 0.0 ], [ 103.759037341343003, 1.2016601391712, 0.0 ], [ 103.758917552330004, 1.20184280037937, 0.0 ], [ 103.758887293577999, 1.20189444962706, 0.0 ], [ 103.758822353219998, 1.20201176927021, 0.0 ], [ 103.758794831022996, 1.20207468697602, 0.0 ], [ 103.758745187429, 1.20220590712243, 0.0 ], [ 103.758706349893004, 1.20234924966933, 0.0 ], [ 103.758616552239005, 1.20263059324835, 0.0 ], [ 103.758576795658996, 1.20276852495281, 0.0 ], [ 103.758546570812001, 1.2028282990087, 0.0 ], [ 103.758526143737001, 1.20287311695108, 0.0 ], [ 103.758513712070993, 1.20290118085344, 0.0 ], [ 103.758502237822995, 1.20294368658204, 0.0 ], [ 103.758463425480002, 1.20298590758528, 0.0 ], [ 103.758433669515995, 1.20305064480592, 0.0 ], [ 103.758410121796004, 1.20309954405878, 0.0 ], [ 103.758399621926003, 1.20316055221096, 0.0 ], [ 103.758387888570994, 1.20324820381718, 0.0 ], [ 103.758388629730007, 1.20331817182096, 0.0 ], [ 103.758419962646002, 1.2034159426498, 0.0 ], [ 103.758435032443003, 1.20348311294519, 0.0 ], [ 103.758455478946999, 1.20354980136267, 0.0 ], [ 103.758461272535996, 1.20364908267879, 0.0 ], [ 103.758448031650005, 1.20369746672835, 0.0 ], [ 103.758420077131007, 1.20376445043968, 0.0 ], [ 103.758373505913994, 1.20388030369476, 0.0 ], [ 103.758363792053999, 1.20391512327526, 0.0 ], [ 103.758251189743007, 1.20420879450162, 0.0 ], [ 103.758247330396998, 1.20425034995192, 0.0 ], [ 103.758240356659996, 1.20429734235632, 0.0 ], [ 103.75821475907, 1.20439184956465, 0.0 ], [ 103.758208591891005, 1.20441716708288, 0.0 ], [ 103.758173271274003, 1.20465122743912, 0.0 ], [ 103.758060009876999, 1.20489479321393, 0.0 ], [ 103.758038746764001, 1.20495406197037, 0.0 ], [ 103.757944622733007, 1.20516545821047, 0.0 ], [ 103.757910485824993, 1.2052541483027, 0.0 ], [ 103.757877307217001, 1.20535773059405, 0.0 ], [ 103.757831328018995, 1.20550788911673, 0.0 ], [ 103.757736165948998, 1.205792424001, 0.0 ], [ 103.757665416188004, 1.20602083197928, 0.0 ], [ 103.757646483211005, 1.20610130543443, 0.0 ], [ 103.757648908871005, 1.20614553074291, 0.0 ], [ 103.757665606950994, 1.20617341729447, 0.0 ], [ 103.757697074017003, 1.20619624886061, 0.0 ], [ 103.757725325818001, 1.20620058969667, 0.0 ], [ 103.757763414682998, 1.20619945487933, 0.0 ], [ 103.757834634608002, 1.2061904421617, 0.0 ], [ 103.757848539012002, 1.20619306611175, 0.0 ], [ 103.757834356746002, 1.20623107344953, 0.0 ], [ 103.757813299171005, 1.20623255692393, 0.0 ], [ 103.757793165093005, 1.20624035379368, 0.0 ], [ 103.757763627133997, 1.20625001429604, 0.0 ], [ 103.757731909870998, 1.20627458590166, 0.0 ], [ 103.757723522321001, 1.20630488369198, 0.0 ], [ 103.757714849756994, 1.20637445803147, 0.0 ], [ 103.757724441091995, 1.20641728629688, 0.0 ], [ 103.757751031327999, 1.20655977783172, 0.0 ], [ 103.757815180595998, 1.20678871592058, 0.0 ], [ 103.757852632261006, 1.20695642144472, 0.0 ], [ 103.757907901642, 1.20731226787181, 0.0 ], [ 103.757949496286997, 1.20761312311883, 0.0 ], [ 103.757965498006001, 1.20790284763514, 0.0 ], [ 103.757963506804003, 1.20806944059246, 0.0 ], [ 103.757955826219003, 1.20826857152652, 0.0 ], [ 103.757951621158, 1.2083345077315, 0.0 ], [ 103.757970297458002, 1.20840662229028, 0.0 ], [ 103.757991126915996, 1.2085649508956, 0.0 ], [ 103.758023842176996, 1.20877873185533, 0.0 ], [ 103.758035796702998, 1.20885088963563, 0.0 ], [ 103.758065219290003, 1.2089206820853, 0.0 ], [ 103.758105475641997, 1.20900891754513, 0.0 ], [ 103.758138423497996, 1.20906424387549, 0.0 ], [ 103.758220368991999, 1.20915538350608, 0.0 ], [ 103.758293225073999, 1.20921588300717, 0.0 ], [ 103.758389017865994, 1.20929610462388, 0.0 ], [ 103.758444800687997, 1.2093463237338, 0.0 ], [ 103.758499273256007, 1.20940467937514, 0.0 ], [ 103.758531703792002, 1.20955074692344, 0.0 ], [ 103.758786027043996, 1.20981644364179, 0.0 ], [ 103.758780917243996, 1.20988057832899, 0.0 ], [ 103.758758143885998, 1.20990013006304, 0.0 ], [ 103.758734065613993, 1.20992962072834, 0.0 ], [ 103.758721648202993, 1.20996084628756, 0.0 ], [ 103.758725886944006, 1.21001002575488, 0.0 ], [ 103.758773171532994, 1.21006436038737, 0.0 ], [ 103.758853563128994, 1.21010495140006, 0.0 ], [ 103.758889119016004, 1.21014129970229, 0.0 ], [ 103.758920384167993, 1.210222819996, 0.0 ], [ 103.758943127855005, 1.21030303596036, 0.0 ], [ 103.758945147595, 1.21057117832844, 0.0 ], [ 103.758937850248003, 1.21075495768623, 0.0 ], [ 103.758936632615004, 1.21089220222393, 0.0 ], [ 103.758922300810994, 1.21110852766195, 0.0 ], [ 103.758924619148999, 1.211234011939, 0.0 ], [ 103.758942490728998, 1.21132780318647, 0.0 ], [ 103.758962145024, 1.21141932543215, 0.0 ], [ 103.759051362316995, 1.21164133856483, 0.0 ], [ 103.759095764643007, 1.21175663452611, 0.0 ], [ 103.759116216565999, 1.21182467677343, 0.0 ], [ 103.759188334710998, 1.21203009253079, 0.0 ], [ 103.759205627609006, 1.21209273653791, 0.0 ], [ 103.759219100221003, 1.21231340731019, 0.0 ], [ 103.759224123886995, 1.21244293959748, 0.0 ], [ 103.759231610742006, 1.21262527418693, 0.0 ], [ 103.759237062235997, 1.21274983790638, 0.0 ], [ 103.759244922923003, 1.21312854534079, 0.0 ], [ 103.759240931907001, 1.2133529334735, 0.0 ], [ 103.759242439491999, 1.21381971137748, 0.0 ], [ 103.759238320818994, 1.21401340265645, 0.0 ], [ 103.759215599878004, 1.21415258465208, 0.0 ], [ 103.759199997302005, 1.2142795344076, 0.0 ], [ 103.759157270090995, 1.21435021927242, 0.0 ], [ 103.759130952681005, 1.21437972344177, 0.0 ], [ 103.75910772556, 1.2143983753206, 0.0 ], [ 103.759047948255997, 1.21446419875219, 0.0 ], [ 103.759002939081, 1.21452496628836, 0.0 ], [ 103.758970399104001, 1.21456714857141, 0.0 ], [ 103.758941829186995, 1.21459395766963, 0.0 ], [ 103.758870599887004, 1.2147077039654, 0.0 ], [ 103.758841275185006, 1.21476837607051, 0.0 ], [ 103.758806179858993, 1.21484217577192, 0.0 ], [ 103.758784512054007, 1.21491182842945, 0.0 ], [ 103.758780977859999, 1.21492403906247, 0.0 ], [ 103.758758076559999, 1.21502033517156, 0.0 ], [ 103.758758276516005, 1.21506818601369, 0.0 ], [ 103.758769643229002, 1.21521393101894, 0.0 ], [ 103.758798574452996, 1.21538033491298, 0.0 ], [ 103.758823289247999, 1.21550297467688, 0.0 ], [ 103.758832141903994, 1.2155837283528, 0.0 ], [ 103.758841515228994, 1.21568163331816, 0.0 ], [ 103.758842769015004, 1.21576694749378, 0.0 ], [ 103.758847707857001, 1.21587616503294, 0.0 ], [ 103.758853798060997, 1.21593932874014, 0.0 ], [ 103.758863353733005, 1.21597358000665, 0.0 ], [ 103.758875265444999, 1.21603580333621, 0.0 ], [ 103.758883198183995, 1.21611069489484, 0.0 ], [ 103.758912873495007, 1.21624052811178, 0.0 ], [ 103.758933857703994, 1.2163288805954, 0.0 ], [ 103.758967934468998, 1.21643972679878, 0.0 ], [ 103.758983155205001, 1.21654256161721, 0.0 ], [ 103.758986615073994, 1.21661973566779, 0.0 ], [ 103.758955922073, 1.21667454835588, 0.0 ], [ 103.758909695423995, 1.21676601993636, 0.0 ], [ 103.758872281508005, 1.21682132441098, 0.0 ], [ 103.758827744745005, 1.21688795766249, 0.0 ], [ 103.758807319338999, 1.21693322596967, 0.0 ], [ 103.758800767143995, 1.21697389596841, 0.0 ], [ 103.758792556307, 1.21704662745516, 0.0 ], [ 103.758785480569998, 1.21710930967384, 0.0 ], [ 103.758785534222994, 1.21711873315456, 0.0 ], [ 103.758788034990005, 1.21717697249625, 0.0 ], [ 103.758797253975999, 1.21723465945803, 0.0 ], [ 103.758808111305996, 1.21727967179534, 0.0 ], [ 103.758828059538004, 1.21733493807134, 0.0 ], [ 103.758867246877998, 1.21738720329586, 0.0 ], [ 103.758900706071998, 1.2174106417388, 0.0 ], [ 103.758932084945997, 1.21741062090559, 0.0 ], [ 103.758968766137997, 1.21740419370028, 0.0 ], [ 103.759005199897004, 1.21737744270164, 0.0 ], [ 103.759024531456006, 1.21734507602835, 0.0 ], [ 103.759043812808002, 1.21730864242581, 0.0 ], [ 103.759058229445003, 1.21727770541638, 0.0 ], [ 103.759076903758, 1.21722818202328, 0.0 ], [ 103.759089352139995, 1.21718281763036, 0.0 ], [ 103.759097893488004, 1.21714790306225, 0.0 ], [ 103.759104374130999, 1.21712792854049, 0.0 ], [ 103.759110800087996, 1.21710343581156, 0.0 ], [ 103.759113226674003, 1.21708171484939, 0.0 ], [ 103.759108387170002, 1.21705242324979, 0.0 ], [ 103.759111185397003, 1.21704332541925, 0.0 ], [ 103.759167489722003, 1.21679017723378, 0.0 ], [ 103.759220961726001, 1.2166097263179, 0.0 ], [ 103.759261592909994, 1.21646682426477, 0.0 ], [ 103.759359029416999, 1.21608295853622, 0.0 ], [ 103.759365044866001, 1.21602107483929, 0.0 ], [ 103.759405330554003, 1.2157955608725, 0.0 ], [ 103.759447963366995, 1.21559531310808, 0.0 ], [ 103.759494289271998, 1.21542077562615, 0.0 ], [ 103.759512781954996, 1.21534211269009, 0.0 ], [ 103.759550909547002, 1.2152430143659, 0.0 ], [ 103.759552029657002, 1.21518928699789, 0.0 ], [ 103.759552917646005, 1.21508048562569, 0.0 ], [ 103.759542256355999, 1.21499613162528, 0.0 ], [ 103.759506192429996, 1.21483880012618, 0.0 ], [ 103.759484116877999, 1.21470395513383, 0.0 ], [ 103.759483333744996, 1.21462405540065, 0.0 ], [ 103.759489749330996, 1.21455088343395, 0.0 ], [ 103.759499026472, 1.21451877422241, 0.0 ], [ 103.759551376508, 1.21439160119186, 0.0 ], [ 103.759613712714994, 1.21429461250835, 0.0 ], [ 103.759672084228995, 1.21421389956489, 0.0 ], [ 103.759694286957995, 1.21416500841201, 0.0 ], [ 103.759729331364994, 1.21407902147716, 0.0 ], [ 103.759722904377995, 1.21404249401289, 0.0 ], [ 103.759713154080998, 1.21396174664362, 0.0 ], [ 103.759705497390996, 1.2138453221462, 0.0 ], [ 103.759708317172993, 1.21376991539451, 0.0 ], [ 103.759724668039993, 1.21371473965064, 0.0 ], [ 103.759767980375003, 1.21356956408318, 0.0 ], [ 103.759809717105, 1.21347631256817, 0.0 ], [ 103.759850591038003, 1.21339119217132, 0.0 ], [ 103.759875388376997, 1.21331971367527, 0.0 ], [ 103.759901963074995, 1.21324461234258, 0.0 ], [ 103.759972138456007, 1.21309295230479, 0.0 ], [ 103.759997484137003, 1.21304539607608, 0.0 ], [ 103.760030434930997, 1.21299463408167, 0.0 ] ], [ [ 103.763535297301999, 1.20417649896696, 0.0 ], [ 103.763529311493997, 1.20413816369356, 0.0 ], [ 103.763528240650999, 1.2039896470711, 0.0 ], [ 103.763531648886996, 1.20394719084936, 0.0 ], [ 103.763544825384002, 1.20388345788873, 0.0 ], [ 103.763551394434003, 1.20384685208417, 0.0 ], [ 103.763547611931997, 1.20380240607458, 0.0 ], [ 103.763586180428007, 1.20391300093401, 0.0 ], [ 103.763636558838002, 1.20406392353172, 0.0 ], [ 103.763665523910007, 1.20417990544419, 0.0 ], [ 103.763621521903005, 1.20421885892121, 0.0 ], [ 103.763596880180003, 1.20422036405428, 0.0 ], [ 103.763557834793005, 1.20420705984265, 0.0 ], [ 103.763535297301999, 1.20417649896696, 0.0 ] ] ], [ [ [ 103.793033569475, 1.21055140908625, 0.0 ], [ 103.793066140915997, 1.21053110657447, 0.0 ], [ 103.793067380826002, 1.21053384681956, 0.0 ], [ 103.793083949554998, 1.2105252375104, 0.0 ], [ 103.793134752181004, 1.21048248078647, 0.0 ], [ 103.793190865013997, 1.21044038251851, 0.0 ], [ 103.793235188319002, 1.21040651470161, 0.0 ], [ 103.793277914247, 1.21036032036246, 0.0 ], [ 103.793322040926, 1.21031614277779, 0.0 ], [ 103.793377228585001, 1.21025344395694, 0.0 ], [ 103.793416071986996, 1.21021004404632, 0.0 ], [ 103.793451932308002, 1.21016747610696, 0.0 ], [ 103.793451069753004, 1.21016624615752, 0.0 ], [ 103.793463163929999, 1.21015411879903, 0.0 ], [ 103.793520121588003, 1.21009598704543, 0.0 ], [ 103.793525692458005, 1.21009033484516, 0.0 ], [ 103.793570573766004, 1.21005409759373, 0.0 ], [ 103.793615176643996, 1.21001022659066, 0.0 ], [ 103.793658782251001, 1.20996076840384, 0.0 ], [ 103.793711040510004, 1.20991384166167, 0.0 ], [ 103.793753298306996, 1.20986686050969, 0.0 ], [ 103.793801333475997, 1.20982481727575, 0.0 ], [ 103.793838658319004, 1.20978538749951, 0.0 ], [ 103.793886254165002, 1.20973969062204, 0.0 ], [ 103.793899174081005, 1.20972697543613, 0.0 ], [ 103.793930963958005, 1.20969566677716, 0.0 ], [ 103.79397167626, 1.20965171522232, 0.0 ], [ 103.794026531301, 1.2095987111772, 0.0 ], [ 103.794079193849001, 1.20955378398471, 0.0 ], [ 103.794135405692003, 1.20949728820285, 0.0 ], [ 103.794184016795995, 1.20945527210091, 0.0 ], [ 103.794253616573002, 1.20939306182687, 0.0 ], [ 103.794303474884003, 1.20934591889425, 0.0 ], [ 103.794356874197007, 1.20930154156067, 0.0 ], [ 103.794421011164999, 1.20922784576471, 0.0 ], [ 103.794453555896993, 1.20918843399756, 0.0 ], [ 103.794458441179003, 1.209184048801, 0.0 ], [ 103.794499208345002, 1.20919838538574, 0.0 ], [ 103.794515540885996, 1.20918044572787, 0.0 ], [ 103.794625242839999, 1.20913778839657, 0.0 ], [ 103.794737885524995, 1.20903865168557, 0.0 ], [ 103.794882925642995, 1.20902257142974, 0.0 ], [ 103.79500326199999, 1.20894392863728, 0.0 ], [ 103.795048159740006, 1.20882228943796, 0.0 ], [ 103.795063063445994, 1.20875391873342, 0.0 ], [ 103.795097113908, 1.20859770097435, 0.0 ], [ 103.795326448064998, 1.20838719149996, 0.0 ], [ 103.795373349946999, 1.20836037501753, 0.0 ], [ 103.795397203817004, 1.20835082977776, 0.0 ], [ 103.795468344160994, 1.20831233013962, 0.0 ], [ 103.795500933476006, 1.20829580060868, 0.0 ], [ 103.795514454425003, 1.2082873902014, 0.0 ], [ 103.795612968293995, 1.20822611179092, 0.0 ], [ 103.795983486769003, 1.20801041769182, 0.0 ], [ 103.796109390115006, 1.20794095513566, 0.0 ], [ 103.796254841682995, 1.20785888960774, 0.0 ], [ 103.796610127619999, 1.2079066295738, 0.0 ], [ 103.796745274347003, 1.20774059627776, 0.0 ], [ 103.796956302501997, 1.20749205785015, 0.0 ], [ 103.796937891452998, 1.2074630066769, 0.0 ], [ 103.796919941707998, 1.2074063425252, 0.0 ], [ 103.796922901043004, 1.20736646096143, 0.0 ], [ 103.796936502853001, 1.20729016617814, 0.0 ], [ 103.796960409723994, 1.20721276278164, 0.0 ], [ 103.797009615365994, 1.20711766310556, 0.0 ], [ 103.797031828973005, 1.20707513834061, 0.0 ], [ 103.797076401623002, 1.20699913789088, 0.0 ], [ 103.797154816463006, 1.20687811949492, 0.0 ], [ 103.797229436671998, 1.2067725620743, 0.0 ], [ 103.797292011875996, 1.20669982571518, 0.0 ], [ 103.797365480020005, 1.20660651066767, 0.0 ], [ 103.797395990590999, 1.20648751559537, 0.0 ], [ 103.797449211488996, 1.20633672243667, 0.0 ], [ 103.797931301892007, 1.20546477596209, 0.0 ], [ 103.798257000042, 1.20498116182187, 0.0 ], [ 103.798264719304001, 1.2049701738836, 0.0 ], [ 103.798402751397006, 1.20476558201249, 0.0 ], [ 103.798496530433994, 1.20466350660561, 0.0 ], [ 103.798579598930999, 1.20458236801875, 0.0 ], [ 103.799349812516994, 1.20387252337854, 0.0 ], [ 103.799807431816006, 1.20336711457575, 0.0 ], [ 103.800719601495004, 1.20250741884152, 0.0 ], [ 103.800905398216003, 1.20229786153424, 0.0 ], [ 103.800940719173994, 1.20225834209549, 0.0 ], [ 103.800974054421999, 1.20221867612537, 0.0 ], [ 103.801328953357, 1.20180455245465, 0.0 ], [ 103.801554897105007, 1.20145382504646, 0.0 ], [ 103.801529734509998, 1.20104657999298, 0.0 ], [ 103.801472214368005, 1.20082665484926, 0.0 ], [ 103.801384701166, 1.20067296687853, 0.0 ], [ 103.801293332328001, 1.20060806854511, 0.0 ], [ 103.801161934142996, 1.20060163695469, 0.0 ], [ 103.800831173505003, 1.20066432362342, 0.0 ], [ 103.799704948043996, 1.20104933441213, 0.0 ], [ 103.798426397650005, 1.20143477686488, 0.0 ], [ 103.797983877236007, 1.20171384923032, 0.0 ], [ 103.797973697019003, 1.20172027009141, 0.0 ], [ 103.797882802884004, 1.20177617676915, 0.0 ], [ 103.797872550788, 1.20178245383483, 0.0 ], [ 103.796907729479003, 1.2023729300995, 0.0 ], [ 103.796184518963003, 1.20279505178112, 0.0 ], [ 103.793783820415996, 1.20429804213552, 0.0 ], [ 103.793728012246007, 1.2043449959637, 0.0 ], [ 103.793527265052006, 1.20451667771879, 0.0 ], [ 103.793325329862995, 1.20475935211182, 0.0 ], [ 103.793269171687001, 1.20483833854142, 0.0 ], [ 103.793266646809002, 1.20484227249285, 0.0 ], [ 103.793107489868007, 1.20507698004263, 0.0 ], [ 103.792819947557007, 1.20570889191545, 0.0 ], [ 103.792789809515995, 1.20577837384444, 0.0 ], [ 103.792788264921995, 1.20578177423454, 0.0 ], [ 103.792651408032995, 1.20607960677952, 0.0 ], [ 103.792657014645997, 1.20608678661937, 0.0 ], [ 103.792654786225, 1.20609412189219, 0.0 ], [ 103.792621162840007, 1.20616388411959, 0.0 ], [ 103.792613570143999, 1.20618154625808, 0.0 ], [ 103.792583945253, 1.20624368474629, 0.0 ], [ 103.792559684660006, 1.20629381244047, 0.0 ], [ 103.792550088183006, 1.20631793262059, 0.0 ], [ 103.792521361991007, 1.2063673738338, 0.0 ], [ 103.792493848576996, 1.20643103168623, 0.0 ], [ 103.792454501506, 1.20651085036589, 0.0 ], [ 103.792443602250003, 1.20653058345015, 0.0 ], [ 103.792418100725996, 1.2065860206522, 0.0 ], [ 103.792397506927003, 1.20663824743178, 0.0 ], [ 103.792387084, 1.20665005828366, 0.0 ], [ 103.792362778474001, 1.20670024114129, 0.0 ], [ 103.792345760188994, 1.2067301844156, 0.0 ], [ 103.792314706856004, 1.20677851322169, 0.0 ], [ 103.792279619007004, 1.20683964777753, 0.0 ], [ 103.792252707809993, 1.2068883926537, 0.0 ], [ 103.792234279688998, 1.20692283060089, 0.0 ], [ 103.792207125450005, 1.20694118880164, 0.0 ], [ 103.792168884092007, 1.20698389144041, 0.0 ], [ 103.792156852399998, 1.20702394559239, 0.0 ], [ 103.792129339151003, 1.20707566672385, 0.0 ], [ 103.792124127156995, 1.20711670764205, 0.0 ], [ 103.792114620188002, 1.20716317287723, 0.0 ], [ 103.792115077814998, 1.20720403210444, 0.0 ], [ 103.792107664398998, 1.20724933164475, 0.0 ], [ 103.792103512897995, 1.20727388509686, 0.0 ], [ 103.792087842106994, 1.20732179812648, 0.0 ], [ 103.792066070225005, 1.20738192994114, 0.0 ], [ 103.792056374750004, 1.20741627667929, 0.0 ], [ 103.792043282654006, 1.20746651396654, 0.0 ], [ 103.792031161246996, 1.20749726219831, 0.0 ], [ 103.792020738944004, 1.20752692521774, 0.0 ], [ 103.792008346692, 1.20758361968304, 0.0 ], [ 103.791988507422005, 1.20764944812282, 0.0 ], [ 103.791977139650996, 1.20769439489953, 0.0 ], [ 103.791947910833997, 1.20770627781061, 0.0 ], [ 103.791942753203003, 1.20771716538428, 0.0 ], [ 103.791943004757997, 1.20771902024117, 0.0 ], [ 103.791973068941004, 1.2077238590556, 0.0 ], [ 103.791957748035003, 1.20780677102294, 0.0 ], [ 103.791957388537995, 1.20781280313336, 0.0 ], [ 103.791955879054996, 1.2078115641299, 0.0 ], [ 103.791955982367995, 1.20781256707249, 0.0 ], [ 103.791956274341999, 1.20781541582736, 0.0 ], [ 103.791956723000993, 1.207854964629, 0.0 ], [ 103.791904734111995, 1.20791476045922, 0.0 ], [ 103.791917088207001, 1.20794539149818, 0.0 ], [ 103.791939595664999, 1.20796543257621, 0.0 ], [ 103.791936477280004, 1.20800129060873, 0.0 ], [ 103.791931965661007, 1.20807280773982, 0.0 ], [ 103.791931111376002, 1.2081188670465, 0.0 ], [ 103.791928757744003, 1.20814694754993, 0.0 ], [ 103.791924757765003, 1.2081928982845, 0.0 ], [ 103.791925277927007, 1.20825732526946, 0.0 ], [ 103.791921916448004, 1.20832589418746, 0.0 ], [ 103.791922230153006, 1.20837706317534, 0.0 ], [ 103.791922320686993, 1.20839133405959, 0.0 ], [ 103.791928168332007, 1.20844281966017, 0.0 ], [ 103.791932669443, 1.20847203072518, 0.0 ], [ 103.791925408973, 1.20850371052677, 0.0 ], [ 103.791919873582998, 1.20853983078791, 0.0 ], [ 103.791924445128004, 1.20860519837467, 0.0 ], [ 103.791923636365993, 1.20867113562893, 0.0 ], [ 103.791922242644006, 1.20873883638631, 0.0 ], [ 103.791923831779997, 1.20882023832217, 0.0 ], [ 103.791926904082999, 1.20886076297382, 0.0 ], [ 103.791932366104007, 1.20892301051418, 0.0 ], [ 103.791936417287999, 1.20899648120495, 0.0 ], [ 103.791945446140005, 1.20907644531415, 0.0 ], [ 103.791957988269999, 1.20915053110342, 0.0 ], [ 103.791959820784001, 1.20918054610801, 0.0 ], [ 103.791965669172001, 1.20924244185605, 0.0 ], [ 103.791972739317998, 1.20931895126, 0.0 ], [ 103.791974795618998, 1.20940452142189, 0.0 ], [ 103.791975701715998, 1.20949712933603, 0.0 ], [ 103.791976401783998, 1.20954821693656, 0.0 ], [ 103.791974567918999, 1.20960742569765, 0.0 ], [ 103.791958303651001, 1.20968442310065, 0.0 ], [ 103.791941365439001, 1.20976512839041, 0.0 ], [ 103.791931588574997, 1.20983322693922, 0.0 ], [ 103.791918145785999, 1.20990046628469, 0.0 ], [ 103.791897991002998, 1.2099738461665, 0.0 ], [ 103.791892931644995, 1.21002155135248, 0.0 ], [ 103.791877799746999, 1.2100822159367, 0.0 ], [ 103.791863036411996, 1.21019068617467, 0.0 ], [ 103.791855064719002, 1.21025476846483, 0.0 ], [ 103.791841711426997, 1.21034504199226, 0.0 ], [ 103.791827423648002, 1.2104373865014, 0.0 ], [ 103.791816685401002, 1.21050328652269, 0.0 ], [ 103.791819677115996, 1.21052544442018, 0.0 ], [ 103.791828571929997, 1.21055686220373, 0.0 ], [ 103.791839794883998, 1.21058233834385, 0.0 ], [ 103.791861977764995, 1.21061770840776, 0.0 ], [ 103.791892562705002, 1.21064966010035, 0.0 ], [ 103.791928278187996, 1.21067996592684, 0.0 ], [ 103.791941243554007, 1.21069281715533, 0.0 ], [ 103.791952618612001, 1.21070159871603, 0.0 ], [ 103.792001470478993, 1.21072505869886, 0.0 ], [ 103.792067070688006, 1.21074623089349, 0.0 ], [ 103.792143515042994, 1.21076905824068, 0.0 ], [ 103.792211856568002, 1.21079382984722, 0.0 ], [ 103.792282901893003, 1.21080732496371, 0.0 ], [ 103.792341448871994, 1.21082157774626, 0.0 ], [ 103.792412943589994, 1.21082613683377, 0.0 ], [ 103.792474924266003, 1.21080887344306, 0.0 ], [ 103.792526427393, 1.21078981924914, 0.0 ], [ 103.792581289191006, 1.2107690739421, 0.0 ], [ 103.792643026614996, 1.21073521544246, 0.0 ], [ 103.792715502199997, 1.21070013621024, 0.0 ], [ 103.792760724638995, 1.21068576652871, 0.0 ], [ 103.792816783291997, 1.21066243475028, 0.0 ], [ 103.792863542296999, 1.21064081208122, 0.0 ], [ 103.792906536545004, 1.21061788706894, 0.0 ], [ 103.792922269653005, 1.21060956714514, 0.0 ], [ 103.792959180907999, 1.21059005149754, 0.0 ], [ 103.792967896562999, 1.21058552075848, 0.0 ], [ 103.793028537756996, 1.2105540226264, 0.0 ], [ 103.793033569475, 1.21055140908625, 0.0 ] ] ], [ [ [ 103.758065166373001, 1.19724470089745, 0.0 ], [ 103.758870048416995, 1.1972424910431, 0.0 ], [ 103.758867527145, 1.1963116735581, 0.0 ], [ 103.758065129751003, 1.19631387716696, 0.0 ], [ 103.757243109054002, 1.19631168749259, 0.0 ], [ 103.756502937091994, 1.19631169838868, 0.0 ], [ 103.755812649524003, 1.19630958162815, 0.0 ], [ 103.755348107757001, 1.19631102712099, 0.0 ], [ 103.755346532114999, 1.19636249989582, 0.0 ], [ 103.755349193599997, 1.19667713658152, 0.0 ], [ 103.755347699978003, 1.19706944450741, 0.0 ], [ 103.755348421101999, 1.19724188968776, 0.0 ], [ 103.755812706952, 1.19724040711893, 0.0 ], [ 103.756501535572994, 1.19724251842731, 0.0 ], [ 103.757241890182001, 1.1972425084572, 0.0 ], [ 103.758065166373001, 1.19724470089745, 0.0 ] ] ], [ [ [ 103.786476896956998, 1.21569411989767, 0.0 ], [ 103.786758410952999, 1.21564245842163, 0.0 ], [ 103.786877608528002, 1.21566808115101, 0.0 ], [ 103.787149862868006, 1.21543087993029, 0.0 ], [ 103.787170145836001, 1.21522669272776, 0.0 ], [ 103.787082005132007, 1.215009752111, 0.0 ], [ 103.786838883252997, 1.21509825812316, 0.0 ], [ 103.786635971463994, 1.21509780241848, 0.0 ], [ 103.786553417039002, 1.21502830956757, 0.0 ], [ 103.786533989692998, 1.21511188160694, 0.0 ], [ 103.786250791973004, 1.2152648590526, 0.0 ], [ 103.786195244800993, 1.21537027087182, 0.0 ], [ 103.786204038578006, 1.21552555865034, 0.0 ], [ 103.786306386817003, 1.21562373922377, 0.0 ], [ 103.786476896956998, 1.21569411989767, 0.0 ] ] ] ] } }
]
}
