{
"type": "FeatureCollection",
"crs": { "type": "name", "properties": { "name": "urn:ogc:def:crs:OGC:1.3:CRS84" } },
"features": [
{ "type": "Feature", "properties": { "Name": "kml_322", "Description": "<center><table><tr><th colspan='2' align='center'><em>Attributes<\/em><\/th><\/tr><tr bgcolor=\"#E3E3F3\"> <th>SUBZONE_NO<\/th> <td>4<\/td> <\/tr><tr bgcolor=\"\"> <th>SUBZONE_N<\/th> <td>SEMBAWANG NORTH<\/td> <\/tr><tr bgcolor=\"#E3E3F3\"> <th>SUBZONE_C<\/th> <td>SBSZ04<\/td> <\/tr><tr bgcolor=\"\"> <th>CA_IND<\/th> <td>N<\/td> <\/tr><tr bgcolor=\"#E3E3F3\"> <th>PLN_AREA_N<\/th> <td>SEMBAWANG<\/td> <\/tr><tr bgcolor=\"\"> <th>PLN_AREA_C<\/th> <td>SB<\/td> <\/tr><tr bgcolor=\"#E3E3F3\"> <th>REGION_N<\/th> <td>NORTH REGION<\/td> <\/tr><tr bgcolor=\"\"> <th>REGION_C<\/th> <td>NR<\/td> <\/tr><tr bgcolor=\"#E3E3F3\"> <th>INC_CRC<\/th> <td>E10B955B25D378F3<\/td> <\/tr><tr bgcolor=\"\"> <th>FMEL_UPD_D<\/th> <td>20191223152313<\/td> <\/tr><\/table><\/center>", "Subzone": "SEMBAWANG NORTH" }, "geometry": { "type": "Polygon", "coordinates": [ [ [ 103.814345352272994, 1.44806636156698, 0.0 ], [ 103.812057673656, 1.44753604671644, 0.0 ], [ 103.812232116640004, 1.44855647890349, 0.0 ], [ 103.812631174501007, 1.45110928220557, 0.0 ], [ 103.812669274122001, 1.45142655139173, 0.0 ], [ 103.812716226600003, 1.45295319533078, 0.0 ], [ 103.812668163731004, 1.45386840359252, 0.0 ], [ 103.812485605088, 1.45527645437405, 0.0 ], [ 103.812351000684004, 1.45595115626225, 0.0 ], [ 103.812160989423006, 1.45669753927746, 0.0 ], [ 103.812045166678999, 1.45707164715108, 0.0 ], [ 103.811959620704002, 1.45733525383841, 0.0 ], [ 103.811842659717001, 1.45767191651536, 0.0 ], [ 103.811705671365999, 1.4580229221968, 0.0 ], [ 103.811516348995994, 1.45848354526158, 0.0 ], [ 103.811395804003993, 1.4587525198825, 0.0 ], [ 103.810854928007004, 1.45989501502977, 0.0 ], [ 103.810638660695005, 1.46034898433385, 0.0 ], [ 103.810359403313001, 1.46093524054658, 0.0 ], [ 103.810015099660006, 1.46166289689011, 0.0 ], [ 103.809500903005997, 1.46244195086219, 0.0 ], [ 103.810853421035006, 1.46314955879212, 0.0 ], [ 103.811102344557995, 1.46327037882369, 0.0 ], [ 103.811303810195, 1.46337233424131, 0.0 ], [ 103.811492358443004, 1.46346821128735, 0.0 ], [ 103.811699528587994, 1.46355776699765, 0.0 ], [ 103.812004333819999, 1.46368091892022, 0.0 ], [ 103.812166450907995, 1.46373458177775, 0.0 ], [ 103.812388100502005, 1.46380795759488, 0.0 ], [ 103.812909291867996, 1.46395276640157, 0.0 ], [ 103.813036026660001, 1.46397350461444, 0.0 ], [ 103.813295200889002, 1.46398297293277, 0.0 ], [ 103.813611766452993, 1.46398965357702, 0.0 ], [ 103.813760457073002, 1.46399138583974, 0.0 ], [ 103.814101665093006, 1.46400230538245, 0.0 ], [ 103.814336509848005, 1.46397723030144, 0.0 ], [ 103.814622786559994, 1.46392642648645, 0.0 ], [ 103.814652623927003, 1.46392225942974, 0.0 ], [ 103.814857284735993, 1.46386524373022, 0.0 ], [ 103.815223907152003, 1.46376202178476, 0.0 ], [ 103.81552350154, 1.46366381665261, 0.0 ], [ 103.815681759217995, 1.46360012358963, 0.0 ], [ 103.815949921365004, 1.46348199321351, 0.0 ], [ 103.816396283638994, 1.46321420195187, 0.0 ], [ 103.817628400301999, 1.46233471834771, 0.0 ], [ 103.818940888924004, 1.46134054498974, 0.0 ], [ 103.820285203614006, 1.46042912481298, 0.0 ], [ 103.820540606264004, 1.46023846746096, 0.0 ], [ 103.821409096495003, 1.45971676753542, 0.0 ], [ 103.822778770773994, 1.45895043301168, 0.0 ], [ 103.821725217644001, 1.45743258013641, 0.0 ], [ 103.821350754551005, 1.45700187500614, 0.0 ], [ 103.819364926573002, 1.45506242142059, 0.0 ], [ 103.819276205655996, 1.45492352508775, 0.0 ], [ 103.819167769584993, 1.45475486511658, 0.0 ], [ 103.819098765435001, 1.454536600143, 0.0 ], [ 103.819069193074, 1.45428857009895, 0.0 ], [ 103.819069194131998, 1.45411991080935, 0.0 ], [ 103.819098769288999, 1.45392148729242, 0.0 ], [ 103.820259488177001, 1.45201649400246, 0.0 ], [ 103.820238094326001, 1.45200571928966, 0.0 ], [ 103.820172935982995, 1.45197497416324, 0.0 ], [ 103.820002405186003, 1.45189450921333, 0.0 ], [ 103.817978310993993, 1.45094431399614, 0.0 ], [ 103.817692197967006, 1.45083162017746, 0.0 ], [ 103.814764047108994, 1.44981761547269, 0.0 ], [ 103.814541573971994, 1.44973304115787, 0.0 ], [ 103.814405994782007, 1.449634089981, 0.0 ], [ 103.814321980144996, 1.44951973701545, 0.0 ], [ 103.814263729702006, 1.44935733904369, 0.0 ], [ 103.814254200966005, 1.44924683748564, 0.0 ], [ 103.814389804640996, 1.44845004454024, 0.0 ], [ 103.814469892160005, 1.44815368977388, 0.0 ], [ 103.814345352272994, 1.44806636156698, 0.0 ] ] ] } }
]
}
