{
"type": "FeatureCollection",
"crs": { "type": "name", "properties": { "name": "urn:ogc:def:crs:OGC:1.3:CRS84" } },
"features": [
{ "type": "Feature", "properties": { "Name": "kml_320", "Description": "<center><table><tr><th colspan='2' align='center'><em>Attributes<\/em><\/th><\/tr><tr bgcolor=\"#E3E3F3\"> <th>SUBZONE_NO<\/th> <td>1<\/td> <\/tr><tr bgcolor=\"\"> <th>SUBZONE_N<\/th> <td>SIMPANG NORTH<\/td> <\/tr><tr bgcolor=\"#E3E3F3\"> <th>SUBZONE_C<\/th> <td>SMSZ01<\/td> <\/tr><tr bgcolor=\"\"> <th>CA_IND<\/th> <td>N<\/td> <\/tr><tr bgcolor=\"#E3E3F3\"> <th>PLN_AREA_N<\/th> <td>SIMPANG<\/td> <\/tr><tr bgcolor=\"\"> <th>PLN_AREA_C<\/th> <td>SM<\/td> <\/tr><tr bgcolor=\"#E3E3F3\"> <th>REGION_N<\/th> <td>NORTH REGION<\/td> <\/tr><tr bgcolor=\"\"> <th>REGION_C<\/th> <td>NR<\/td> <\/tr><tr bgcolor=\"#E3E3F3\"> <th>INC_CRC<\/th> <td>19529EBD71A301DD<\/td> <\/tr><tr bgcolor=\"\"> <th>FMEL_UPD_D<\/th> <td>20191223152313<\/td> <\/tr><\/table><\/center>", "Subzone": "SIMPANG NORTH" }, "geometry": { "type": "Polygon", "coordinates": [ [ [ 103.848196923962007, 1.44859251062641, 0.0 ], [ 103.848469179996997, 1.44856966458742, 0.0 ], [ 103.848559930586006, 1.44857346682478, 0.0 ], [ 103.848771684949, 1.44858106836823, 0.0 ], [ 103.849278380353994, 1.44867238476472, 0.0 ], [ 103.849588646930002, 1.44873915623548, 0.0 ], [ 103.849885874905993, 1.44881657031037, 0.0 ], [ 103.850246046775993, 1.44896084980759, 0.0 ], [ 103.850889462417996, 1.44937610876342, 0.0 ], [ 103.851258330636995, 1.4496902266119, 0.0 ], [ 103.851408574133004, 1.44981816934871, 0.0 ], [ 103.851515157828999, 1.44989748750979, 0.0 ], [ 103.851725863951003, 1.45005328413473, 0.0 ], [ 103.851829069779996, 1.45012685326861, 0.0 ], [ 103.851945173237993, 1.45020042229094, 0.0 ], [ 103.852216082067002, 1.4503518873725, 0.0 ], [ 103.852379488026003, 1.45043843630522, 0.0 ], [ 103.853046013202004, 1.450680770164, 0.0 ], [ 103.853901744359007, 1.45101398069323, 0.0 ], [ 103.855111422551005, 1.45146323994775, 0.0 ], [ 103.855413977506998, 1.45158543279425, 0.0 ], [ 103.856157500278997, 1.44979103507304, 0.0 ], [ 103.856198943101006, 1.44972591323879, 0.0 ], [ 103.856291193047994, 1.44959463126306, 0.0 ], [ 103.856347869985996, 1.44945463881749, 0.0 ], [ 103.856425974868998, 1.44921785392394, 0.0 ], [ 103.856524947504994, 1.44893845067811, 0.0 ], [ 103.856662031710997, 1.4484980051985, 0.0 ], [ 103.856799327389993, 1.4480918640276, 0.0 ], [ 103.856934127041001, 1.44771779612903, 0.0 ], [ 103.856996652345003, 1.44752589765588, 0.0 ], [ 103.857051944418998, 1.44738319844582, 0.0 ], [ 103.857107981172007, 1.44721611487059, 0.0 ], [ 103.857170404415996, 1.44706342146005, 0.0 ], [ 103.857235945750006, 1.4469066366737, 0.0 ], [ 103.857313713569994, 1.44676373916295, 0.0 ], [ 103.857384863402999, 1.44664076304167, 0.0 ], [ 103.85747113459, 1.44649192014839, 0.0 ], [ 103.857543346822993, 1.44639466772926, 0.0 ], [ 103.857603029451994, 1.44625737655256, 0.0 ], [ 103.857671229584, 1.44609064915119, 0.0 ], [ 103.857733902196003, 1.44590275517711, 0.0 ], [ 103.857760292918002, 1.4457959215136, 0.0 ], [ 103.857793825773996, 1.44569540203907, 0.0 ], [ 103.857823118311003, 1.44552736915311, 0.0 ], [ 103.857833701757997, 1.44541972715894, 0.0 ], [ 103.857840710711997, 1.44532474719844, 0.0 ], [ 103.857840540872999, 1.44524054190392, 0.0 ], [ 103.858008903916001, 1.44471401595384, 0.0 ], [ 103.858116759129999, 1.44438029012679, 0.0 ], [ 103.858250841509005, 1.44394526985293, 0.0 ], [ 103.858273235653002, 1.44387815858996, 0.0 ], [ 103.858032996437004, 1.44373236334256, 0.0 ], [ 103.857331714468003, 1.4432673606842, 0.0 ], [ 103.856871498079002, 1.44299251856094, 0.0 ], [ 103.856599869814005, 1.44281757132147, 0.0 ], [ 103.85621142446, 1.44252556530696, 0.0 ], [ 103.855783490500002, 1.4421605602858, 0.0 ], [ 103.855479065393993, 1.44189304166428, 0.0 ], [ 103.855101201302006, 1.44150375294907, 0.0 ], [ 103.854615629671002, 1.44102108692058, 0.0 ], [ 103.854231132457997, 1.44063557564215, 0.0 ], [ 103.853734279280999, 1.44015003816487, 0.0 ], [ 103.852872703044, 1.43926269315015, 0.0 ], [ 103.852529488862004, 1.43898623390913, 0.0 ], [ 103.852364940539005, 1.43887941004748, 0.0 ], [ 103.852028892613006, 1.43869256225874, 0.0 ], [ 103.851761605830006, 1.43856578622067, 0.0 ], [ 103.851515090324, 1.4384628490115, 0.0 ], [ 103.850965453049994, 1.43823830165045, 0.0 ], [ 103.850596491722996, 1.4380756121693, 0.0 ], [ 103.849982043891004, 1.43779884981101, 0.0 ], [ 103.849385896247, 1.43754073784767, 0.0 ], [ 103.848896223736006, 1.43733447850121, 0.0 ], [ 103.848506615663993, 1.43717295906371, 0.0 ], [ 103.848181746443998, 1.43706540432879, 0.0 ], [ 103.847869821382005, 1.43693473483136, 0.0 ], [ 103.847696252443001, 1.43683233573436, 0.0 ], [ 103.847594504767002, 1.43674198320328, 0.0 ], [ 103.846302483298004, 1.43552760497741, 0.0 ], [ 103.846181351154002, 1.43574476058569, 0.0 ], [ 103.846053090796005, 1.43602818528986, 0.0 ], [ 103.845948642283005, 1.4363096121147, 0.0 ], [ 103.845660108744994, 1.43717631702638, 0.0 ], [ 103.845571912954, 1.43744124091404, 0.0 ], [ 103.845503757317005, 1.4376459675268, 0.0 ], [ 103.844833004015001, 1.43895476984321, 0.0 ], [ 103.844568045474006, 1.43930101586996, 0.0 ], [ 103.844518957185002, 1.43935484745942, 0.0 ], [ 103.844324823481003, 1.43955690587551, 0.0 ], [ 103.844145851695998, 1.43974318395988, 0.0 ], [ 103.843631461754001, 1.44020162008637, 0.0 ], [ 103.843080750240006, 1.44064658123286, 0.0 ], [ 103.842018110919994, 1.44152869650692, 0.0 ], [ 103.841389833706998, 1.44200488250341, 0.0 ], [ 103.840939957123993, 1.44233274846521, 0.0 ], [ 103.840521105267001, 1.44261377633775, 0.0 ], [ 103.839621349341996, 1.4431446070571, 0.0 ], [ 103.839249037287004, 1.4433866031301, 0.0 ], [ 103.838765908347, 1.44370003419571, 0.0 ], [ 103.838322732807001, 1.44402923988591, 0.0 ], [ 103.837932316530996, 1.44433720640022, 0.0 ], [ 103.837541900248993, 1.44469827075262, 0.0 ], [ 103.837125402972006, 1.44510220192004, 0.0 ], [ 103.836886416433003, 1.44536197173762, 0.0 ], [ 103.836694146216004, 1.44561614164032, 0.0 ], [ 103.836689928200002, 1.44562244958337, 0.0 ], [ 103.835512742231003, 1.44738297401288, 0.0 ], [ 103.833063944241005, 1.45138528710332, 0.0 ], [ 103.837342072739006, 1.45403474705094, 0.0 ], [ 103.837669914840006, 1.45423790359058, 0.0 ], [ 103.838483441739996, 1.45474202851932, 0.0 ], [ 103.843403873531997, 1.45779110263019, 0.0 ], [ 103.843578391037994, 1.45789924653983, 0.0 ], [ 103.845019966170995, 1.45879255263273, 0.0 ], [ 103.846361362907999, 1.45962378013834, 0.0 ], [ 103.847240436367997, 1.46016851461157, 0.0 ], [ 103.847256599031994, 1.46007987964771, 0.0 ], [ 103.847286701013005, 1.45987088556421, 0.0 ], [ 103.847310294283005, 1.45964391548626, 0.0 ], [ 103.847338624238006, 1.45929497296031, 0.0 ], [ 103.847354751989002, 1.45893896200393, 0.0 ], [ 103.847343935745997, 1.45854537400477, 0.0 ], [ 103.847343716620003, 1.45842166068767, 0.0 ], [ 103.847324426084, 1.45824446071528, 0.0 ], [ 103.847259275013997, 1.45802360559003, 0.0 ], [ 103.847124311301002, 1.45763884584829, 0.0 ], [ 103.846986877950002, 1.45720083989732, 0.0 ], [ 103.846851465030994, 1.45681608556433, 0.0 ], [ 103.846762609817006, 1.45660095699414, 0.0 ], [ 103.846686057279996, 1.45636534722443, 0.0 ], [ 103.846643082493003, 1.45621739992791, 0.0 ], [ 103.846448290775996, 1.45565908950102, 0.0 ], [ 103.846391706562997, 1.45549229081894, 0.0 ], [ 103.846355332013999, 1.45533769550016, 0.0 ], [ 103.846286623902003, 1.4550203664687, 0.0 ], [ 103.846234083729001, 1.45474778977391, 0.0 ], [ 103.846193669292006, 1.45447114246705, 0.0 ], [ 103.846161339340995, 1.45414974267945, 0.0 ], [ 103.846145180885998, 1.45371035861728, 0.0 ], [ 103.846147882138993, 1.45340104002041, 0.0 ], [ 103.846157567423006, 1.4532678688057, 0.0 ], [ 103.846183387531994, 1.45305024802418, 0.0 ], [ 103.846347978477993, 1.45230967817983, 0.0 ], [ 103.846364115070003, 1.45222198104164, 0.0 ], [ 103.846386706169994, 1.45210829788147, 0.0 ], [ 103.846451251714996, 1.45177374265311, 0.0 ], [ 103.846483039272002, 1.45153506191508, 0.0 ], [ 103.846497842564006, 1.4513324780455, 0.0 ], [ 103.846488967306001, 1.45106137520381, 0.0 ], [ 103.846474174796001, 1.45079623034362, 0.0 ], [ 103.846453465733006, 1.45034637738406, 0.0 ], [ 103.846447551967003, 1.4500216493762, 0.0 ], [ 103.846460538738, 1.44974244149667, 0.0 ], [ 103.846479447711999, 1.44953693198377, 0.0 ], [ 103.846525587878006, 1.44933088873635, 0.0 ], [ 103.846577710554001, 1.44921642855008, 0.0 ], [ 103.846636004906998, 1.44911792039638, 0.0 ], [ 103.846718247004006, 1.4490264290564, 0.0 ], [ 103.846776721344995, 1.44897521730787, 0.0 ], [ 103.846850779281993, 1.44893508120588, 0.0 ], [ 103.847160847105002, 1.44883231286453, 0.0 ], [ 103.847569227926996, 1.44870290040396, 0.0 ], [ 103.847867951048002, 1.44863058196125, 0.0 ], [ 103.848196923962007, 1.44859251062641, 0.0 ] ] ] } }
]
}
