{
"type": "FeatureCollection",
"crs": { "type": "name", "properties": { "name": "urn:ogc:def:crs:OGC:1.3:CRS84" } },
"features": [
{ "type": "Feature", "properties": { "Name": "kml_25", "Description": "<center><table><tr><th colspan='2' align='center'><em>Attributes<\/em><\/th><\/tr><tr bgcolor=\"#E3E3F3\"> <th>SUBZONE_NO<\/th> <td>5<\/td> <\/tr><tr bgcolor=\"\"> <th>SUBZONE_N<\/th> <td>SINGAPORE GENERAL HOSPITAL<\/td> <\/tr><tr bgcolor=\"#E3E3F3\"> <th>SUBZONE_C<\/th> <td>BMSZ05<\/td> <\/tr><tr bgcolor=\"\"> <th>CA_IND<\/th> <td>N<\/td> <\/tr><tr bgcolor=\"#E3E3F3\"> <th>PLN_AREA_N<\/th> <td>BUKIT MERAH<\/td> <\/tr><tr bgcolor=\"\"> <th>PLN_AREA_C<\/th> <td>BM<\/td> <\/tr><tr bgcolor=\"#E3E3F3\"> <th>REGION_N<\/th> <td>CENTRAL REGION<\/td> <\/tr><tr bgcolor=\"\"> <th>REGION_C<\/th> <td>CR<\/td> <\/tr><tr bgcolor=\"#E3E3F3\"> <th>INC_CRC<\/th> <td>14ADFD60AD7D4564<\/td> <\/tr><tr bgcolor=\"\"> <th>FMEL_UPD_D<\/th> <td>20191223152313<\/td> <\/tr><\/table><\/center>", "Subzone": "SINGAPORE GENERAL HOSPITAL" }, "geometry": { "type": "Polygon", "coordinates": [ [ [ 103.834906629675004, 1.2761227983529, 0.0 ], [ 103.834536318461005, 1.276122798554, 0.0 ], [ 103.834022208159993, 1.27620954814551, 0.0 ], [ 103.833269370081993, 1.27697860302472, 0.0 ], [ 103.831463093603006, 1.27790187034041, 0.0 ], [ 103.831009268330007, 1.27807641511772, 0.0 ], [ 103.830731001993001, 1.27818479756315, 0.0 ], [ 103.829665392627007, 1.27864868935325, 0.0 ], [ 103.829564377138993, 1.27871918354971, 0.0 ], [ 103.829378562076002, 1.27884535303159, 0.0 ], [ 103.829029010808995, 1.27907063158351, 0.0 ], [ 103.829273649688005, 1.27944066194698, 0.0 ], [ 103.829979527430993, 1.28019080837311, 0.0 ], [ 103.830271956329, 1.280456077066, 0.0 ], [ 103.830687546939998, 1.28080478708692, 0.0 ], [ 103.831244412111005, 1.28121521554425, 0.0 ], [ 103.831525380453996, 1.28139840301629, 0.0 ], [ 103.831922404945004, 1.28163541018568, 0.0 ], [ 103.832347315662005, 1.28185745639467, 0.0 ], [ 103.833837625686996, 1.28246421124592, 0.0 ], [ 103.835178502084005, 1.28293963798124, 0.0 ], [ 103.835964304463999, 1.28328567534418, 0.0 ], [ 103.835974522656002, 1.28329013927883, 0.0 ], [ 103.835974971924998, 1.28328965001693, 0.0 ], [ 103.836412945461007, 1.28287152906331, 0.0 ], [ 103.836755535574, 1.28261362274052, 0.0 ], [ 103.836962760028001, 1.28248380086816, 0.0 ], [ 103.837126403572, 1.28238132794396, 0.0 ], [ 103.837378483899997, 1.28222399157177, 0.0 ], [ 103.837685078480007, 1.2820308657442, 0.0 ], [ 103.837940368315003, 1.28187125754594, 0.0 ], [ 103.838105939141997, 1.28176632829986, 0.0 ], [ 103.838141186973004, 1.28174399041974, 0.0 ], [ 103.838206840417001, 1.28170402731297, 0.0 ], [ 103.838585120201003, 1.28147374992698, 0.0 ], [ 103.838966208534003, 1.28114518971499, 0.0 ], [ 103.839241684320996, 1.28079201197489, 0.0 ], [ 103.839614605855004, 1.27980700573177, 0.0 ], [ 103.839598182284007, 1.27976775000318, 0.0 ], [ 103.839596021286994, 1.27976258246722, 0.0 ], [ 103.839516513704993, 1.27957254122103, 0.0 ], [ 103.839309231250994, 1.27933227094131, 0.0 ], [ 103.839041783542001, 1.27904238279665, 0.0 ], [ 103.837478241789, 1.27794495160685, 0.0 ], [ 103.836614179853996, 1.2774480007006, 0.0 ], [ 103.836470169364006, 1.27732376284047, 0.0 ], [ 103.835276941881006, 1.27624703614052, 0.0 ], [ 103.834906629675004, 1.2761227983529, 0.0 ] ] ] } }
]
}
