{
"type": "FeatureCollection",
"crs": { "type": "name", "properties": { "name": "urn:ogc:def:crs:OGC:1.3:CRS84" } },
"features": [
{ "type": "Feature", "properties": { "Name": "kml_270", "Description": "<center><table><tr><th colspan='2' align='center'><em>Attributes<\/em><\/th><\/tr><tr bgcolor=\"#E3E3F3\"> <th>SUBZONE_NO<\/th> <td>6<\/td> <\/tr><tr bgcolor=\"\"> <th>SUBZONE_N<\/th> <td>SPRINGLEAF<\/td> <\/tr><tr bgcolor=\"#E3E3F3\"> <th>SUBZONE_C<\/th> <td>YSSZ06<\/td> <\/tr><tr bgcolor=\"\"> <th>CA_IND<\/th> <td>N<\/td> <\/tr><tr bgcolor=\"#E3E3F3\"> <th>PLN_AREA_N<\/th> <td>YISHUN<\/td> <\/tr><tr bgcolor=\"\"> <th>PLN_AREA_C<\/th> <td>YS<\/td> <\/tr><tr bgcolor=\"#E3E3F3\"> <th>REGION_N<\/th> <td>NORTH REGION<\/td> <\/tr><tr bgcolor=\"\"> <th>REGION_C<\/th> <td>NR<\/td> <\/tr><tr bgcolor=\"#E3E3F3\"> <th>INC_CRC<\/th> <td>5D0241839A91E181<\/td> <\/tr><tr bgcolor=\"\"> <th>FMEL_UPD_D<\/th> <td>20191223152313<\/td> <\/tr><\/table><\/center>", "Subzone": "SPRINGLEAF" }, "geometry": { "type": "Polygon", "coordinates": [ [ [ 103.826609509948995, 1.39291496548485, 0.0 ], [ 103.826340322639993, 1.39291146661618, 0.0 ], [ 103.826071135321001, 1.39291153724168, 0.0 ], [ 103.825801526554997, 1.39291570460427, 0.0 ], [ 103.825532814555004, 1.3929248179061, 0.0 ], [ 103.825263221034007, 1.39293756943082, 0.0 ], [ 103.824994084870994, 1.39295484365097, 0.0 ], [ 103.824725862549002, 1.39297480290055, 0.0 ], [ 103.824456744320003, 1.39300020277039, 0.0 ], [ 103.824188541724993, 1.39302878054829, 0.0 ], [ 103.823919898800995, 1.39306188011414, 0.0 ], [ 103.823653869818997, 1.39309960638664, 0.0 ], [ 103.823404706256994, 1.39313786537085, 0.0 ], [ 103.821893353597005, 1.39353464641027, 0.0 ], [ 103.818822489134007, 1.39434085820381, 0.0 ], [ 103.818785031241006, 1.3953170764762, 0.0 ], [ 103.818692154957006, 1.39603763610038, 0.0 ], [ 103.818591865694003, 1.39655462332098, 0.0 ], [ 103.818397868199, 1.39716824123549, 0.0 ], [ 103.818009872787997, 1.39827461327155, 0.0 ], [ 103.817390929762993, 1.39979935964106, 0.0 ], [ 103.817163827271997, 1.40103289341228, 0.0 ], [ 103.817238306473996, 1.40165796500973, 0.0 ], [ 103.817452120685999, 1.40217009696302, 0.0 ], [ 103.817507834826998, 1.40226997711202, 0.0 ], [ 103.817728236991002, 1.40273257164085, 0.0 ], [ 103.817994543184, 1.40335835079544, 0.0 ], [ 103.818228525514002, 1.40373030729164, 0.0 ], [ 103.819198482169, 1.40493048490329, 0.0 ], [ 103.819473630838004, 1.40544185827536, 0.0 ], [ 103.819734199188005, 1.40595575922569, 0.0 ], [ 103.820283365901005, 1.40695992383169, 0.0 ], [ 103.820379471224996, 1.40713563957849, 0.0 ], [ 103.820776158645003, 1.40795001880818, 0.0 ], [ 103.822043643024998, 1.41055209570148, 0.0 ], [ 103.822386394560993, 1.41123929729203, 0.0 ], [ 103.822734377277001, 1.41205648850959, 0.0 ], [ 103.823079673799995, 1.41341102015454, 0.0 ], [ 103.823672230689994, 1.41298282989859, 0.0 ], [ 103.825493262414, 1.41164564787897, 0.0 ], [ 103.825889692500994, 1.41138567982193, 0.0 ], [ 103.826171069973, 1.41121564129462, 0.0 ], [ 103.826544292836005, 1.41102354737581, 0.0 ], [ 103.827105136973003, 1.41075531369801, 0.0 ], [ 103.827663824257002, 1.4105366779109, 0.0 ], [ 103.828363088866993, 1.41032129257846, 0.0 ], [ 103.828917737514004, 1.41019418806036, 0.0 ], [ 103.829443761590994, 1.41010813244185, 0.0 ], [ 103.829723096842997, 1.41008315707471, 0.0 ], [ 103.827874299100998, 1.40628736867523, 0.0 ], [ 103.827778402888001, 1.40599768980464, 0.0 ], [ 103.827511688837006, 1.40452174538064, 0.0 ], [ 103.827480981069002, 1.40435181711338, 0.0 ], [ 103.827462588440994, 1.404161405936, 0.0 ], [ 103.827461791605003, 1.40407837356027, 0.0 ], [ 103.827448306489998, 1.40267043971573, 0.0 ], [ 103.827728872437007, 1.40092321813122, 0.0 ], [ 103.827936399823997, 1.40020010540741, 0.0 ], [ 103.828142006446996, 1.39964398438315, 0.0 ], [ 103.828373315014005, 1.39912666151507, 0.0 ], [ 103.828617473061001, 1.39867400519977, 0.0 ], [ 103.828900181939005, 1.39822134802605, 0.0 ], [ 103.829244427443996, 1.39769892556703, 0.0 ], [ 103.829591930926995, 1.39725446557356, 0.0 ], [ 103.830019071007996, 1.3967881471609, 0.0 ], [ 103.830504127099999, 1.39633640075719, 0.0 ], [ 103.830989182956998, 1.39593565857643, 0.0 ], [ 103.831597312689993, 1.39549848498495, 0.0 ], [ 103.832531225975998, 1.39488644171769, 0.0 ], [ 103.833637469254001, 1.39420213032266, 0.0 ], [ 103.832357139126003, 1.39390771802285, 0.0 ], [ 103.831516931606998, 1.39368273886348, 0.0 ], [ 103.829734966770005, 1.39326576616636, 0.0 ], [ 103.827372126699998, 1.39294778601922, 0.0 ], [ 103.827291690408998, 1.39294308402411, 0.0 ], [ 103.827147920480002, 1.39293467939317, 0.0 ], [ 103.826878714320998, 1.39292256109203, 0.0 ], [ 103.826609509948995, 1.39291496548485, 0.0 ] ] ] } }
]
}
