{
"type": "FeatureCollection",
"crs": { "type": "name", "properties": { "name": "urn:ogc:def:crs:OGC:1.3:CRS84" } },
"features": [
{ "type": "Feature", "properties": { "Name": "kml_254", "Description": "<center><table><tr><th colspan='2' align='center'><em>Attributes<\/em><\/th><\/tr><tr bgcolor=\"#E3E3F3\"> <th>SUBZONE_NO<\/th> <td>8<\/td> <\/tr><tr bgcolor=\"\"> <th>SUBZONE_N<\/th> <td>TAGORE<\/td> <\/tr><tr bgcolor=\"#E3E3F3\"> <th>SUBZONE_C<\/th> <td>AMSZ08<\/td> <\/tr><tr bgcolor=\"\"> <th>CA_IND<\/th> <td>N<\/td> <\/tr><tr bgcolor=\"#E3E3F3\"> <th>PLN_AREA_N<\/th> <td>ANG MO KIO<\/td> <\/tr><tr bgcolor=\"\"> <th>PLN_AREA_C<\/th> <td>AM<\/td> <\/tr><tr bgcolor=\"#E3E3F3\"> <th>REGION_N<\/th> <td>NORTH-EAST REGION<\/td> <\/tr><tr bgcolor=\"\"> <th>REGION_C<\/th> <td>NER<\/td> <\/tr><tr bgcolor=\"#E3E3F3\"> <th>INC_CRC<\/th> <td>DECC20CBAF2CD0C4<\/td> <\/tr><tr bgcolor=\"\"> <th>FMEL_UPD_D<\/th> <td>20191223152313<\/td> <\/tr><\/table><\/center>", "Subzone": "TAGORE" }, "geometry": { "type": "Polygon", "coordinates": [ [ [ 103.826071135321001, 1.39291153724168, 0.0 ], [ 103.826340322639993, 1.39291146661618, 0.0 ], [ 103.826609509948995, 1.39291496548485, 0.0 ], [ 103.826878714320998, 1.39292256109203, 0.0 ], [ 103.827147920480002, 1.39293467939317, 0.0 ], [ 103.827291690408998, 1.39294308402411, 0.0 ], [ 103.827372126699998, 1.39294778601922, 0.0 ], [ 103.829734966770005, 1.39326576616636, 0.0 ], [ 103.831516931606998, 1.39368273886348, 0.0 ], [ 103.832357139126003, 1.39390771802285, 0.0 ], [ 103.833637469254001, 1.39420213032266, 0.0 ], [ 103.833859024830005, 1.39425307673063, 0.0 ], [ 103.837299165461005, 1.39201211885945, 0.0 ], [ 103.839781425583993, 1.39046554850915, 0.0 ], [ 103.840429663530003, 1.38990053520289, 0.0 ], [ 103.840960912867004, 1.3891242038547, 0.0 ], [ 103.841307427304997, 1.38845554480276, 0.0 ], [ 103.841661785308006, 1.3878093582138, 0.0 ], [ 103.841613323128996, 1.38777513995901, 0.0 ], [ 103.840868952723994, 1.38722851040833, 0.0 ], [ 103.839917903249997, 1.38650594168097, 0.0 ], [ 103.839394271822002, 1.38603964478962, 0.0 ], [ 103.838624197570994, 1.38539159014043, 0.0 ], [ 103.837794361779999, 1.384547027866, 0.0 ], [ 103.837328577788995, 1.38401090624476, 0.0 ], [ 103.837260674994994, 1.38393431756543, 0.0 ], [ 103.837166114111, 1.38382515825167, 0.0 ], [ 103.837043999254007, 1.38367731570411, 0.0 ], [ 103.836878850654003, 1.38347567078124, 0.0 ], [ 103.836711842016996, 1.38326441878831, 0.0 ], [ 103.836231103393004, 1.38261302851376, 0.0 ], [ 103.835773386667995, 1.38210530360048, 0.0 ], [ 103.835598168838004, 1.38188724167194, 0.0 ], [ 103.835288539464997, 1.38159387343841, 0.0 ], [ 103.834933538491995, 1.38138094025087, 0.0 ], [ 103.834827517421999, 1.38131639675179, 0.0 ], [ 103.834612736444001, 1.38118791476037, 0.0 ], [ 103.834223276182001, 1.38104256190734, 0.0 ], [ 103.833571108715006, 1.38077936042723, 0.0 ], [ 103.833144444902004, 1.3806956723769, 0.0 ], [ 103.833010219453001, 1.38065865040492, 0.0 ], [ 103.832523982913997, 1.38052174763499, 0.0 ], [ 103.832290883770995, 1.38044667536654, 0.0 ], [ 103.831936230972005, 1.38025334653386, 0.0 ], [ 103.831690385631006, 1.38013153846494, 0.0 ], [ 103.831580416359003, 1.38008105768017, 0.0 ], [ 103.831521552585997, 1.38004721451836, 0.0 ], [ 103.831095085892997, 1.37982498021394, 0.0 ], [ 103.829365493471997, 1.37869420253214, 0.0 ], [ 103.829014797862001, 1.37834912637625, 0.0 ], [ 103.828478425678, 1.37798295188125, 0.0 ], [ 103.828272807301005, 1.37780412337366, 0.0 ], [ 103.828071673522004, 1.37772140616592, 0.0 ], [ 103.827794597568001, 1.37771116270479, 0.0 ], [ 103.827714797349003, 1.3783588989199, 0.0 ], [ 103.827682053068003, 1.37846989055798, 0.0 ], [ 103.827602120039003, 1.37864337003155, 0.0 ], [ 103.827323987143998, 1.37903717292967, 0.0 ], [ 103.827281967893001, 1.37909356897481, 0.0 ], [ 103.827135355457997, 1.37918328785549, 0.0 ], [ 103.826586633391003, 1.37945154067429, 0.0 ], [ 103.826543856727, 1.37946950484247, 0.0 ], [ 103.826395494769002, 1.37954160846571, 0.0 ], [ 103.826045117860005, 1.37968874837235, 0.0 ], [ 103.825907835395995, 1.37972714453621, 0.0 ], [ 103.825818113606005, 1.3797492487226, 0.0 ], [ 103.825713108011996, 1.37975722307004, 0.0 ], [ 103.825428001488007, 1.37968346671131, 0.0 ], [ 103.825421913656001, 1.37968133600888, 0.0 ], [ 103.825251493932001, 1.37961212986621, 0.0 ], [ 103.825228243357003, 1.37960399412624, 0.0 ], [ 103.825153214373003, 1.37956043245289, 0.0 ], [ 103.825143280654004, 1.37955564471441, 0.0 ], [ 103.825117240042999, 1.37953730863984, 0.0 ], [ 103.825016771590995, 1.37947768807847, 0.0 ], [ 103.824810825244995, 1.37933292667138, 0.0 ], [ 103.824641633263994, 1.37919520043084, 0.0 ], [ 103.824633565010004, 1.37918399713739, 0.0 ], [ 103.824540845184998, 1.37907067724644, 0.0 ], [ 103.824513027278996, 1.3790320553651, 0.0 ], [ 103.824416189323003, 1.37891301715895, 0.0 ], [ 103.824414941211003, 1.37891128439243, 0.0 ], [ 103.824293945237002, 1.37875870683902, 0.0 ], [ 103.824288685013997, 1.37875140317357, 0.0 ], [ 103.824204496088996, 1.37868841840497, 0.0 ], [ 103.824181682266996, 1.37867134934678, 0.0 ], [ 103.824157514272002, 1.37866026988725, 0.0 ], [ 103.824119286265002, 1.37865744179181, 0.0 ], [ 103.823943769695006, 1.37865124982446, 0.0 ], [ 103.823722219787001, 1.37872240883255, 0.0 ], [ 103.823561750273001, 1.37882806323671, 0.0 ], [ 103.823508077374001, 1.37887483853986, 0.0 ], [ 103.823297652896002, 1.37910763999424, 0.0 ], [ 103.823041742292006, 1.37940420614267, 0.0 ], [ 103.822967614080994, 1.37948621718197, 0.0 ], [ 103.822808987095001, 1.3796744815938, 0.0 ], [ 103.822795352045006, 1.3796944914953, 0.0 ], [ 103.822764901954997, 1.37971980180017, 0.0 ], [ 103.822688880662994, 1.37974914084237, 0.0 ], [ 103.822640247973993, 1.37976345128195, 0.0 ], [ 103.822607419462003, 1.37976501839641, 0.0 ], [ 103.822546142121993, 1.37976072600515, 0.0 ], [ 103.822453021206996, 1.37973604728827, 0.0 ], [ 103.822256947298996, 1.3796622701555, 0.0 ], [ 103.822199752277001, 1.37963798318641, 0.0 ], [ 103.822105223292994, 1.37961597955854, 0.0 ], [ 103.821773853625999, 1.37958195487641, 0.0 ], [ 103.821708649529995, 1.37957641984789, 0.0 ], [ 103.821644204649999, 1.37958721944739, 0.0 ], [ 103.821510510059994, 1.37963964658372, 0.0 ], [ 103.821343930216997, 1.37971861392182, 0.0 ], [ 103.821341318955007, 1.37971985288752, 0.0 ], [ 103.821236631952999, 1.37980503079997, 0.0 ], [ 103.821211178842006, 1.37982515819903, 0.0 ], [ 103.821116341760998, 1.37995724371826, 0.0 ], [ 103.821049503262998, 1.38010498573195, 0.0 ], [ 103.820871095361994, 1.38037167184866, 0.0 ], [ 103.820764000192, 1.38044619269903, 0.0 ], [ 103.820692900368002, 1.38047105690865, 0.0 ], [ 103.820474181609001, 1.38054137094816, 0.0 ], [ 103.820291328848995, 1.38055411153295, 0.0 ], [ 103.819995978256998, 1.38055168618831, 0.0 ], [ 103.819887562600996, 1.38054549610542, 0.0 ], [ 103.819591855452003, 1.38051260448775, 0.0 ], [ 103.819046691984994, 1.38039860253243, 0.0 ], [ 103.818533846714004, 1.3802810682079, 0.0 ], [ 103.818513884921998, 1.38027535883177, 0.0 ], [ 103.818060273705996, 1.38015927899317, 0.0 ], [ 103.817904567607002, 1.38020032074127, 0.0 ], [ 103.817819298939, 1.38024136294246, 0.0 ], [ 103.817774810990997, 1.38030852525541, 0.0 ], [ 103.817752402539995, 1.38041694118927, 0.0 ], [ 103.817759710134993, 1.38049520943477, 0.0 ], [ 103.817792026446, 1.38063597121784, 0.0 ], [ 103.818133966724005, 1.38128334354209, 0.0 ], [ 103.818616261640003, 1.38211609326103, 0.0 ], [ 103.818770999929995, 1.38239584209182, 0.0 ], [ 103.818943355613001, 1.38269343683769, 0.0 ], [ 103.818943387961994, 1.38269349290847, 0.0 ], [ 103.819002440809996, 1.38279545670955, 0.0 ], [ 103.819009410985998, 1.38280749293449, 0.0 ], [ 103.819237027648001, 1.38320049931651, 0.0 ], [ 103.819296034641994, 1.38331136024438, 0.0 ], [ 103.819338032732006, 1.38338387512521, 0.0 ], [ 103.819341078871005, 1.3833891331165, 0.0 ], [ 103.819362588152998, 1.38352870466866, 0.0 ], [ 103.819410841457994, 1.38433303829248, 0.0 ], [ 103.819458752442998, 1.38498163407191, 0.0 ], [ 103.819469418406001, 1.38515943031681, 0.0 ], [ 103.819459958490995, 1.38526331457025, 0.0 ], [ 103.819452072982003, 1.38534982418893, 0.0 ], [ 103.819445221245999, 1.38536573462689, 0.0 ], [ 103.819367766287002, 1.38558582836541, 0.0 ], [ 103.819358929575998, 1.38560498998037, 0.0 ], [ 103.819303687070999, 1.38572964358733, 0.0 ], [ 103.819228145664994, 1.38586364729205, 0.0 ], [ 103.819195655396996, 1.38593836747088, 0.0 ], [ 103.819156666368002, 1.38605587036421, 0.0 ], [ 103.819099632757002, 1.38621771592991, 0.0 ], [ 103.819053679849006, 1.38631878376964, 0.0 ], [ 103.819016774876999, 1.38639111458876, 0.0 ], [ 103.818943154528, 1.38653539368014, 0.0 ], [ 103.818853596069999, 1.38668736338348, 0.0 ], [ 103.81874608359, 1.38676571773176, 0.0 ], [ 103.818675077072996, 1.38678019616007, 0.0 ], [ 103.818218823299006, 1.38672741729534, 0.0 ], [ 103.818045742427998, 1.38668519865076, 0.0 ], [ 103.817416424274995, 1.38641600506902, 0.0 ], [ 103.817361674162996, 1.38639258528462, 0.0 ], [ 103.817252311722996, 1.386434651037, 0.0 ], [ 103.816896619035006, 1.38658624171081, 0.0 ], [ 103.816747794156996, 1.38683370905551, 0.0 ], [ 103.816735949415005, 1.38692022586979, 0.0 ], [ 103.816889838296007, 1.38750914705509, 0.0 ], [ 103.816938998062994, 1.38757877077415, 0.0 ], [ 103.817055503044998, 1.38771255507157, 0.0 ], [ 103.817060144151, 1.38771912802209, 0.0 ], [ 103.817339735315997, 1.3878797667125, 0.0 ], [ 103.817473787278004, 1.38794948866788, 0.0 ], [ 103.817688887179003, 1.38803957110588, 0.0 ], [ 103.817847362441, 1.38811664930025, 0.0 ], [ 103.817893190597005, 1.38814426888185, 0.0 ], [ 103.818070053198994, 1.38826187625983, 0.0 ], [ 103.818141880403999, 1.38835068075949, 0.0 ], [ 103.818383984185999, 1.38861977585445, 0.0 ], [ 103.818145743019002, 1.38897144264125, 0.0 ], [ 103.817986913065994, 1.38940303490897, 0.0 ], [ 103.817955144932995, 1.38993053671699, 0.0 ], [ 103.818018671887998, 1.39045804005043, 0.0 ], [ 103.818355455022996, 1.39179326798155, 0.0 ], [ 103.818606315593001, 1.39282381143827, 0.0 ], [ 103.818749255905999, 1.39344722395433, 0.0 ], [ 103.818822489134007, 1.39434085820381, 0.0 ], [ 103.821893353597005, 1.39353464641027, 0.0 ], [ 103.823404706256994, 1.39313786537085, 0.0 ], [ 103.823653869818997, 1.39309960638664, 0.0 ], [ 103.823919898800995, 1.39306188011414, 0.0 ], [ 103.824188541724993, 1.39302878054829, 0.0 ], [ 103.824456744320003, 1.39300020277039, 0.0 ], [ 103.824725862549002, 1.39297480290055, 0.0 ], [ 103.824994084870994, 1.39295484365097, 0.0 ], [ 103.825263221034007, 1.39293756943082, 0.0 ], [ 103.825532814555004, 1.3929248179061, 0.0 ], [ 103.825801526554997, 1.39291570460427, 0.0 ], [ 103.826071135321001, 1.39291153724168, 0.0 ] ] ] } }
]
}
