{
"type": "FeatureCollection",
"crs": { "type": "name", "properties": { "name": "urn:ogc:def:crs:OGC:1.3:CRS84" } },
"features": [
{ "type": "Feature", "properties": { "Name": "kml_252", "Description": "<center><table><tr><th colspan='2' align='center'><em>Attributes<\/em><\/th><\/tr><tr bgcolor=\"#E3E3F3\"> <th>SUBZONE_NO<\/th> <td>10<\/td> <\/tr><tr bgcolor=\"\"> <th>SUBZONE_N<\/th> <td>YIO CHU KANG<\/td> <\/tr><tr bgcolor=\"#E3E3F3\"> <th>SUBZONE_C<\/th> <td>AMSZ10<\/td> <\/tr><tr bgcolor=\"\"> <th>CA_IND<\/th> <td>N<\/td> <\/tr><tr bgcolor=\"#E3E3F3\"> <th>PLN_AREA_N<\/th> <td>ANG MO KIO<\/td> <\/tr><tr bgcolor=\"\"> <th>PLN_AREA_C<\/th> <td>AM<\/td> <\/tr><tr bgcolor=\"#E3E3F3\"> <th>REGION_N<\/th> <td>NORTH-EAST REGION<\/td> <\/tr><tr bgcolor=\"\"> <th>REGION_C<\/th> <td>NER<\/td> <\/tr><tr bgcolor=\"#E3E3F3\"> <th>INC_CRC<\/th> <td>5E2B16BB381BAEA4<\/td> <\/tr><tr bgcolor=\"\"> <th>FMEL_UPD_D<\/th> <td>20191223152313<\/td> <\/tr><\/table><\/center>", "Subzone": "YIO CHU KANG" }, "geometry": { "type": "Polygon", "coordinates": [ [ [ 103.847681029488996, 1.37714319313344, 0.0 ], [ 103.847708824437007, 1.37674093809727, 0.0 ], [ 103.845618289721003, 1.37720345256886, 0.0 ], [ 103.844891991501001, 1.37729538122918, 0.0 ], [ 103.844698797608004, 1.37734366888252, 0.0 ], [ 103.844729610928994, 1.37798451839637, 0.0 ], [ 103.844583097956999, 1.37920108881483, 0.0 ], [ 103.844473213124004, 1.3801595987188, 0.0 ], [ 103.844180180842002, 1.38133930427716, 0.0 ], [ 103.841613323128996, 1.38777513995901, 0.0 ], [ 103.841661785308006, 1.3878093582138, 0.0 ], [ 103.842048238255998, 1.38808223422174, 0.0 ], [ 103.842274720733002, 1.38823848578897, 0.0 ], [ 103.842958778186002, 1.38874282887564, 0.0 ], [ 103.843279566849006, 1.38898411821922, 0.0 ], [ 103.844078162326994, 1.38957442662584, 0.0 ], [ 103.844898706966006, 1.39018546628957, 0.0 ], [ 103.845292095969, 1.39047297342531, 0.0 ], [ 103.845491323266003, 1.39063949748644, 0.0 ], [ 103.846072121532004, 1.39106430225935, 0.0 ], [ 103.847627104330996, 1.39184797814161, 0.0 ], [ 103.848277124023994, 1.39207227175504, 0.0 ], [ 103.849711859817006, 1.39238663178135, 0.0 ], [ 103.85026086, 1.39238508051208, 0.0 ], [ 103.850150897524003, 1.39114555899084, 0.0 ], [ 103.849894468811996, 1.3882331665717, 0.0 ], [ 103.849711309623004, 1.38686913535686, 0.0 ], [ 103.849504919015999, 1.38592493361173, 0.0 ], [ 103.849364482539002, 1.3856911528274, 0.0 ], [ 103.849260594778997, 1.38518832707451, 0.0 ], [ 103.849144773616004, 1.38463127572071, 0.0 ], [ 103.849035980178002, 1.38419698270007, 0.0 ], [ 103.848891989644997, 1.38377319952068, 0.0 ], [ 103.848772696601003, 1.38350281893787, 0.0 ], [ 103.848597005190996, 1.38319942037859, 0.0 ], [ 103.848070008486005, 1.38228592278053, 0.0 ], [ 103.847672420631, 1.3815584456504, 0.0 ], [ 103.847259791582005, 1.38095109522858, 0.0 ], [ 103.846529236343997, 1.38001033548654, 0.0 ], [ 103.846408300186994, 1.37988997432897, 0.0 ], [ 103.846710082583996, 1.37954662535073, 0.0 ], [ 103.847011865339994, 1.37912404317838, 0.0 ], [ 103.847300526325, 1.37858261040668, 0.0 ], [ 103.847471097718, 1.37806758935886, 0.0 ], [ 103.847589184669005, 1.37761859624408, 0.0 ], [ 103.847681029488996, 1.37714319313344, 0.0 ] ] ] } }
]
}
